Core,max_llc,size,type
0,22064,1236,0
0,31472,1236,0
0,33824,1236,0
0,31640,1236,0
0,31920,1236,0
0,33152,1236,0
0,34664,1236,0
0,30520,1236,0
0,31696,1236,0
0,33432,1236,0
0,30240,1236,0
0,28112,1236,0
0,32144,1236,0
0,29960,1236,0
0,28728,1236,0
0,27944,1236,0
0,32032,1236,0
0,33712,1236,0
0,29680,1236,0
0,34440,1236,0
0,32144,1236,0
0,33768,1236,0
0,29568,1236,0
0,29624,1236,0
0,31416,1236,0
0,31304,1236,0
0,33488,1236,0
0,34440,1236,0
0,34496,1236,0
0,34384,1236,0
0,32424,262144,1
2,0,262144,1
0,34552,262144,1
2,168,262144,1
0,32032,262144,1
2,336,262144,1
0,34608,262144,1
2,392,262144,1
0,30800,262144,1
2,4648,262144,1
0,34776,262144,1
2,112,262144,1
0,34384,262144,1
2,280,262144,1
0,35056,262144,1
2,280,262144,1
0,34328,262144,1
2,224,262144,1
0,35000,262144,1
2,168,262144,1
0,33656,262144,1
2,504,262144,1
0,34384,262144,1
2,448,262144,1
0,34608,262144,1
2,280,262144,1
0,34384,262144,1
2,336,262144,1
0,33824,262144,1
2,336,262144,1
0,34720,262144,1
2,336,262144,1
0,33768,262144,1
2,224,262144,1
0,34216,262144,1
2,224,262144,1
0,29960,262144,1
2,392,262144,1
0,33600,262144,1
2,560,262144,1
0,34216,262144,1
2,616,262144,1
0,34272,262144,1
2,280,262144,1
0,31136,262144,1
2,504,262144,1
0,34328,262144,1
2,504,262144,1
0,29400,262144,1
2,280,262144,1
0,33936,262144,1
2,168,262144,1
0,34720,262144,1
2,168,262144,1
0,34272,262144,1
2,168,262144,1
0,33992,262144,1
2,560,262144,1
0,34496,262144,1
2,336,262144,1
0,33096,990848,1
2,672,990848,1
0,33264,990848,1
2,616,990848,1
0,33096,990848,1
2,840,990848,1
0,34048,990848,1
2,672,990848,1
0,27552,990848,1
2,672,990848,1
0,34216,990848,1
2,504,990848,1
0,34440,990848,1
2,672,990848,1
0,34216,990848,1
2,672,990848,1
0,28448,990848,1
2,560,990848,1
0,34384,990848,1
2,616,990848,1
0,33824,990848,1
2,504,990848,1
0,34328,990848,1
2,840,990848,1
0,34496,990848,1
2,448,990848,1
0,33824,990848,1
2,560,990848,1
0,33880,990848,1
2,560,990848,1
0,34048,990848,1
2,672,990848,1
0,33824,990848,1
2,504,990848,1
0,34104,990848,1
2,560,990848,1
0,33824,990848,1
2,728,990848,1
0,33936,990848,1
2,840,990848,1
0,29344,990848,1
2,448,990848,1
0,29288,990848,1
2,336,990848,1
0,29960,990848,1
2,4088,990848,1
0,33096,990848,1
2,952,990848,1
0,33880,990848,1
2,840,990848,1
0,33656,990848,1
2,1064,990848,1
0,33376,990848,1
2,1344,990848,1
0,34496,990848,1
2,448,990848,1
0,33600,990848,1
2,504,990848,1
0,33992,990848,1
2,1064,990848,1
0,28840,1719552,1
2,840,1719552,1
0,33488,1719552,1
2,1232,1719552,1
0,32536,1719552,1
2,1344,1719552,1
0,33488,1719552,1
2,1344,1719552,1
0,32872,1719552,1
2,1512,1719552,1
0,33320,1719552,1
2,1624,1719552,1
0,33768,1719552,1
2,896,1719552,1
0,33208,1719552,1
2,1456,1719552,1
0,33096,1719552,1
2,1064,1719552,1
0,32760,1719552,1
2,1848,1719552,1
0,29176,1719552,1
2,1120,1719552,1
0,33152,1719552,1
2,1568,1719552,1
0,29456,1719552,1
2,728,1719552,1
0,32648,1719552,1
2,1400,1719552,1
0,33208,1719552,1
2,1344,1719552,1
0,33544,1719552,1
2,1288,1719552,1
0,32648,1719552,1
2,1232,1719552,1
0,33488,1719552,1
2,1568,1719552,1
0,33488,1719552,1
2,1400,1719552,1
0,33768,1719552,1
2,1120,1719552,1
0,29232,1719552,1
2,1064,1719552,1
0,33992,1719552,1
2,1400,1719552,1
0,33320,1719552,1
2,2016,1719552,1
0,32592,1719552,1
2,1960,1719552,1
0,33040,1719552,1
2,1792,1719552,1
0,33432,1719552,1
2,1400,1719552,1
0,30744,1719552,1
2,952,1719552,1
0,33320,1719552,1
2,1792,1719552,1
0,31864,1719552,1
2,840,1719552,1
0,33600,1719552,1
2,1288,1719552,1
0,32872,2448256,1
2,1960,2448256,1
0,32872,2448256,1
2,2016,2448256,1
0,30968,2448256,1
2,616,2448256,1
0,32928,2448256,1
2,2408,2448256,1
0,30464,2448256,1
2,1624,2448256,1
0,32760,2448256,1
2,2296,2448256,1
0,26936,2448256,1
2,1232,2448256,1
0,32816,2448256,1
2,2072,2448256,1
0,30408,2448256,1
2,1064,2448256,1
0,32984,2448256,1
2,2016,2448256,1
0,29904,2448256,1
2,5656,2448256,1
0,32144,2448256,1
2,2184,2448256,1
0,28056,2448256,1
2,1792,2448256,1
0,33040,2448256,1
2,1904,2448256,1
0,29232,2448256,1
2,952,2448256,1
0,32200,2448256,1
2,2296,2448256,1
0,28784,2448256,1
2,1288,2448256,1
0,32200,2448256,1
2,2408,2448256,1
0,29008,2448256,1
2,1456,2448256,1
0,32928,2448256,1
2,2240,2448256,1
0,32760,2448256,1
2,2632,2448256,1
0,32984,2448256,1
2,2464,2448256,1
0,32592,2448256,1
2,1848,2448256,1
0,32704,2448256,1
2,2352,2448256,1
0,32536,2448256,1
2,1904,2448256,1
0,32984,2448256,1
2,2128,2448256,1
0,33264,2448256,1
2,1624,2448256,1
0,32032,2448256,1
2,2184,2448256,1
0,32480,2448256,1
2,1680,2448256,1
0,33152,2448256,1
2,2520,2448256,1
0,31472,3176960,1
2,3024,3176960,1
0,32312,3176960,1
2,2856,3176960,1
0,31696,3176960,1
2,2688,3176960,1
0,32256,3176960,1
2,2688,3176960,1
0,32928,3176960,1
2,2128,3176960,1
0,32424,3176960,1
2,2856,3176960,1
0,30296,3176960,1
2,1288,3176960,1
0,30856,3176960,1
2,3752,3176960,1
0,31976,3176960,1
2,2744,3176960,1
0,32480,3176960,1
2,2688,3176960,1
0,32592,3176960,1
2,2520,3176960,1
0,31976,3176960,1
2,2912,3176960,1
0,32368,3176960,1
2,2688,3176960,1
0,28840,3176960,1
2,1680,3176960,1
0,32480,3176960,1
2,2464,3176960,1
0,29120,3176960,1
2,1400,3176960,1
0,31864,3176960,1
2,1456,3176960,1
0,31920,3176960,1
2,1624,3176960,1
0,31864,3176960,1
2,2968,3176960,1
0,32816,3176960,1
2,2184,3176960,1
0,31752,3176960,1
2,2912,3176960,1
0,29008,3176960,1
2,1624,3176960,1
0,31416,3176960,1
2,3024,3176960,1
0,31360,3176960,1
2,3248,3176960,1
0,32200,3176960,1
2,2632,3176960,1
0,30408,3176960,1
2,2016,3176960,1
0,31864,3176960,1
2,2968,3176960,1
0,32144,3176960,1
2,2128,3176960,1
0,31752,3176960,1
2,3192,3176960,1
0,28616,3176960,1
2,2352,3176960,1
0,31248,3905664,1
2,3808,3905664,1
0,31080,3905664,1
2,4200,3905664,1
0,31360,3905664,1
2,3640,3905664,1
0,30408,3905664,1
2,1568,3905664,1
0,31416,3905664,1
2,3416,3905664,1
0,29120,3905664,1
2,1848,3905664,1
0,31136,3905664,1
2,3584,3905664,1
0,28448,3905664,1
2,1344,3905664,1
0,30744,3905664,1
2,1848,3905664,1
0,31864,3905664,1
2,3528,3905664,1
0,31976,3905664,1
2,2800,3905664,1
0,31640,3905664,1
2,3080,3905664,1
0,28728,3905664,1
2,616,3905664,1
0,31584,3905664,1
2,3528,3905664,1
0,31248,3905664,1
2,2968,3905664,1
0,31584,3905664,1
2,3472,3905664,1
0,33544,3905664,1
2,1680,3905664,1
0,31640,3905664,1
2,3640,3905664,1
0,31976,3905664,1
2,3472,3905664,1
0,31472,3905664,1
2,1176,3905664,1
0,31584,3905664,1
2,3416,3905664,1
0,30520,3905664,1
2,4032,3905664,1
0,31640,3905664,1
2,3416,3905664,1
0,31248,3905664,1
2,560,3905664,1
0,31696,3905664,1
2,3192,3905664,1
0,28672,3905664,1
2,1008,3905664,1
0,31808,3905664,1
2,3304,3905664,1
0,32032,3905664,1
2,2856,3905664,1
0,31584,3905664,1
2,3696,3905664,1
0,28896,3905664,1
2,840,3905664,1
0,30800,4634368,1
2,4200,4634368,1
0,31248,4634368,1
2,3696,4634368,1
0,31024,4634368,1
2,3808,4634368,1
0,28056,4634368,1
2,1400,4634368,1
0,30912,4634368,1
2,4200,4634368,1
0,30800,4634368,1
2,3808,4634368,1
0,30968,4634368,1
2,4032,4634368,1
0,31304,4634368,1
2,3248,4634368,1
0,31360,4634368,1
2,3920,4634368,1
0,31080,4634368,1
2,4088,4634368,1
0,31360,4634368,1
2,3920,4634368,1
0,30632,4634368,1
2,4480,4634368,1
0,29288,4634368,1
2,1232,4634368,1
0,28840,4634368,1
2,1120,4634368,1
0,31584,4634368,1
2,3304,4634368,1
0,30912,4634368,1
2,1904,4634368,1
0,31248,4634368,1
2,3864,4634368,1
0,30576,4634368,1
2,3920,4634368,1
0,31024,4634368,1
2,4312,4634368,1
0,29904,4634368,1
2,5096,4634368,1
0,31472,4634368,1
2,3976,4634368,1
0,30632,4634368,1
2,4144,4634368,1
0,31248,4634368,1
2,4088,4634368,1
0,31192,4634368,1
2,3976,4634368,1
0,31528,4634368,1
2,3864,4634368,1
0,31024,4634368,1
2,4368,4634368,1
0,31416,4634368,1
2,3920,4634368,1
0,28672,4634368,1
2,2128,4634368,1
0,31248,4634368,1
2,3920,4634368,1
0,29512,4634368,1
2,1960,4634368,1
0,30184,5363072,1
2,4592,5363072,1
0,30072,5363072,1
2,4312,5363072,1
0,30520,5363072,1
2,4648,5363072,1
0,28784,5363072,1
2,1512,5363072,1
0,30744,5363072,1
2,4480,5363072,1
0,28952,5363072,1
2,5376,5363072,1
0,28840,5363072,1
2,6104,5363072,1
0,29064,5363072,1
2,3584,5363072,1
0,30576,5363072,1
2,4648,5363072,1
0,29400,5363072,1
2,5208,5363072,1
0,30464,5363072,1
2,4816,5363072,1
0,28952,5363072,1
2,1512,5363072,1
0,30128,5363072,1
2,4760,5363072,1
0,30184,5363072,1
2,5264,5363072,1
0,30240,5363072,1
2,4872,5363072,1
0,30688,5363072,1
2,4424,5363072,1
0,30576,5363072,1
2,4480,5363072,1
0,30520,5363072,1
2,5096,5363072,1
0,28392,5363072,1
2,3136,5363072,1
0,30576,5363072,1
2,4648,5363072,1
0,28672,5363072,1
2,2688,5363072,1
0,30072,5363072,1
2,4928,5363072,1
0,29680,5363072,1
2,1960,5363072,1
0,30352,5363072,1
2,2632,5363072,1
0,30016,5363072,1
2,2800,5363072,1
0,30856,5363072,1
2,4368,5363072,1
0,29344,5363072,1
2,2184,5363072,1
0,28112,5363072,1
2,2016,5363072,1
0,30408,5363072,1
2,4816,5363072,1
0,29848,5363072,1
2,5040,5363072,1
0,29736,6091776,1
2,5320,6091776,1
0,29960,6091776,1
2,5152,6091776,1
0,29512,6091776,1
2,5712,6091776,1
0,29232,6091776,1
2,5936,6091776,1
0,29456,6091776,1
2,4984,6091776,1
0,27384,6091776,1
2,1960,6091776,1
0,29680,6091776,1
2,4704,6091776,1
0,28784,6091776,1
2,1232,6091776,1
0,29568,6091776,1
2,5264,6091776,1
0,30128,6091776,1
2,5264,6091776,1
0,29008,6091776,1
2,6384,6091776,1
0,29904,6091776,1
2,5096,6091776,1
0,29176,6091776,1
2,5712,6091776,1
0,29176,6091776,1
2,5544,6091776,1
0,30128,6091776,1
2,4928,6091776,1
0,30240,6091776,1
2,4760,6091776,1
0,30072,6091776,1
2,5320,6091776,1
0,30352,6091776,1
2,5152,6091776,1
0,29736,6091776,1
2,5376,6091776,1
0,27944,6091776,1
2,2576,6091776,1
0,30184,6091776,1
2,5040,6091776,1
0,28952,6091776,1
2,4984,6091776,1
0,28504,6091776,1
2,6160,6091776,1
0,29736,6091776,1
2,5544,6091776,1
0,30184,6091776,1
2,5096,6091776,1
0,29456,6091776,1
2,6216,6091776,1
0,28896,6091776,1
2,3640,6091776,1
0,28616,6091776,1
2,6104,6091776,1
0,30072,6091776,1
2,5376,6091776,1
0,29960,6091776,1
2,5432,6091776,1
0,28000,6820480,1
2,7448,6820480,1
0,27888,6820480,1
2,4928,6820480,1
0,27552,6820480,1
2,4424,6820480,1
0,27776,6820480,1
2,2072,6820480,1
0,28616,6820480,1
2,6384,6820480,1
0,28392,6820480,1
2,6720,6820480,1
0,28392,6820480,1
2,6608,6820480,1
0,26712,6820480,1
2,1848,6820480,1
0,27104,6820480,1
2,2072,6820480,1
0,28056,6820480,1
2,7448,6820480,1
0,28616,6820480,1
2,6216,6820480,1
0,26096,6820480,1
2,2240,6820480,1
0,27496,6820480,1
2,3472,6820480,1
0,27832,6820480,1
2,2296,6820480,1
0,26880,6820480,1
2,3192,6820480,1
0,27944,6820480,1
2,3920,6820480,1
0,29568,6820480,1
2,5768,6820480,1
0,29344,6820480,1
2,5936,6820480,1
0,26320,6820480,1
2,2800,6820480,1
0,26936,6820480,1
2,2800,6820480,1
0,26544,6820480,1
2,1456,6820480,1
0,27720,6820480,1
2,7504,6820480,1
0,29512,6820480,1
2,6160,6820480,1
0,28112,6820480,1
2,7168,6820480,1
0,28504,6820480,1
2,6496,6820480,1
0,29568,6820480,1
2,5824,6820480,1
0,29624,6820480,1
2,5880,6820480,1
0,29792,6820480,1
2,5712,6820480,1
0,29232,6820480,1
2,5936,6820480,1
0,28952,6820480,1
2,6440,6820480,1
0,28448,7549184,1
2,6720,7549184,1
0,28840,7549184,1
2,6552,7549184,1
0,28672,7549184,1
2,6552,7549184,1
0,27720,7549184,1
2,7336,7549184,1
0,28728,7549184,1
2,4144,7549184,1
0,28672,7549184,1
2,6384,7549184,1
0,29064,7549184,1
2,5824,7549184,1
0,28672,7549184,1
2,6328,7549184,1
0,28840,7549184,1
2,6664,7549184,1
0,28840,7549184,1
2,6664,7549184,1
0,29344,7549184,1
2,5936,7549184,1
0,29232,7549184,1
2,4088,7549184,1
0,28952,7549184,1
2,3416,7549184,1
0,29232,7549184,1
2,5936,7549184,1
0,30016,7549184,1
2,5152,7549184,1
0,28000,7549184,1
2,3136,7549184,1
0,27776,7549184,1
2,2744,7549184,1
0,29064,7549184,1
2,6160,7549184,1
0,29176,7549184,1
2,5992,7549184,1
0,29064,7549184,1
2,4032,7549184,1
0,29120,7549184,1
2,2296,7549184,1
0,29960,7549184,1
2,2464,7549184,1
0,27944,7549184,1
2,1456,7549184,1
0,28504,7549184,1
2,1288,7549184,1
0,29008,7549184,1
2,6328,7549184,1
0,28616,7549184,1
2,5936,7549184,1
0,28336,7549184,1
2,5824,7549184,1
0,27888,7549184,1
2,7280,7549184,1
0,28336,7549184,1
2,6160,7549184,1
0,28336,7549184,1
2,6272,7549184,1
0,27216,8277888,1
2,8120,8277888,1
0,26712,8277888,1
2,8400,8277888,1
0,26824,8277888,1
2,2632,8277888,1
0,27664,8277888,1
2,3640,8277888,1
0,27608,8277888,1
2,2296,8277888,1
0,28056,8277888,1
2,6944,8277888,1
0,28168,8277888,1
2,5544,8277888,1
0,28504,8277888,1
2,5152,8277888,1
0,28000,8277888,1
2,6496,8277888,1
0,27104,8277888,1
2,7392,8277888,1
0,32032,8277888,1
2,3024,8277888,1
0,27048,8277888,1
2,7840,8277888,1
0,27384,8277888,1
2,6888,8277888,1
0,27048,8277888,1
2,6216,8277888,1
0,26880,8277888,1
2,6552,8277888,1
0,27272,8277888,1
2,6328,8277888,1
0,26768,8277888,1
2,5712,8277888,1
0,30016,8277888,1
2,4088,8277888,1
0,28168,8277888,1
2,7336,8277888,1
0,27944,8277888,1
2,3080,8277888,1
0,27664,8277888,1
2,7952,8277888,1
0,27832,8277888,1
2,2744,8277888,1
0,26768,8277888,1
2,5600,8277888,1
0,27944,8277888,1
2,7392,8277888,1
0,28728,8277888,1
2,6776,8277888,1
0,27888,8277888,1
2,5208,8277888,1
0,26992,8277888,1
2,7392,8277888,1
0,26544,8277888,1
2,3136,8277888,1
0,26600,8277888,1
2,3696,8277888,1
0,27216,8277888,1
2,5600,8277888,1
0,25536,9006592,1
2,4256,9006592,1
0,26992,9006592,1
2,8344,9006592,1
0,26432,9006592,1
2,7280,9006592,1
0,27048,9006592,1
2,8456,9006592,1
0,26096,9006592,1
2,3472,9006592,1
0,27328,9006592,1
2,8120,9006592,1
0,27664,9006592,1
2,2576,9006592,1
0,27272,9006592,1
2,2576,9006592,1
0,26768,9006592,1
2,2184,9006592,1
0,26768,9006592,1
2,2800,9006592,1
0,27552,9006592,1
2,7616,9006592,1
0,25536,9006592,1
2,1792,9006592,1
0,26880,9006592,1
2,1904,9006592,1
0,32368,9006592,1
2,2128,9006592,1
0,30128,9006592,1
2,5768,9006592,1
0,29904,9006592,1
2,5264,9006592,1
0,28952,9006592,1
2,5936,9006592,1
0,27216,9006592,1
2,2240,9006592,1
0,28000,9006592,1
2,7672,9006592,1
0,27216,9006592,1
2,6384,9006592,1
0,28000,9006592,1
2,6888,9006592,1
0,27608,9006592,1
2,7112,9006592,1
0,27328,9006592,1
2,5264,9006592,1
0,27776,9006592,1
2,5656,9006592,1
0,27608,9006592,1
2,4648,9006592,1
0,28112,9006592,1
2,4872,9006592,1
0,27552,9006592,1
2,2352,9006592,1
0,26712,9006592,1
2,3808,9006592,1
0,27832,9006592,1
2,7616,9006592,1
0,27720,9006592,1
2,2912,9006592,1
0,27216,9735296,1
2,8064,9735296,1
0,25984,9735296,1
2,3808,9735296,1
0,26824,9735296,1
2,8736,9735296,1
0,27328,9735296,1
2,8568,9735296,1
0,26544,9735296,1
2,3024,9735296,1
0,26600,9735296,1
2,4424,9735296,1
0,26488,9735296,1
2,3192,9735296,1
0,26264,9735296,1
2,3192,9735296,1
0,26936,9735296,1
2,8008,9735296,1
0,26712,9735296,1
2,6328,9735296,1
0,26936,9735296,1
2,2688,9735296,1
0,27272,9735296,1
2,8288,9735296,1
0,26880,9735296,1
2,2800,9735296,1
0,27552,9735296,1
2,4368,9735296,1
0,26544,9735296,1
2,8008,9735296,1
0,25816,9735296,1
2,3584,9735296,1
0,26264,9735296,1
2,8736,9735296,1
0,26824,9735296,1
2,8400,9735296,1
0,26824,9735296,1
2,6832,9735296,1
0,26152,9735296,1
2,6720,9735296,1
0,24920,9735296,1
2,9240,9735296,1
0,25144,9735296,1
2,7392,9735296,1
0,26264,9735296,1
2,8904,9735296,1
0,25816,9735296,1
2,9072,9735296,1
0,26824,9735296,1
2,8624,9735296,1
0,27384,9735296,1
2,7840,9735296,1
0,27272,9735296,1
2,8176,9735296,1
0,26376,9735296,1
2,8064,9735296,1
0,25872,9735296,1
2,6552,9735296,1
0,25816,9735296,1
2,2744,9735296,1
0,24584,10464000,1
2,4144,10464000,1
0,25200,10464000,1
2,3696,10464000,1
0,25088,10464000,1
2,10136,10464000,1
0,25032,10464000,1
2,8344,10464000,1
0,26040,10464000,1
2,6328,10464000,1
0,26656,10464000,1
2,5320,10464000,1
0,27160,10464000,1
2,9184,10464000,1
0,26544,10464000,1
2,9296,10464000,1
0,26824,10464000,1
2,3528,10464000,1
0,26824,10464000,1
2,8512,10464000,1
0,27160,10464000,1
2,2912,10464000,1
0,27272,10464000,1
2,7560,10464000,1
0,26936,10464000,1
2,8568,10464000,1
0,26824,10464000,1
2,7392,10464000,1
0,26712,10464000,1
2,7560,10464000,1
0,26880,10464000,1
2,7280,10464000,1
0,27104,10464000,1
2,7336,10464000,1
0,26880,10464000,1
2,7448,10464000,1
0,26656,10464000,1
2,2688,10464000,1
0,26264,10464000,1
2,8456,10464000,1
0,23856,10464000,1
2,3192,10464000,1
0,24528,10464000,1
2,3640,10464000,1
0,24024,10464000,1
2,6328,10464000,1
0,26600,10464000,1
2,8736,10464000,1
0,24248,10464000,1
2,3920,10464000,1
0,26432,10464000,1
2,9072,10464000,1
0,25256,10464000,1
2,10136,10464000,1
0,26824,10464000,1
2,8512,10464000,1
0,26992,10464000,1
2,8512,10464000,1
0,26432,10464000,1
2,7672,10464000,1
0,25928,11192704,1
2,8288,11192704,1
0,25312,11192704,1
2,10136,11192704,1
0,25312,11192704,1
2,10080,11192704,1
0,25032,11192704,1
2,10752,11192704,1
0,24136,11192704,1
2,9072,11192704,1
0,24696,11192704,1
2,10696,11192704,1
0,24920,11192704,1
2,8344,11192704,1
0,24864,11192704,1
2,7896,11192704,1
0,25592,11192704,1
2,9632,11192704,1
0,25032,11192704,1
2,8008,11192704,1
0,25648,11192704,1
2,9240,11192704,1
0,25984,11192704,1
2,9352,11192704,1
0,25648,11192704,1
2,3360,11192704,1
0,25760,11192704,1
2,6496,11192704,1
0,26208,11192704,1
2,6664,11192704,1
0,25088,11192704,1
2,10360,11192704,1
0,24416,11192704,1
2,5152,11192704,1
0,25984,11192704,1
2,9408,11192704,1
0,25648,11192704,1
2,9968,11192704,1
0,24752,11192704,1
2,10696,11192704,1
0,24864,11192704,1
2,9072,11192704,1
0,25536,11192704,1
2,4144,11192704,1
0,25704,11192704,1
2,9632,11192704,1
0,26600,11192704,1
2,8848,11192704,1
0,26040,11192704,1
2,9800,11192704,1
0,24976,11192704,1
2,9912,11192704,1
0,25592,11192704,1
2,9688,11192704,1
0,25368,11192704,1
2,7784,11192704,1
0,24528,11192704,1
2,10248,11192704,1
0,24248,11192704,1
2,10920,11192704,1
0,23128,11921408,1
2,6216,11921408,1
0,24024,11921408,1
2,10808,11921408,1
0,23352,11921408,1
2,12208,11921408,1
0,24584,11921408,1
2,4928,11921408,1
0,24528,11921408,1
2,6216,11921408,1
0,24304,11921408,1
2,6440,11921408,1
0,23968,11921408,1
2,7224,11921408,1
0,23744,11921408,1
2,3808,11921408,1
0,25704,11921408,1
2,4480,11921408,1
0,25760,11921408,1
2,5152,11921408,1
0,24640,11921408,1
2,4928,11921408,1
0,25368,11921408,1
2,10136,11921408,1
0,23800,11921408,1
2,5488,11921408,1
0,23128,11921408,1
2,6160,11921408,1
0,23968,11921408,1
2,3864,11921408,1
0,24920,11921408,1
2,10584,11921408,1
0,24696,11921408,1
2,10808,11921408,1
0,24752,11921408,1
2,10920,11921408,1
0,24416,11921408,1
2,11256,11921408,1
0,24192,11921408,1
2,8848,11921408,1
0,24640,11921408,1
2,10920,11921408,1
0,25144,11921408,1
2,9744,11921408,1
0,25200,11921408,1
2,10360,11921408,1
0,25088,11921408,1
2,10248,11921408,1
0,25368,11921408,1
2,9912,11921408,1
0,25424,11921408,1
2,10304,11921408,1
0,25312,11921408,1
2,10136,11921408,1
0,24080,11921408,1
2,3696,11921408,1
0,24024,11921408,1
2,4424,11921408,1
0,23800,11921408,1
2,3864,11921408,1
0,23688,12650112,1
2,11816,12650112,1
0,22792,12650112,1
2,12712,12650112,1
0,23464,12650112,1
2,4872,12650112,1
0,22904,12650112,1
2,3696,12650112,1
0,22400,12650112,1
2,7224,12650112,1
0,23016,12650112,1
2,8120,12650112,1
0,22904,12650112,1
2,9576,12650112,1
0,22960,12650112,1
2,10024,12650112,1
0,22960,12650112,1
2,10136,12650112,1
0,23800,12650112,1
2,7672,12650112,1
0,24024,12650112,1
2,3584,12650112,1
0,24360,12650112,1
2,11088,12650112,1
0,24808,12650112,1
2,10808,12650112,1
0,23688,12650112,1
2,11928,12650112,1
0,22904,12650112,1
2,12320,12650112,1
0,24584,12650112,1
2,10976,12650112,1
0,32312,12650112,1
2,3360,12650112,1
0,24640,12650112,1
2,10808,12650112,1
0,25088,12650112,1
2,10528,12650112,1
0,25480,12650112,1
2,9464,12650112,1
0,25984,12650112,1
2,6496,12650112,1
0,24920,12650112,1
2,10920,12650112,1
0,25144,12650112,1
2,10192,12650112,1
0,25032,12650112,1
2,9800,12650112,1
0,24696,12650112,1
2,3360,12650112,1
0,24024,12650112,1
2,11648,12650112,1
0,24640,12650112,1
2,10976,12650112,1
0,25592,12650112,1
2,7784,12650112,1
0,25032,12650112,1
2,8848,12650112,1
0,24472,12650112,1
2,11200,12650112,1
0,24080,13378816,1
2,11536,13378816,1
0,24304,13378816,1
2,3080,13378816,1
0,24192,13378816,1
2,6048,13378816,1
0,24640,13378816,1
2,3080,13378816,1
0,24528,13378816,1
2,3920,13378816,1
0,24304,13378816,1
2,5208,13378816,1
0,24808,13378816,1
2,5880,13378816,1
0,24024,13378816,1
2,6272,13378816,1
0,23296,13378816,1
2,4200,13378816,1
0,25648,13378816,1
2,3248,13378816,1
0,24472,13378816,1
2,5432,13378816,1
0,23352,13378816,1
2,6888,13378816,1
0,24192,13378816,1
2,11480,13378816,1
0,24976,13378816,1
2,3416,13378816,1
0,24416,13378816,1
2,4368,13378816,1
0,24976,13378816,1
2,10192,13378816,1
0,24080,13378816,1
2,8848,13378816,1
0,25368,13378816,1
2,8792,13378816,1
0,24080,13378816,1
2,11256,13378816,1
0,24416,13378816,1
2,3304,13378816,1
0,24136,13378816,1
2,11032,13378816,1
0,23072,13378816,1
2,11984,13378816,1
0,24136,13378816,1
2,9744,13378816,1
0,24192,13378816,1
2,9912,13378816,1
0,23856,13378816,1
2,7672,13378816,1
0,23576,13378816,1
2,11424,13378816,1
0,24024,13378816,1
2,3416,13378816,1
0,23744,13378816,1
2,2856,13378816,1
0,24864,13378816,1
2,10528,13378816,1
0,25256,13378816,1
2,3528,13378816,1
0,22792,14107520,1
2,12376,14107520,1
0,22792,14107520,1
2,12544,14107520,1
0,23352,14107520,1
2,12208,14107520,1
0,23968,14107520,1
2,11312,14107520,1
0,22904,14107520,1
2,9072,14107520,1
0,23968,14107520,1
2,11424,14107520,1
0,23520,14107520,1
2,11480,14107520,1
0,24360,14107520,1
2,7336,14107520,1
0,23184,14107520,1
2,12208,14107520,1
0,22344,14107520,1
2,5376,14107520,1
0,24304,14107520,1
2,5208,14107520,1
0,23688,14107520,1
2,6664,14107520,1
0,23408,14107520,1
2,7392,14107520,1
0,23352,14107520,1
2,7168,14107520,1
0,23408,14107520,1
2,7784,14107520,1
0,22848,14107520,1
2,2968,14107520,1
0,23856,14107520,1
2,11256,14107520,1
0,23688,14107520,1
2,3472,14107520,1
0,23856,14107520,1
2,3696,14107520,1
0,24192,14107520,1
2,10920,14107520,1
0,23800,14107520,1
2,11928,14107520,1
0,23072,14107520,1
2,4648,14107520,1
0,23128,14107520,1
2,5488,14107520,1
0,23688,14107520,1
2,6216,14107520,1
0,23128,14107520,1
2,11704,14107520,1
0,24024,14107520,1
2,11592,14107520,1
0,23632,14107520,1
2,9744,14107520,1
0,23576,14107520,1
2,9688,14107520,1
0,22960,14107520,1
2,10864,14107520,1
0,23464,14107520,1
2,10192,14107520,1
0,23856,14836224,1
2,11592,14836224,1
0,23128,14836224,1
2,3752,14836224,1
0,23968,14836224,1
2,5040,14836224,1
0,24136,14836224,1
2,4256,14836224,1
0,23352,14836224,1
2,4368,14836224,1
0,23184,14836224,1
2,12040,14836224,1
0,21112,14836224,1
2,5600,14836224,1
0,22120,14836224,1
2,5880,14836224,1
0,22176,14836224,1
2,7112,14836224,1
0,24360,14836224,1
2,11088,14836224,1
0,22960,14836224,1
2,12432,14836224,1
0,24472,14836224,1
2,8568,14836224,1
0,24584,14836224,1
2,7896,14836224,1
0,23632,14836224,1
2,11032,14836224,1
0,23856,14836224,1
2,11088,14836224,1
0,22232,14836224,1
2,8232,14836224,1
0,22960,14836224,1
2,8512,14836224,1
0,23184,14836224,1
2,9576,14836224,1
0,22736,14836224,1
2,10864,14836224,1
0,23128,14836224,1
2,3192,14836224,1
0,24024,14836224,1
2,11704,14836224,1
0,23968,14836224,1
2,8344,14836224,1
0,22792,14836224,1
2,12712,14836224,1
0,22680,14836224,1
2,4760,14836224,1
0,23688,14836224,1
2,4648,14836224,1
0,23296,14836224,1
2,5880,14836224,1
0,23632,14836224,1
2,11536,14836224,1
0,30072,14836224,1
2,4704,14836224,1
0,24136,14836224,1
2,10584,14836224,1
0,22512,14836224,1
2,4648,14836224,1
0,26544,15564928,1
2,5712,15564928,1
0,22176,15564928,1
2,5992,15564928,1
0,22064,15564928,1
2,4256,15564928,1
0,22400,15564928,1
2,5432,15564928,1
0,21728,15564928,1
2,6048,15564928,1
0,24192,15564928,1
2,4816,15564928,1
0,21952,15564928,1
2,4144,15564928,1
0,22624,15564928,1
2,6328,15564928,1
0,22848,15564928,1
2,6496,15564928,1
0,21672,15564928,1
2,6384,15564928,1
0,21784,15564928,1
2,7392,15564928,1
0,21168,15564928,1
2,6048,15564928,1
0,21224,15564928,1
2,5488,15564928,1
0,22736,15564928,1
2,5992,15564928,1
0,22176,15564928,1
2,8232,15564928,1
0,21336,15564928,1
2,5488,15564928,1
0,21392,15564928,1
2,14168,15564928,1
0,27216,15564928,1
2,5152,15564928,1
0,21896,15564928,1
2,4704,15564928,1
0,21560,15564928,1
2,5208,15564928,1
0,22064,15564928,1
2,13496,15564928,1
0,20608,15564928,1
2,15008,15564928,1
0,23408,15564928,1
2,12152,15564928,1
0,22792,15564928,1
2,12880,15564928,1
0,22120,15564928,1
2,13552,15564928,1
0,22064,15564928,1
2,13440,15564928,1
0,20384,15564928,1
2,6552,15564928,1
0,20664,15564928,1
2,7728,15564928,1
0,20552,15564928,1
2,9464,15564928,1
0,21616,15564928,1
2,9576,15564928,1
0,20608,16293632,1
2,6384,16293632,1
0,21504,16293632,1
2,13888,16293632,1
0,21560,16293632,1
2,13496,16293632,1
0,20160,16293632,1
2,6496,16293632,1
0,19768,16293632,1
2,8792,16293632,1
0,22680,16293632,1
2,12544,16293632,1
0,20608,16293632,1
2,14336,16293632,1
0,21056,16293632,1
2,10024,16293632,1
0,21784,16293632,1
2,7952,16293632,1
0,22176,16293632,1
2,8344,16293632,1
0,22008,16293632,1
2,10920,16293632,1
0,21560,16293632,1
2,13104,16293632,1
0,21224,16293632,1
2,14280,16293632,1
0,21448,16293632,1
2,13944,16293632,1
0,21896,16293632,1
2,9520,16293632,1
0,20496,16293632,1
2,12376,16293632,1
0,22904,16293632,1
2,8344,16293632,1
0,20776,16293632,1
2,12544,16293632,1
0,21672,16293632,1
2,13944,16293632,1
0,21280,16293632,1
2,14448,16293632,1
0,20888,16293632,1
2,14784,16293632,1
0,20776,16293632,1
2,14952,16293632,1
0,20216,16293632,1
2,14728,16293632,1
0,22512,16293632,1
2,13160,16293632,1
0,21056,16293632,1
2,4256,16293632,1
0,22624,16293632,1
2,10024,16293632,1
0,22680,16293632,1
2,10864,16293632,1
0,22624,16293632,1
2,8176,16293632,1
0,23744,16293632,1
2,11536,16293632,1
0,22904,16293632,1
2,4760,16293632,1
0,20664,17022336,1
2,9072,17022336,1
0,20776,17022336,1
2,14280,17022336,1
0,19880,17022336,1
2,15512,17022336,1
0,19992,17022336,1
2,13552,17022336,1
0,20440,17022336,1
2,14728,17022336,1
0,21000,17022336,1
2,11144,17022336,1
0,24696,17022336,1
2,9296,17022336,1
0,22568,17022336,1
2,9520,17022336,1
0,19824,17022336,1
2,5880,17022336,1
0,20216,17022336,1
2,15344,17022336,1
0,20440,17022336,1
2,6048,17022336,1
0,19768,17022336,1
2,14672,17022336,1
0,20328,17022336,1
2,14504,17022336,1
0,21112,17022336,1
2,13832,17022336,1
0,21000,17022336,1
2,14112,17022336,1
0,21056,17022336,1
2,11368,17022336,1
0,21224,17022336,1
2,10192,17022336,1
0,20888,17022336,1
2,12712,17022336,1
0,20328,17022336,1
2,14952,17022336,1
0,20104,17022336,1
2,15008,17022336,1
0,20664,17022336,1
2,5488,17022336,1
0,19544,17022336,1
2,14840,17022336,1
0,18480,17022336,1
2,7000,17022336,1
0,18872,17022336,1
2,7392,17022336,1
0,20664,17022336,1
2,8232,17022336,1
0,19600,17022336,1
2,12768,17022336,1
0,19544,17022336,1
2,8288,17022336,1
0,20160,17022336,1
2,7280,17022336,1
0,20888,17022336,1
2,7112,17022336,1
0,20440,17022336,1
2,9016,17022336,1
0,19320,17751040,1
2,9912,17751040,1
0,19768,17751040,1
2,15568,17751040,1
0,19824,17751040,1
2,13104,17751040,1
0,19544,17751040,1
2,16184,17751040,1
0,19152,17751040,1
2,6552,17751040,1
0,19936,17751040,1
2,8008,17751040,1
0,19824,17751040,1
2,16072,17751040,1
0,19824,17751040,1
2,16072,17751040,1
0,20496,17751040,1
2,7336,17751040,1
0,19712,17751040,1
2,9128,17751040,1
0,19880,17751040,1
2,6216,17751040,1
0,19376,17751040,1
2,9016,17751040,1
0,20944,17751040,1
2,14560,17751040,1
0,20496,17751040,1
2,7000,17751040,1
0,21112,17751040,1
2,8008,17751040,1
0,20440,17751040,1
2,7280,17751040,1
0,20944,17751040,1
2,14728,17751040,1
0,21000,17751040,1
2,14392,17751040,1
0,20384,17751040,1
2,12208,17751040,1
0,19488,17751040,1
2,8568,17751040,1
0,20552,17751040,1
2,14728,17751040,1
0,21000,17751040,1
2,13944,17751040,1
0,19096,17751040,1
2,7504,17751040,1
0,20272,17751040,1
2,8512,17751040,1
0,19824,17751040,1
2,11704,17751040,1
0,21448,17751040,1
2,8568,17751040,1
0,20328,17751040,1
2,6384,17751040,1
0,21448,17751040,1
2,7392,17751040,1
0,20776,17751040,1
2,14952,17751040,1
0,19992,17751040,1
2,7392,17751040,1
0,18200,18479744,1
2,10192,18479744,1
0,20720,18479744,1
2,7896,18479744,1
0,19376,18479744,1
2,15232,18479744,1
0,19432,18479744,1
2,7000,18479744,1
0,18312,18479744,1
2,17304,18479744,1
0,19096,18479744,1
2,5320,18479744,1
0,19376,18479744,1
2,6160,18479744,1
0,19712,18479744,1
2,15792,18479744,1
0,18872,18479744,1
2,6328,18479744,1
0,20720,18479744,1
2,15064,18479744,1
0,19824,18479744,1
2,15680,18479744,1
0,19320,18479744,1
2,7280,18479744,1
0,18984,18479744,1
2,6608,18479744,1
0,19152,18479744,1
2,7224,18479744,1
0,19488,18479744,1
2,7392,18479744,1
0,19488,18479744,1
2,6272,18479744,1
0,18872,18479744,1
2,7784,18479744,1
0,18816,18479744,1
2,8232,18479744,1
0,18928,18479744,1
2,8512,18479744,1
0,20104,18479744,1
2,16352,18479744,1
0,19152,18479744,1
2,12096,18479744,1
0,19264,18479744,1
2,15568,18479744,1
0,20104,18479744,1
2,15736,18479744,1
0,21000,18479744,1
2,15008,18479744,1
0,19656,18479744,1
2,8120,18479744,1
0,21560,18479744,1
2,14840,18479744,1
0,20384,18479744,1
2,12600,18479744,1
0,21616,18479744,1
2,14280,18479744,1
0,19656,18479744,1
2,6328,18479744,1
0,20776,18479744,1
2,5992,18479744,1
0,19936,19208448,1
2,9856,19208448,1
0,19712,19208448,1
2,11088,19208448,1
0,19152,19208448,1
2,16744,19208448,1
0,19712,19208448,1
2,13608,19208448,1
0,19880,19208448,1
2,14280,19208448,1
0,20048,19208448,1
2,14784,19208448,1
0,20664,19208448,1
2,14336,19208448,1
0,20440,19208448,1
2,15008,19208448,1
0,20720,19208448,1
2,6104,19208448,1
0,20608,19208448,1
2,8288,19208448,1
0,20272,19208448,1
2,9968,19208448,1
0,19656,19208448,1
2,10136,19208448,1
0,21280,19208448,1
2,8456,19208448,1
0,20216,19208448,1
2,11536,19208448,1
0,21224,19208448,1
2,13720,19208448,1
0,19992,19208448,1
2,16016,19208448,1
0,19544,19208448,1
2,7168,19208448,1
0,19208,19208448,1
2,9128,19208448,1
0,19040,19208448,1
2,10248,19208448,1
0,19656,19208448,1
2,11592,19208448,1
0,18704,19208448,1
2,14224,19208448,1
0,19208,19208448,1
2,13832,19208448,1
0,19432,19208448,1
2,14056,19208448,1
0,18928,19208448,1
2,13328,19208448,1
0,19544,19208448,1
2,5544,19208448,1
0,18592,19208448,1
2,9016,19208448,1
0,19712,19208448,1
2,9744,19208448,1
0,19376,19208448,1
2,10640,19208448,1
0,19152,19208448,1
2,17192,19208448,1
0,19656,19208448,1
2,5824,19208448,1
0,18312,19937152,1
2,17080,19937152,1
0,18144,19937152,1
2,17192,19937152,1
0,18256,19937152,1
2,17976,19937152,1
0,18648,19937152,1
2,17080,19937152,1
0,17640,19937152,1
2,18256,19937152,1
0,26096,19937152,1
2,9072,19937152,1
0,26264,19937152,1
2,9464,19937152,1
0,24080,19937152,1
2,11480,19937152,1
0,21952,19937152,1
2,13160,19937152,1
0,18144,19937152,1
2,9576,19937152,1
0,18592,19937152,1
2,11368,19937152,1
0,18872,19937152,1
2,12040,19937152,1
0,19096,19937152,1
2,17080,19937152,1
0,20048,19937152,1
2,16968,19937152,1
0,18648,19937152,1
2,17024,19937152,1
0,18312,19937152,1
2,17248,19937152,1
0,19600,19937152,1
2,15904,19937152,1
0,19040,19937152,1
2,13944,19937152,1
0,19544,19937152,1
2,7448,19937152,1
0,19432,19937152,1
2,16184,19937152,1
0,18816,19937152,1
2,17472,19937152,1
0,18312,19937152,1
2,17640,19937152,1
0,18032,19937152,1
2,18088,19937152,1
0,18368,19937152,1
2,14560,19937152,1
0,18200,19937152,1
2,8736,19937152,1
0,18312,19937152,1
2,7168,19937152,1
0,18536,19937152,1
2,10640,19937152,1
0,19096,19937152,1
2,12488,19937152,1
0,18648,19937152,1
2,12600,19937152,1
0,17920,19937152,1
2,13440,19937152,1
0,17920,20665856,1
2,10304,20665856,1
0,17472,20665856,1
2,18312,20665856,1
0,18648,20665856,1
2,17024,20665856,1
0,27776,20665856,1
2,9464,20665856,1
0,17976,20665856,1
2,17472,20665856,1
0,18592,20665856,1
2,7840,20665856,1
0,18144,20665856,1
2,11144,20665856,1
0,19656,20665856,1
2,11368,20665856,1
0,19712,20665856,1
2,12320,20665856,1
0,18424,20665856,1
2,8064,20665856,1
0,18200,20665856,1
2,17752,20665856,1
0,18536,20665856,1
2,7896,20665856,1
0,18088,20665856,1
2,10024,20665856,1
0,18368,20665856,1
2,12096,20665856,1
0,17752,20665856,1
2,18256,20665856,1
0,18536,20665856,1
2,17808,20665856,1
0,17864,20665856,1
2,18368,20665856,1
0,18592,20665856,1
2,8624,20665856,1
0,17752,20665856,1
2,17976,20665856,1
0,18592,20665856,1
2,17304,20665856,1
0,18032,20665856,1
2,9240,20665856,1
0,18704,20665856,1
2,17416,20665856,1
0,18480,20665856,1
2,8176,20665856,1
0,18368,20665856,1
2,8736,20665856,1
0,18760,20665856,1
2,12040,20665856,1
0,18984,20665856,1
2,7504,20665856,1
0,18648,20665856,1
2,16800,20665856,1
0,19712,20665856,1
2,16856,20665856,1
0,18424,20665856,1
2,15344,20665856,1
0,19040,20665856,1
2,15904,20665856,1
0,18368,21394560,1
2,11032,21394560,1
0,19040,21394560,1
2,18424,21394560,1
0,17976,21394560,1
2,17808,21394560,1
0,18088,21394560,1
2,17304,21394560,1
0,19152,21394560,1
2,18424,21394560,1
0,18816,21394560,1
2,9408,21394560,1
0,19320,21394560,1
2,7504,21394560,1
0,18872,21394560,1
2,11088,21394560,1
0,18872,21394560,1
2,10024,21394560,1
0,17808,21394560,1
2,12712,21394560,1
0,19096,21394560,1
2,17920,21394560,1
0,18480,21394560,1
2,9688,21394560,1
0,19768,21394560,1
2,8344,21394560,1
0,18480,21394560,1
2,10920,21394560,1
0,18928,21394560,1
2,9520,21394560,1
0,19096,21394560,1
2,8400,21394560,1
0,19544,21394560,1
2,17136,21394560,1
0,20160,21394560,1
2,16184,21394560,1
0,20384,21394560,1
2,15344,21394560,1
0,19544,21394560,1
2,15176,21394560,1
0,19936,21394560,1
2,10080,21394560,1
0,18816,21394560,1
2,17752,21394560,1
0,19600,21394560,1
2,17696,21394560,1
0,18536,21394560,1
2,10920,21394560,1
0,19488,21394560,1
2,10192,21394560,1
0,18928,21394560,1
2,11312,21394560,1
0,18592,21394560,1
2,17640,21394560,1
0,18984,21394560,1
2,16688,21394560,1
0,19096,21394560,1
2,16184,21394560,1
0,17976,21394560,1
2,17080,21394560,1
0,17752,22123264,1
2,9744,22123264,1
0,17976,22123264,1
2,19656,22123264,1
0,17192,22123264,1
2,19432,22123264,1
0,18144,22123264,1
2,19432,22123264,1
0,18144,22123264,1
2,11144,22123264,1
0,18312,22123264,1
2,13216,22123264,1
0,19208,22123264,1
2,14840,22123264,1
0,19320,22123264,1
2,17136,22123264,1
0,17024,22123264,1
2,19600,22123264,1
0,17640,22123264,1
2,13272,22123264,1
0,16464,22123264,1
2,15400,22123264,1
0,16968,22123264,1
2,20720,22123264,1
0,17248,22123264,1
2,21056,22123264,1
0,16968,22123264,1
2,20552,22123264,1
0,17920,22123264,1
2,16240,22123264,1
0,17080,22123264,1
2,15736,22123264,1
0,16688,22123264,1
2,14448,22123264,1
0,17416,22123264,1
2,12040,22123264,1
0,17416,22123264,1
2,15232,22123264,1
0,17640,22123264,1
2,16240,22123264,1
0,16856,22123264,1
2,19544,22123264,1
0,17304,22123264,1
2,16072,22123264,1
0,16408,22123264,1
2,16072,22123264,1
0,17584,22123264,1
2,17360,22123264,1
0,17304,22123264,1
2,17472,22123264,1
0,17472,22123264,1
2,19488,22123264,1
0,17920,22123264,1
2,16632,22123264,1
0,15904,22123264,1
2,19768,22123264,1
0,16856,22123264,1
2,19656,22123264,1
0,17472,22123264,1
2,18144,22123264,1
0,14560,22851968,1
2,20328,22851968,1
0,17024,22851968,1
2,20888,22851968,1
0,16968,22851968,1
2,21056,22851968,1
0,17752,22851968,1
2,20216,22851968,1
0,17360,22851968,1
2,21504,22851968,1
0,17304,22851968,1
2,20160,22851968,1
0,16800,22851968,1
2,20496,22851968,1
0,16296,22851968,1
2,21392,22851968,1
0,16016,22851968,1
2,21560,22851968,1
0,16744,22851968,1
2,16352,22851968,1
0,18088,22851968,1
2,17752,22851968,1
0,17528,22851968,1
2,17192,22851968,1
0,18872,22851968,1
2,18592,22851968,1
0,17360,22851968,1
2,12768,22851968,1
0,16912,22851968,1
2,16800,22851968,1
0,18200,22851968,1
2,19936,22851968,1
0,17752,22851968,1
2,19824,22851968,1
0,18536,22851968,1
2,20608,22851968,1
0,17976,22851968,1
2,12768,22851968,1
0,18032,22851968,1
2,16296,22851968,1
0,17192,22851968,1
2,17864,22851968,1
0,17976,22851968,1
2,20608,22851968,1
0,18144,22851968,1
2,17192,22851968,1
0,18536,22851968,1
2,17864,22851968,1
0,18200,22851968,1
2,19432,22851968,1
0,18928,22851968,1
2,12096,22851968,1
0,18984,22851968,1
2,11312,22851968,1
0,19600,22851968,1
2,17528,22851968,1
0,18704,22851968,1
2,11424,22851968,1
0,19936,22851968,1
2,18032,22851968,1
0,18704,23580672,1
2,12880,23580672,1
0,19264,23580672,1
2,19320,23580672,1
0,18368,23580672,1
2,19096,23580672,1
0,19376,23580672,1
2,19600,23580672,1
0,18144,23580672,1
2,14224,23580672,1
0,17640,23580672,1
2,16800,23580672,1
0,17864,23580672,1
2,20216,23580672,1
0,18480,23580672,1
2,19544,23580672,1
0,18592,23580672,1
2,15400,23580672,1
0,19600,23580672,1
2,13664,23580672,1
0,18312,23580672,1
2,14168,23580672,1
0,18592,23580672,1
2,14784,23580672,1
0,19152,23580672,1
2,14056,23580672,1
0,23688,23580672,1
2,12992,23580672,1
0,20328,23580672,1
2,14728,23580672,1
0,19040,23580672,1
2,19656,23580672,1
0,22064,23580672,1
2,14616,23580672,1
0,18368,23580672,1
2,20720,23580672,1
0,18312,23580672,1
2,16576,23580672,1
0,19376,23580672,1
2,20160,23580672,1
0,18536,23580672,1
2,16408,23580672,1
0,18816,23580672,1
2,12600,23580672,1
0,18648,23580672,1
2,15512,23580672,1
0,19040,23580672,1
2,17024,23580672,1
0,18760,23580672,1
2,17584,23580672,1
0,19152,23580672,1
2,18480,23580672,1
0,18032,23580672,1
2,18704,23580672,1
0,18592,23580672,1
2,13832,23580672,1
0,19712,23580672,1
2,19712,23580672,1
0,18872,23580672,1
2,15512,23580672,1
0,18088,24309376,1
2,15736,24309376,1
0,18760,24309376,1
2,18984,24309376,1
0,17976,24309376,1
2,21000,24309376,1
0,17080,24309376,1
2,22064,24309376,1
0,17976,24309376,1
2,15008,24309376,1
0,17528,24309376,1
2,21112,24309376,1
0,17528,24309376,1
2,21280,24309376,1
0,18256,24309376,1
2,15288,24309376,1
0,17752,24309376,1
2,17696,24309376,1
0,18312,24309376,1
2,21784,24309376,1
0,17864,24309376,1
2,22008,24309376,1
0,18200,24309376,1
2,16072,24309376,1
0,17920,24309376,1
2,18760,24309376,1
0,18760,24309376,1
2,17808,24309376,1
0,18984,24309376,1
2,18256,24309376,1
0,18704,24309376,1
2,18312,24309376,1
0,18872,24309376,1
2,19152,24309376,1
0,19208,24309376,1
2,20160,24309376,1
0,20104,24309376,1
2,20384,24309376,1
0,19488,24309376,1
2,21336,24309376,1
0,18928,24309376,1
2,21280,24309376,1
0,17472,24309376,1
2,16744,24309376,1
0,19208,24309376,1
2,16688,24309376,1
0,17752,24309376,1
2,19320,24309376,1
0,18312,24309376,1
2,23856,24309376,1
0,16912,24309376,1
2,23464,24309376,1
0,17528,24309376,1
2,21056,24309376,1
0,17528,24309376,1
2,20328,24309376,1
0,18760,24309376,1
2,21560,24309376,1
0,17752,24309376,1
2,17640,24309376,1
0,17920,25038080,1
2,17472,25038080,1
0,17976,25038080,1
2,16744,25038080,1
0,17920,25038080,1
2,21616,25038080,1
0,18816,25038080,1
2,19320,25038080,1
0,18312,25038080,1
2,21504,25038080,1
0,18312,25038080,1
2,21840,25038080,1
0,17248,25038080,1
2,22400,25038080,1
0,18704,25038080,1
2,16464,25038080,1
0,18704,25038080,1
2,21560,25038080,1
0,18760,25038080,1
2,11648,25038080,1
0,17864,25038080,1
2,20944,25038080,1
0,17808,25038080,1
2,19824,25038080,1
0,19152,25038080,1
2,15344,25038080,1
0,18368,25038080,1
2,20552,25038080,1
0,18760,25038080,1
2,20048,25038080,1
0,18928,25038080,1
2,20720,25038080,1
0,18984,25038080,1
2,20608,25038080,1
0,18256,25038080,1
2,15736,25038080,1
0,19824,25038080,1
2,14952,25038080,1
0,18648,25038080,1
2,19152,25038080,1
0,18816,25038080,1
2,14112,25038080,1
0,18592,25038080,1
2,17472,25038080,1
0,19208,25038080,1
2,21784,25038080,1
0,19376,25038080,1
2,20272,25038080,1
0,18984,25038080,1
2,13216,25038080,1
0,17808,25038080,1
2,21224,25038080,1
0,17976,25038080,1
2,16912,25038080,1
0,18984,25038080,1
2,17976,25038080,1
0,18592,25038080,1
2,21728,25038080,1
0,16520,25038080,1
2,16688,25038080,1
0,17864,25766784,1
2,22624,25766784,1
0,17360,25766784,1
2,22232,25766784,1
0,17752,25766784,1
2,20608,25766784,1
0,17024,25766784,1
2,22344,25766784,1
0,17248,25766784,1
2,22344,25766784,1
0,18200,25766784,1
2,16520,25766784,1
0,17920,25766784,1
2,19880,25766784,1
0,16688,25766784,1
2,22512,25766784,1
0,16800,25766784,1
2,16128,25766784,1
0,17192,25766784,1
2,16240,25766784,1
0,18480,25766784,1
2,17808,25766784,1
0,17024,25766784,1
2,18368,25766784,1
0,16968,25766784,1
2,21896,25766784,1
0,17528,25766784,1
2,22064,25766784,1
0,17976,25766784,1
2,15904,25766784,1
0,17752,25766784,1
2,21784,25766784,1
0,17696,25766784,1
2,14504,25766784,1
0,17920,25766784,1
2,21448,25766784,1
0,18368,25766784,1
2,21056,25766784,1
0,17752,25766784,1
2,18312,25766784,1
0,18144,25766784,1
2,20440,25766784,1
0,17584,25766784,1
2,15064,25766784,1
0,19320,25766784,1
2,17024,25766784,1
0,17752,25766784,1
2,16184,25766784,1
0,18144,25766784,1
2,22288,25766784,1
0,17864,25766784,1
2,16240,25766784,1
0,18760,25766784,1
2,20888,25766784,1
0,19208,25766784,1
2,20776,25766784,1
0,18872,25766784,1
2,21616,25766784,1
0,19824,25766784,1
2,19824,25766784,1
0,18480,26495488,1
2,21896,26495488,1
0,18648,26495488,1
2,18984,26495488,1
0,17248,26495488,1
2,23520,26495488,1
0,16632,26495488,1
2,21728,26495488,1
0,17976,26495488,1
2,17640,26495488,1
0,17976,26495488,1
2,22344,26495488,1
0,17304,26495488,1
2,23408,26495488,1
0,18368,26495488,1
2,23184,26495488,1
0,18088,26495488,1
2,22288,26495488,1
0,17640,26495488,1
2,23520,26495488,1
0,18088,26495488,1
2,19488,26495488,1
0,17920,26495488,1
2,21784,26495488,1
0,19152,26495488,1
2,22736,26495488,1
0,17752,26495488,1
2,23184,26495488,1
0,19320,26495488,1
2,16912,26495488,1
0,18032,26495488,1
2,18872,26495488,1
0,17304,26495488,1
2,18984,26495488,1
0,16632,26495488,1
2,23296,26495488,1
0,18928,26495488,1
2,22736,26495488,1
0,17864,26495488,1
2,21056,26495488,1
0,18536,26495488,1
2,22736,26495488,1
0,18088,26495488,1
2,21784,26495488,1
0,17976,26495488,1
2,21448,26495488,1
0,19992,26495488,1
2,17808,26495488,1
0,17080,26495488,1
2,23128,26495488,1
0,19600,26495488,1
2,16688,26495488,1
0,18200,26495488,1
2,20160,26495488,1
0,18424,26495488,1
2,22400,26495488,1
0,18256,26495488,1
2,19880,26495488,1
0,17080,26495488,1
2,20328,26495488,1
0,16520,27224192,1
2,20104,27224192,1
0,17024,27224192,1
2,23688,27224192,1
0,18312,27224192,1
2,24192,27224192,1
0,17640,27224192,1
2,23688,27224192,1
0,18424,27224192,1
2,25368,27224192,1
0,18704,27224192,1
2,24864,27224192,1
0,18760,27224192,1
2,21280,27224192,1
0,18984,27224192,1
2,24080,27224192,1
0,19600,27224192,1
2,22344,27224192,1
0,18368,27224192,1
2,22008,27224192,1
0,18200,27224192,1
2,21224,27224192,1
0,18928,27224192,1
2,21560,27224192,1
0,18536,27224192,1
2,23744,27224192,1
0,16464,27224192,1
2,22064,27224192,1
0,17192,27224192,1
2,21224,27224192,1
0,17080,27224192,1
2,25592,27224192,1
0,18648,27224192,1
2,24864,27224192,1
0,17416,27224192,1
2,24864,27224192,1
0,18648,27224192,1
2,24640,27224192,1
0,17752,27224192,1
2,21168,27224192,1
0,18144,27224192,1
2,23744,27224192,1
0,17416,27224192,1
2,22064,27224192,1
0,18984,27224192,1
2,23072,27224192,1
0,17416,27224192,1
2,24696,27224192,1
0,18312,27224192,1
2,19432,27224192,1
0,18312,27224192,1
2,23296,27224192,1
0,18032,27224192,1
2,21056,27224192,1
0,16968,27224192,1
2,22512,27224192,1
0,18200,27224192,1
2,25088,27224192,1
0,17528,27224192,1
2,21000,27224192,1
0,17024,27952896,1
2,23072,27952896,1
0,16688,27952896,1
2,23072,27952896,1
0,17696,27952896,1
2,25368,27952896,1
0,18480,27952896,1
2,25704,27952896,1
0,17696,27952896,1
2,24864,27952896,1
0,18704,27952896,1
2,22568,27952896,1
0,16352,27952896,1
2,21784,27952896,1
0,18088,27952896,1
2,23240,27952896,1
0,17752,27952896,1
2,21280,27952896,1
0,17640,27952896,1
2,21056,27952896,1
0,18928,27952896,1
2,22344,27952896,1
0,17136,27952896,1
2,24752,27952896,1
0,19264,27952896,1
2,25760,27952896,1
0,18256,27952896,1
2,22232,27952896,1
0,18536,27952896,1
2,24976,27952896,1
0,18144,27952896,1
2,25984,27952896,1
0,19712,27952896,1
2,23240,27952896,1
0,19544,27952896,1
2,25480,27952896,1
0,18312,27952896,1
2,22344,27952896,1
0,17024,27952896,1
2,21896,27952896,1
0,16632,27952896,1
2,22456,27952896,1
0,18256,27952896,1
2,26544,27952896,1
0,17864,27952896,1
2,26432,27952896,1
0,18200,27952896,1
2,22624,27952896,1
0,19208,27952896,1
2,22848,27952896,1
0,18816,27952896,1
2,25256,27952896,1
0,17136,27952896,1
2,24584,27952896,1
0,17920,27952896,1
2,27720,27952896,1
0,17416,27952896,1
2,27496,27952896,1
0,18032,27952896,1
2,25704,27952896,1
0,17416,28681600,1
2,25200,28681600,1
0,17808,28681600,1
2,24976,28681600,1
0,17640,28681600,1
2,25928,28681600,1
0,17304,28681600,1
2,24696,28681600,1
0,18088,28681600,1
2,21952,28681600,1
0,18368,28681600,1
2,24024,28681600,1
0,18984,28681600,1
2,24584,28681600,1
0,18144,28681600,1
2,23968,28681600,1
0,17864,28681600,1
2,23072,28681600,1
0,17808,28681600,1
2,24528,28681600,1
0,18760,28681600,1
2,24752,28681600,1
0,18872,28681600,1
2,24248,28681600,1
0,19040,28681600,1
2,24304,28681600,1
0,18648,28681600,1
2,20160,28681600,1
0,18592,28681600,1
2,23184,28681600,1
0,19040,28681600,1
2,24696,28681600,1
0,17472,28681600,1
2,22232,28681600,1
0,17808,28681600,1
2,24360,28681600,1
0,18088,28681600,1
2,22064,28681600,1
0,19600,28681600,1
2,21224,28681600,1
0,18984,28681600,1
2,24360,28681600,1
0,18536,28681600,1
2,21784,28681600,1
0,16856,28681600,1
2,25536,28681600,1
0,19544,28681600,1
2,20944,28681600,1
0,17752,28681600,1
2,22736,28681600,1
0,18424,28681600,1
2,25312,28681600,1
0,19040,28681600,1
2,22288,28681600,1
0,18704,28681600,1
2,19656,28681600,1
0,18760,28681600,1
2,18704,28681600,1
0,16968,28681600,1
2,24304,28681600,1
0,19824,29410304,1
2,24864,29410304,1
0,18424,29410304,1
2,22736,29410304,1
0,18424,29410304,1
2,26824,29410304,1
0,16576,29410304,1
2,26320,29410304,1
0,18256,29410304,1
2,22568,29410304,1
0,18256,29410304,1
2,22232,29410304,1
0,18872,29410304,1
2,25088,29410304,1
0,17864,29410304,1
2,20048,29410304,1
0,19040,29410304,1
2,25424,29410304,1
0,18088,29410304,1
2,25872,29410304,1
0,17696,29410304,1
2,25200,29410304,1
0,18368,29410304,1
2,24920,29410304,1
0,18032,29410304,1
2,24304,29410304,1
0,17304,29410304,1
2,24752,29410304,1
0,18480,29410304,1
2,19432,29410304,1
0,19152,29410304,1
2,18592,29410304,1
0,18536,29410304,1
2,24192,29410304,1
0,19264,29410304,1
2,19992,29410304,1
0,18872,29410304,1
2,23016,29410304,1
0,18984,29410304,1
2,21840,29410304,1
0,17976,29410304,1
2,24416,29410304,1
0,19432,29410304,1
2,17584,29410304,1
0,17528,29410304,1
2,22680,29410304,1
0,18144,29410304,1
2,24416,29410304,1
0,17640,29410304,1
2,25256,29410304,1
0,19264,29410304,1
2,25144,29410304,1
0,17584,29410304,1
2,24080,29410304,1
0,18368,29410304,1
2,22512,29410304,1
0,18872,29410304,1
2,18144,29410304,1
0,17920,29410304,1
2,21224,29410304,1
0,18872,30139008,1
2,24416,30139008,1
0,19488,30139008,1
2,23968,30139008,1
0,19152,30139008,1
2,24136,30139008,1
0,18928,30139008,1
2,22232,30139008,1
0,18760,30139008,1
2,26600,30139008,1
0,18984,30139008,1
2,26768,30139008,1
0,19152,30139008,1
2,25256,30139008,1
0,18760,30139008,1
2,25872,30139008,1
0,19824,30139008,1
2,25144,30139008,1
0,17920,30139008,1
2,27048,30139008,1
0,19096,30139008,1
2,25144,30139008,1
0,19544,30139008,1
2,26432,30139008,1
0,18872,30139008,1
2,25424,30139008,1
0,19264,30139008,1
2,24080,30139008,1
0,18816,30139008,1
2,24920,30139008,1
0,18928,30139008,1
2,24696,30139008,1
0,18648,30139008,1
2,25816,30139008,1
0,18704,30139008,1
2,26096,30139008,1
0,18592,30139008,1
2,23912,30139008,1
0,19208,30139008,1
2,22120,30139008,1
0,20552,30139008,1
2,21280,30139008,1
0,19376,30139008,1
2,23856,30139008,1
0,19208,30139008,1
2,24304,30139008,1
0,18368,30139008,1
2,23912,30139008,1
0,18704,30139008,1
2,26824,30139008,1
0,20552,30139008,1
2,26376,30139008,1
0,19600,30139008,1
2,24472,30139008,1
0,17920,30139008,1
2,26264,30139008,1
0,18760,30139008,1
2,21616,30139008,1
0,19208,30139008,1
2,23912,30139008,1
0,19152,30867712,1
2,24976,30867712,1
0,19152,30867712,1
2,23296,30867712,1
0,17920,30867712,1
2,21560,30867712,1
0,18480,30867712,1
2,21560,30867712,1
0,18984,30867712,1
2,23632,30867712,1
0,19824,30867712,1
2,23632,30867712,1
0,17752,30867712,1
2,25424,30867712,1
0,18256,30867712,1
2,26768,30867712,1
0,17752,30867712,1
2,27720,30867712,1
0,18648,30867712,1
2,25760,30867712,1
0,18872,30867712,1
2,24080,30867712,1
0,18872,30867712,1
2,25928,30867712,1
0,17696,30867712,1
2,26488,30867712,1
0,19208,30867712,1
2,26936,30867712,1
0,17808,30867712,1
2,25200,30867712,1
0,17640,30867712,1
2,26656,30867712,1
0,17808,30867712,1
2,27104,30867712,1
0,18424,30867712,1
2,23128,30867712,1
0,17024,30867712,1
2,24976,30867712,1
0,17976,30867712,1
2,27272,30867712,1
0,18816,30867712,1
2,23072,30867712,1
0,17528,30867712,1
2,23408,30867712,1
0,18424,30867712,1
2,26320,30867712,1
0,18928,30867712,1
2,25928,30867712,1
0,18480,30867712,1
2,24920,30867712,1
0,19152,30867712,1
2,25816,30867712,1
0,18368,30867712,1
2,25032,30867712,1
0,19320,30867712,1
2,24584,30867712,1
0,18816,30867712,1
2,25592,30867712,1
0,18480,30867712,1
2,26880,30867712,1
0,18648,31596416,1
2,25704,31596416,1
0,18816,31596416,1
2,25200,31596416,1
0,19264,31596416,1
2,25984,31596416,1
0,18144,31596416,1
2,23800,31596416,1
0,18816,31596416,1
2,25648,31596416,1
0,19544,31596416,1
2,24192,31596416,1
0,18984,31596416,1
2,26264,31596416,1
0,18592,31596416,1
2,25928,31596416,1
0,19096,31596416,1
2,24640,31596416,1
0,17864,31596416,1
2,26880,31596416,1
0,17472,31596416,1
2,25424,31596416,1
0,18256,31596416,1
2,26824,31596416,1
0,18536,31596416,1
2,24976,31596416,1
0,18760,31596416,1
2,26152,31596416,1
0,18480,31596416,1
2,26152,31596416,1
0,20384,31596416,1
2,26432,31596416,1
0,16856,31596416,1
2,25592,31596416,1
0,18704,31596416,1
2,25872,31596416,1
0,18424,31596416,1
2,25648,31596416,1
0,17752,31596416,1
2,27160,31596416,1
0,19208,31596416,1
2,26264,31596416,1
0,19152,31596416,1
2,26768,31596416,1
0,18368,31596416,1
2,25536,31596416,1
0,19208,31596416,1
2,26712,31596416,1
0,18648,31596416,1
2,24304,31596416,1
0,19936,31596416,1
2,24920,31596416,1
0,19376,31596416,1
2,26712,31596416,1
0,19880,31596416,1
2,25536,31596416,1
0,19376,31596416,1
2,26320,31596416,1
0,18816,31596416,1
2,26824,31596416,1
0,19936,32325120,1
2,27328,32325120,1
0,18984,32325120,1
2,27160,32325120,1
0,19320,32325120,1
2,27328,32325120,1
0,18480,32325120,1
2,27944,32325120,1
0,20496,32325120,1
2,27440,32325120,1
0,18200,32325120,1
2,25984,32325120,1
0,20160,32325120,1
2,26936,32325120,1
0,18312,32325120,1
2,27328,32325120,1
0,19656,32325120,1
2,26768,32325120,1
0,18256,32325120,1
2,27496,32325120,1
0,18928,32325120,1
2,27048,32325120,1
0,19208,32325120,1
2,25648,32325120,1
0,21112,32325120,1
2,26712,32325120,1
0,19544,32325120,1
2,25536,32325120,1
0,20776,32325120,1
2,26376,32325120,1
0,21112,32325120,1
2,27104,32325120,1
0,19320,32325120,1
2,27272,32325120,1
0,19040,32325120,1
2,25312,32325120,1
0,18872,32325120,1
2,24584,32325120,1
0,19824,32325120,1
2,25312,32325120,1
0,20048,32325120,1
2,26880,32325120,1
0,19376,32325120,1
2,28000,32325120,1
0,18648,32325120,1
2,26712,32325120,1
0,18704,32325120,1
2,26600,32325120,1
0,19320,32325120,1
2,27944,32325120,1
0,18424,32325120,1
2,25368,32325120,1
0,17808,32325120,1
2,27328,32325120,1
0,18480,32325120,1
2,26376,32325120,1
0,18816,32325120,1
2,25592,32325120,1
0,19152,32325120,1
2,24472,32325120,1
0,18312,33053824,1
2,27048,33053824,1
0,18648,33053824,1
2,25648,33053824,1
0,18592,33053824,1
2,26376,33053824,1
0,18984,33053824,1
2,26488,33053824,1
0,17472,33053824,1
2,26432,33053824,1
0,18144,33053824,1
2,26600,33053824,1
0,17976,33053824,1
2,26544,33053824,1
0,18872,33053824,1
2,27216,33053824,1
0,18032,33053824,1
2,28056,33053824,1
0,19152,33053824,1
2,27832,33053824,1
0,18760,33053824,1
2,26656,33053824,1
0,17528,33053824,1
2,28168,33053824,1
0,17528,33053824,1
2,28560,33053824,1
0,18592,33053824,1
2,27384,33053824,1
0,19096,33053824,1
2,26600,33053824,1
0,19824,33053824,1
2,27160,33053824,1
0,20608,33053824,1
2,27216,33053824,1
0,19264,33053824,1
2,25872,33053824,1
0,20160,33053824,1
2,26936,33053824,1
0,19096,33053824,1
2,25648,33053824,1
0,18928,33053824,1
2,27832,33053824,1
0,19376,33053824,1
2,23968,33053824,1
0,19712,33053824,1
2,26264,33053824,1
0,19040,33053824,1
2,25144,33053824,1
0,19432,33053824,1
2,24136,33053824,1
0,18816,33053824,1
2,26936,33053824,1
0,19600,33053824,1
2,25704,33053824,1
0,18536,33053824,1
2,27832,33053824,1
0,18760,33053824,1
2,28056,33053824,1
0,19208,33053824,1
2,28000,33053824,1
0,19544,33782528,1
2,29344,33782528,1
0,18312,33782528,1
2,29624,33782528,1
0,19376,33782528,1
2,30016,33782528,1
0,17528,33782528,1
2,30184,33782528,1
0,18256,33782528,1
2,28952,33782528,1
0,20328,33782528,1
2,27608,33782528,1
0,19544,33782528,1
2,29512,33782528,1
0,18760,33782528,1
2,29792,33782528,1
0,19488,33782528,1
2,27440,33782528,1
0,20216,33782528,1
2,29008,33782528,1
0,18088,33782528,1
2,28392,33782528,1
0,19040,33782528,1
2,28672,33782528,1
0,18424,33782528,1
2,29400,33782528,1
0,17752,33782528,1
2,29792,33782528,1
0,18368,33782528,1
2,29064,33782528,1
0,19320,33782528,1
2,28952,33782528,1
0,18424,33782528,1
2,29904,33782528,1
0,18648,33782528,1
2,29008,33782528,1
0,19040,33782528,1
2,28504,33782528,1
0,18872,33782528,1
2,27720,33782528,1
0,19544,33782528,1
2,26040,33782528,1
0,21504,33782528,1
2,26432,33782528,1
0,18928,33782528,1
2,24696,33782528,1
0,18928,33782528,1
2,24808,33782528,1
0,18424,33782528,1
2,27608,33782528,1
0,18424,33782528,1
2,25256,33782528,1
0,19768,33782528,1
2,24864,33782528,1
0,18872,33782528,1
2,26992,33782528,1
0,18928,33782528,1
2,26768,33782528,1
0,18592,33782528,1
2,25928,33782528,1
0,18872,34511232,1
2,27160,34511232,1
0,18816,34511232,1
2,25648,34511232,1
0,19320,34511232,1
2,26824,34511232,1
0,20384,34511232,1
2,26992,34511232,1
0,18816,34511232,1
2,27496,34511232,1
0,20216,34511232,1
2,27160,34511232,1
0,19488,34511232,1
2,27440,34511232,1
0,19712,34511232,1
2,26712,34511232,1
0,19488,34511232,1
2,27440,34511232,1
0,19936,34511232,1
2,28784,34511232,1
0,20776,34511232,1
2,26320,34511232,1
0,19936,34511232,1
2,29008,34511232,1
0,20216,34511232,1
2,27440,34511232,1
0,20328,34511232,1
2,27272,34511232,1
0,20160,34511232,1
2,28504,34511232,1
0,20384,34511232,1
2,27216,34511232,1
0,20832,34511232,1
2,26544,34511232,1
0,19992,34511232,1
2,27944,34511232,1
0,21560,34511232,1
2,27440,34511232,1
0,20776,34511232,1
2,27328,34511232,1
0,19768,34511232,1
2,27720,34511232,1
0,20832,34511232,1
2,25760,34511232,1
0,19656,34511232,1
2,26824,34511232,1
0,20384,34511232,1
2,27048,34511232,1
0,20832,34511232,1
2,27608,34511232,1
0,20608,34511232,1
2,26320,34511232,1
0,20720,34511232,1
2,27608,34511232,1
0,20832,34511232,1
2,27160,34511232,1
0,19992,34511232,1
2,26824,34511232,1
0,20104,34511232,1
2,26152,34511232,1
0,19880,35239936,1
2,26320,35239936,1
0,19768,35239936,1
2,26824,35239936,1
0,20384,35239936,1
2,26320,35239936,1
0,20832,35239936,1
2,27384,35239936,1
0,19824,35239936,1
2,27552,35239936,1
0,19936,35239936,1
2,27888,35239936,1
0,20440,35239936,1
2,27832,35239936,1
0,18760,35239936,1
2,26936,35239936,1
0,19600,35239936,1
2,26936,35239936,1
0,17808,35239936,1
2,29120,35239936,1
0,19768,35239936,1
2,26824,35239936,1
0,20720,35239936,1
2,26768,35239936,1
0,19600,35239936,1
2,28448,35239936,1
0,19992,35239936,1
2,28336,35239936,1
0,19824,35239936,1
2,27496,35239936,1
0,20720,35239936,1
2,27888,35239936,1
0,20888,35239936,1
2,27384,35239936,1
0,19432,35239936,1
2,27552,35239936,1
0,20776,35239936,1
2,26936,35239936,1
0,20216,35239936,1
2,27216,35239936,1
0,19824,35239936,1
2,27272,35239936,1
0,19544,35239936,1
2,28000,35239936,1
0,20384,35239936,1
2,27160,35239936,1
0,18200,35239936,1
2,27384,35239936,1
0,20328,35239936,1
2,27328,35239936,1
0,19432,35239936,1
2,29288,35239936,1
0,19712,35239936,1
2,29960,35239936,1
0,19992,35239936,1
2,28056,35239936,1
0,21056,35239936,1
2,27888,35239936,1
0,20048,35239936,1
2,27944,35239936,1
0,19264,35968640,1
2,29904,35968640,1
0,18984,35968640,1
2,29568,35968640,1
0,19768,35968640,1
2,30296,35968640,1
0,20104,35968640,1
2,28560,35968640,1
0,19488,35968640,1
2,29680,35968640,1
0,19656,35968640,1
2,28728,35968640,1
0,20048,35968640,1
2,29904,35968640,1
0,19264,35968640,1
2,28560,35968640,1
0,19712,35968640,1
2,29400,35968640,1
0,19376,35968640,1
2,28784,35968640,1
0,20272,35968640,1
2,28784,35968640,1
0,18144,35968640,1
2,29904,35968640,1
0,20104,35968640,1
2,28672,35968640,1
0,19264,35968640,1
2,29960,35968640,1
0,19208,35968640,1
2,28112,35968640,1
0,18928,35968640,1
2,29176,35968640,1
0,19544,35968640,1
2,29288,35968640,1
0,18480,35968640,1
2,29624,35968640,1
0,19264,35968640,1
2,29512,35968640,1
0,18984,35968640,1
2,29568,35968640,1
0,18536,35968640,1
2,28672,35968640,1
0,19656,35968640,1
2,28728,35968640,1
0,18760,35968640,1
2,29568,35968640,1
0,19040,35968640,1
2,28840,35968640,1
0,19320,35968640,1
2,29176,35968640,1
0,18872,35968640,1
2,29288,35968640,1
0,20160,35968640,1
2,29512,35968640,1
0,19320,35968640,1
2,28840,35968640,1
0,20440,35968640,1
2,28896,35968640,1
0,21672,35968640,1
2,28280,35968640,1
0,20104,36697344,1
2,29512,36697344,1
0,19152,36697344,1
2,28728,36697344,1
0,20160,36697344,1
2,28560,36697344,1
0,19488,36697344,1
2,29512,36697344,1
0,18872,36697344,1
2,28840,36697344,1
0,19936,36697344,1
2,29232,36697344,1
0,18872,36697344,1
2,29960,36697344,1
0,19992,36697344,1
2,29624,36697344,1
0,19320,36697344,1
2,28448,36697344,1
0,19208,36697344,1
2,28224,36697344,1
0,20272,36697344,1
2,27328,36697344,1
0,20048,36697344,1
2,26544,36697344,1
0,20944,36697344,1
2,27776,36697344,1
0,20384,36697344,1
2,28448,36697344,1
0,21056,36697344,1
2,28224,36697344,1
0,20272,36697344,1
2,28672,36697344,1
0,20048,36697344,1
2,29120,36697344,1
0,21336,36697344,1
2,28056,36697344,1
0,21224,36697344,1
2,29064,36697344,1
0,20048,36697344,1
2,27552,36697344,1
0,21280,36697344,1
2,28336,36697344,1
0,20272,36697344,1
2,28672,36697344,1
0,20384,36697344,1
2,28336,36697344,1
0,20272,36697344,1
2,28224,36697344,1
0,20048,36697344,1
2,27552,36697344,1
0,20104,36697344,1
2,28168,36697344,1
0,19656,36697344,1
2,26488,36697344,1
0,19936,36697344,1
2,27272,36697344,1
0,20272,36697344,1
2,28672,36697344,1
0,19488,36697344,1
2,26992,36697344,1
