Time,Core,IPC,LLC Misses,LLC[KB]
2018-05-04 14:21:30,"0",0.91,500,14616.0
2018-05-04 14:21:30,"0",0.85,17189,15512.0
2018-05-04 14:21:30,"0",0.97,2867,15848.0
2018-05-04 14:21:30,"0",1.01,9885,17640.0
2018-05-04 14:21:30,"0",0.97,4242,17752.0
2018-05-04 14:21:30,"0",1.00,5064,17864.0
2018-05-04 14:21:30,"0",1.00,4423,17920.0
2018-05-04 14:21:30,"0",1.01,4509,18032.0
2018-05-04 14:21:30,"0",0.98,4132,18144.0
2018-05-04 14:21:31,"0",0.98,5006,18200.0
2018-05-04 14:21:31,"0",1.48,27099,18480.0
2018-05-04 14:21:31,"0",2.30,59211,18816.0
2018-05-04 14:21:31,"0",1.72,20671,18928.0
2018-05-04 14:21:31,"0",0.23,183,18928.0
2018-05-04 14:21:31,"0",0.03,33,18928.0
2018-05-04 14:21:31,"0",0.34,780,19096.0
2018-05-04 14:21:31,"0",0.47,161,18928.0
2018-05-04 14:21:31,"0",0.53,52,18928.0
2018-05-04 14:21:31,"0",0.19,326,18928.0
2018-05-04 14:21:32,"0",0.10,221,18872.0
2018-05-04 14:21:32,"0",0.54,79,18816.0
2018-05-04 14:21:32,"0",0.16,39,18760.0
2018-05-04 14:21:32,"0",0.04,33,18760.0
2018-05-04 14:21:32,"0",0.12,50,18704.0
2018-05-04 14:21:32,"0",0.26,36,18704.0
2018-05-04 14:21:32,"0",0.42,426,18704.0
2018-05-04 14:21:32,"0",0.19,32,18704.0
2018-05-04 14:21:32,"0",0.12,627,18704.0
2018-05-04 14:21:32,"0",0.34,266,18704.0
2018-05-04 14:21:33,"0",0.41,46,18592.0
2018-05-04 14:21:33,"0",0.25,709,18760.0
2018-05-04 14:21:33,"0",0.43,36,18760.0
2018-05-04 14:21:33,"0",0.03,37,18648.0
2018-05-04 14:21:33,"0",0.14,48,18648.0
2018-05-04 14:21:33,"0",0.29,37,18648.0
2018-05-04 14:21:33,"0",0.31,91,18648.0
2018-05-04 14:21:33,"0",0.29,36,18592.0
2018-05-04 14:21:33,"0",0.29,90,18592.0
2018-05-04 14:21:33,"0",0.57,449,18704.0
2018-05-04 14:21:34,"0",0.24,54,18704.0
2018-05-04 14:21:34,"0",0.03,36,18704.0
2018-05-04 14:21:34,"0",0.09,36,18704.0
2018-05-04 14:21:34,"0",0.33,82,18704.0
2018-05-04 14:21:34,"0",0.35,33,18704.0
2018-05-04 14:21:34,"0",0.18,35,18704.0
2018-05-04 14:21:34,"0",0.30,51,18648.0
2018-05-04 14:21:34,"0",0.40,213,18648.0
2018-05-04 14:21:34,"0",0.19,120,18648.0
2018-05-04 14:21:34,"0",0.57,559,18648.0
2018-05-04 14:21:35,"0",0.21,51,18648.0
2018-05-04 14:21:35,"0",0.23,204,18592.0
2018-05-04 14:21:35,"0",0.67,64,18536.0
2018-05-04 14:21:35,"0",0.42,33,18536.0
2018-05-04 14:21:35,"0",0.11,424,18480.0
2018-05-04 14:21:35,"0",0.11,35,18368.0
2018-05-04 14:21:35,"0",0.30,82,18368.0
2018-05-04 14:21:35,"0",0.35,34,18368.0
2018-05-04 14:21:35,"0",0.35,39,18368.0
2018-05-04 14:21:35,"0",0.55,389,18368.0
