Time,Core,IPC,LLC Misses,LLC[KB]
2018-05-04 14:22:48,"0",1.12,147,25928.0
2018-05-04 14:22:48,"0",0.84,10380,26096.0
2018-05-04 14:22:48,"0",0.98,3153,26152.0
2018-05-04 14:22:48,"0",1.01,9553,27272.0
2018-05-04 14:22:48,"0",0.96,4653,27216.0
2018-05-04 14:22:48,"0",0.97,4773,27216.0
2018-05-04 14:22:48,"0",0.97,3723,27272.0
2018-05-04 14:22:48,"0",0.97,4170,27272.0
2018-05-04 14:22:48,"0",0.98,4796,27384.0
2018-05-04 14:22:49,"0",1.01,5510,27384.0
2018-05-04 14:22:49,"0",1.49,31813,27888.0
2018-05-04 14:22:49,"0",2.30,62084,28112.0
2018-05-04 14:22:49,"0",1.76,20414,28168.0
2018-05-04 14:22:49,"0",0.19,257,28224.0
2018-05-04 14:22:49,"0",0.14,1046,28224.0
2018-05-04 14:22:49,"0",0.30,461,28224.0
2018-05-04 14:22:49,"0",0.05,44,28168.0
2018-05-04 14:22:49,"0",0.08,38,28168.0
2018-05-04 14:22:49,"0",0.26,161,28168.0
2018-05-04 14:22:50,"0",0.37,173,28000.0
2018-05-04 14:22:50,"0",0.19,156,27944.0
2018-05-04 14:22:50,"0",0.04,37,27664.0
2018-05-04 14:22:50,"0",0.12,39,27664.0
2018-05-04 14:22:50,"0",0.31,148,27664.0
2018-05-04 14:22:50,"0",0.36,39,27664.0
2018-05-04 14:22:50,"0",0.32,73,27608.0
2018-05-04 14:22:50,"0",0.30,35,27608.0
2018-05-04 14:22:50,"0",0.35,37,27608.0
2018-05-04 14:22:50,"0",0.28,127,27552.0
2018-05-04 14:22:51,"0",0.38,80,27552.0
2018-05-04 14:22:51,"0",0.38,699,27608.0
2018-05-04 14:22:51,"0",0.24,47,27608.0
2018-05-04 14:22:51,"0",0.04,39,27608.0
2018-05-04 14:22:51,"0",0.13,47,27608.0
2018-05-04 14:22:51,"0",0.34,127,27608.0
2018-05-04 14:22:51,"0",0.40,106,27608.0
2018-05-04 14:22:51,"0",0.41,36,27608.0
2018-05-04 14:22:51,"0",0.04,32,27608.0
2018-05-04 14:22:51,"0",0.11,38,27608.0
2018-05-04 14:22:52,"0",0.36,534,27608.0
2018-05-04 14:22:52,"0",0.25,54,27608.0
2018-05-04 14:22:52,"0",0.07,39,27608.0
2018-05-04 14:22:52,"0",0.22,39,27496.0
2018-05-04 14:22:52,"0",0.29,41,27496.0
2018-05-04 14:22:52,"0",0.45,187,27496.0
2018-05-04 14:22:52,"0",0.37,52,27496.0
2018-05-04 14:22:52,"0",0.04,34,27496.0
2018-05-04 14:22:52,"0",0.13,39,27496.0
2018-05-04 14:22:52,"0",0.23,152,27496.0
2018-05-04 14:22:53,"0",0.38,89,27496.0
2018-05-04 14:22:53,"0",0.19,113,27496.0
2018-05-04 14:22:53,"0",0.19,36,27496.0
2018-05-04 14:22:53,"0",0.03,37,27496.0
2018-05-04 14:22:53,"0",0.13,42,27496.0
2018-05-04 14:22:53,"0",0.52,954,27496.0
2018-05-04 14:22:53,"0",0.28,73,27496.0
2018-05-04 14:22:53,"0",0.48,161,27496.0
2018-05-04 14:22:53,"0",0.24,33,27496.0
2018-05-04 14:22:53,"0",0.08,89,27496.0
