Time,Core,IPC,LLC Misses,LLC[KB]
2018-05-04 14:21:42,"0",0.58,372,0.0
2018-05-04 14:21:42,"0",0.87,26799,4368.0
2018-05-04 14:21:42,"0",0.98,5083,9072.0
2018-05-04 14:21:42,"0",1.00,11739,23240.0
2018-05-04 14:21:42,"0",0.94,5861,23912.0
2018-05-04 14:21:42,"0",0.98,4929,24584.0
2018-05-04 14:21:42,"0",0.99,5427,25256.0
2018-05-04 14:21:42,"0",1.01,4899,25872.0
2018-05-04 14:21:42,"0",1.01,5088,26208.0
2018-05-04 14:21:42,"0",1.00,7666,26656.0
2018-05-04 14:21:43,"0",1.40,19391,27104.0
2018-05-04 14:21:43,"0",2.29,73891,27720.0
2018-05-04 14:21:43,"0",1.93,21836,28056.0
2018-05-04 14:21:43,"0",0.23,160,28056.0
2018-05-04 14:21:43,"0",0.13,429,27888.0
2018-05-04 14:21:43,"0",0.34,393,27832.0
2018-05-04 14:21:43,"0",0.50,165,27832.0
2018-05-04 14:21:43,"0",0.43,39,27832.0
2018-05-04 14:21:43,"0",0.04,40,27832.0
2018-05-04 14:21:43,"0",0.30,438,27832.0
2018-05-04 14:21:44,"0",0.27,306,27776.0
2018-05-04 14:21:44,"0",0.22,37,27776.0
2018-05-04 14:21:44,"0",0.05,42,27776.0
2018-05-04 14:21:44,"0",0.11,44,27776.0
2018-05-04 14:21:44,"0",0.33,126,27720.0
2018-05-04 14:21:44,"0",0.40,97,27720.0
2018-05-04 14:21:44,"0",0.57,327,27720.0
2018-05-04 14:21:44,"0",0.26,35,27720.0
2018-05-04 14:21:44,"0",0.05,168,27720.0
2018-05-04 14:21:44,"0",0.31,947,27608.0
2018-05-04 14:21:45,"0",0.38,242,27496.0
2018-05-04 14:21:45,"0",0.34,43,27496.0
2018-05-04 14:21:45,"0",0.05,39,27496.0
2018-05-04 14:21:45,"0",0.15,62,27384.0
2018-05-04 14:21:45,"0",0.36,50,27328.0
2018-05-04 14:21:45,"0",0.31,60,27328.0
2018-05-04 14:21:45,"0",0.44,227,27328.0
2018-05-04 14:21:45,"0",0.26,37,27328.0
2018-05-04 14:21:45,"0",0.11,152,27328.0
2018-05-04 14:21:45,"0",0.57,128,27328.0
2018-05-04 14:21:46,"0",0.30,74,27272.0
2018-05-04 14:21:46,"0",0.04,38,27272.0
2018-05-04 14:21:46,"0",0.11,42,27272.0
2018-05-04 14:21:46,"0",0.32,90,27272.0
2018-05-04 14:21:46,"0",0.51,255,27272.0
2018-05-04 14:21:46,"0",0.38,46,27216.0
2018-05-04 14:21:46,"0",0.23,34,27216.0
2018-05-04 14:21:46,"0",0.04,33,27216.0
2018-05-04 14:21:46,"0",0.28,252,27216.0
2018-05-04 14:21:46,"0",0.56,282,27216.0
2018-05-04 14:21:47,"0",0.20,40,27216.0
2018-05-04 14:21:47,"0",0.20,347,27216.0
2018-05-04 14:21:47,"0",0.17,37,27216.0
2018-05-04 14:21:47,"0",0.06,48,27216.0
2018-05-04 14:21:47,"0",0.11,87,27104.0
2018-05-04 14:21:47,"0",0.33,55,27104.0
2018-05-04 14:21:47,"0",0.34,40,27104.0
2018-05-04 14:21:47,"0",0.28,42,27104.0
2018-05-04 14:21:47,"0",0.50,151,27104.0
2018-05-04 14:21:47,"0",0.30,2235,27160.0
