CPU 0:
   0x00000000 0x00: eax=0x00000014 ebx=0x756e6547 ecx=0x6c65746e edx=0x49656e69
   0x00000001 0x00: eax=0x000406f1 ebx=0x00200800 ecx=0x7ffefbff edx=0xbfebfbff
   0x00000002 0x00: eax=0x76036301 ebx=0x00f0b5ff ecx=0x00000000 edx=0x00c30000
   0x00000003 0x00: eax=0x00000000 ebx=0x00000000 ecx=0x00000000 edx=0x00000000
   0x00000004 0x00: eax=0x3c004121 ebx=0x01c0003f ecx=0x0000003f edx=0x00000000
   0x00000004 0x01: eax=0x3c004122 ebx=0x01c0003f ecx=0x0000003f edx=0x00000000
   0x00000004 0x02: eax=0x3c004143 ebx=0x01c0003f ecx=0x000001ff edx=0x00000000
   0x00000004 0x03: eax=0x3c07c163 ebx=0x04c0003f ecx=0x00004fff edx=0x00000006
   0x00000005 0x00: eax=0x00000040 ebx=0x00000040 ecx=0x00000003 edx=0x00002120
   0x00000006 0x00: eax=0x00000077 ebx=0x00000002 ecx=0x00000009 edx=0x00000000
   0x00000007 0x00: eax=0x00000000 ebx=0x021cbfbb ecx=0x00000000 edx=0x0c000000
   0x00000008 0x00: eax=0x00000000 ebx=0x00000000 ecx=0x00000000 edx=0x00000000
   0x00000009 0x00: eax=0x00000001 ebx=0x00000000 ecx=0x00000000 edx=0x00000000
   0x0000000a 0x00: eax=0x07300403 ebx=0x00000000 ecx=0x00000000 edx=0x00000603
   0x0000000b 0x00: eax=0x00000001 ebx=0x00000002 ecx=0x00000100 edx=0x00000000
   0x0000000b 0x01: eax=0x00000005 ebx=0x00000014 ecx=0x00000201 edx=0x00000000
   0x0000000c 0x00: eax=0x00000000 ebx=0x00000000 ecx=0x00000000 edx=0x00000000
   0x0000000d 0x00: eax=0x00000007 ebx=0x00000340 ecx=0x00000340 edx=0x00000000
   0x0000000d 0x01: eax=0x00000001 ebx=0x00000000 ecx=0x00000000 edx=0x00000000
   0x0000000d 0x02: eax=0x00000100 ebx=0x00000240 ecx=0x00000000 edx=0x00000000
   0x0000000e 0x00: eax=0x00000000 ebx=0x00000000 ecx=0x00000000 edx=0x00000000
   0x0000000f 0x00: eax=0x00000000 ebx=0x0000004f ecx=0x00000000 edx=0x00000002
   0x0000000f 0x01: eax=0x00000000 ebx=0x0000a000 ecx=0x0000004f edx=0x00000007
   0x00000010 0x00: eax=0x00000000 ebx=0x00000002 ecx=0x00000000 edx=0x00000000
   0x00000010 0x01: eax=0x00000013 ebx=0x000c0000 ecx=0x00000004 edx=0x0000000f
   0x00000011 0x00: eax=0x00000000 ebx=0x00000000 ecx=0x00000000 edx=0x00000000
   0x00000012 0x00: eax=0x00000000 ebx=0x00000000 ecx=0x00000000 edx=0x00000000
   0x00000013 0x00: eax=0x00000000 ebx=0x00000000 ecx=0x00000000 edx=0x00000000
   0x00000014 0x00: eax=0x00000000 ebx=0x00000001 ecx=0x00000001 edx=0x00000000
   0x80000000 0x00: eax=0x80000008 ebx=0x00000000 ecx=0x00000000 edx=0x00000000
   0x80000001 0x00: eax=0x00000000 ebx=0x00000000 ecx=0x00000121 edx=0x2c100800
   0x80000002 0x00: eax=0x65746e49 ebx=0x2952286c ecx=0x6f655820 edx=0x2952286e
   0x80000003 0x00: eax=0x55504320 ebx=0x2d354520 ecx=0x30333632 edx=0x3476204c
   0x80000004 0x00: eax=0x31204020 ebx=0x4730382e ecx=0x00007a48 edx=0x00000000
   0x80000005 0x00: eax=0x00000000 ebx=0x00000000 ecx=0x00000000 edx=0x00000000
   0x80000006 0x00: eax=0x00000000 ebx=0x00000000 ecx=0x01006040 edx=0x00000000
   0x80000007 0x00: eax=0x00000000 ebx=0x00000000 ecx=0x00000000 edx=0x00000100
   0x80000008 0x00: eax=0x0000302e ebx=0x00000000 ecx=0x00000000 edx=0x00000000
   0x80860000 0x00: eax=0x00000000 ebx=0x00000001 ecx=0x00000001 edx=0x00000000
   0xc0000000 0x00: eax=0x00000000 ebx=0x00000001 ecx=0x00000001 edx=0x00000000
CPU 1:
   0x00000000 0x00: eax=0x00000014 ebx=0x756e6547 ecx=0x6c65746e edx=0x49656e69
   0x00000001 0x00: eax=0x000406f1 ebx=0x20200800 ecx=0x7ffefbff edx=0xbfebfbff
   0x00000002 0x00: eax=0x76036301 ebx=0x00f0b5ff ecx=0x00000000 edx=0x00c30000
   0x00000003 0x00: eax=0x00000000 ebx=0x00000000 ecx=0x00000000 edx=0x00000000
   0x00000004 0x00: eax=0x3c004121 ebx=0x01c0003f ecx=0x0000003f edx=0x00000000
   0x00000004 0x01: eax=0x3c004122 ebx=0x01c0003f ecx=0x0000003f edx=0x00000000
   0x00000004 0x02: eax=0x3c004143 ebx=0x01c0003f ecx=0x000001ff edx=0x00000000
   0x00000004 0x03: eax=0x3c07c163 ebx=0x04c0003f ecx=0x00004fff edx=0x00000006
   0x00000005 0x00: eax=0x00000040 ebx=0x00000040 ecx=0x00000003 edx=0x00002120
   0x00000006 0x00: eax=0x00000077 ebx=0x00000002 ecx=0x00000009 edx=0x00000000
   0x00000007 0x00: eax=0x00000000 ebx=0x021cbfbb ecx=0x00000000 edx=0x0c000000
   0x00000008 0x00: eax=0x00000000 ebx=0x00000000 ecx=0x00000000 edx=0x00000000
   0x00000009 0x00: eax=0x00000001 ebx=0x00000000 ecx=0x00000000 edx=0x00000000
   0x0000000a 0x00: eax=0x07300403 ebx=0x00000000 ecx=0x00000000 edx=0x00000603
   0x0000000b 0x00: eax=0x00000001 ebx=0x00000002 ecx=0x00000100 edx=0x00000020
   0x0000000b 0x01: eax=0x00000005 ebx=0x00000014 ecx=0x00000201 edx=0x00000020
   0x0000000c 0x00: eax=0x00000000 ebx=0x00000000 ecx=0x00000000 edx=0x00000000
   0x0000000d 0x00: eax=0x00000007 ebx=0x00000340 ecx=0x00000340 edx=0x00000000
   0x0000000d 0x01: eax=0x00000001 ebx=0x00000000 ecx=0x00000000 edx=0x00000000
   0x0000000d 0x02: eax=0x00000100 ebx=0x00000240 ecx=0x00000000 edx=0x00000000
   0x0000000e 0x00: eax=0x00000000 ebx=0x00000000 ecx=0x00000000 edx=0x00000000
   0x0000000f 0x00: eax=0x00000000 ebx=0x0000004f ecx=0x00000000 edx=0x00000002
   0x0000000f 0x01: eax=0x00000000 ebx=0x0000a000 ecx=0x0000004f edx=0x00000007
   0x00000010 0x00: eax=0x00000000 ebx=0x00000002 ecx=0x00000000 edx=0x00000000
   0x00000010 0x01: eax=0x00000013 ebx=0x000c0000 ecx=0x00000004 edx=0x0000000f
   0x00000011 0x00: eax=0x00000000 ebx=0x00000000 ecx=0x00000000 edx=0x00000000
   0x00000012 0x00: eax=0x00000000 ebx=0x00000000 ecx=0x00000000 edx=0x00000000
   0x00000013 0x00: eax=0x00000000 ebx=0x00000000 ecx=0x00000000 edx=0x00000000
   0x00000014 0x00: eax=0x00000000 ebx=0x00000001 ecx=0x00000001 edx=0x00000000
   0x80000000 0x00: eax=0x80000008 ebx=0x00000000 ecx=0x00000000 edx=0x00000000
   0x80000001 0x00: eax=0x00000000 ebx=0x00000000 ecx=0x00000121 edx=0x2c100800
   0x80000002 0x00: eax=0x65746e49 ebx=0x2952286c ecx=0x6f655820 edx=0x2952286e
   0x80000003 0x00: eax=0x55504320 ebx=0x2d354520 ecx=0x30333632 edx=0x3476204c
   0x80000004 0x00: eax=0x31204020 ebx=0x4730382e ecx=0x00007a48 edx=0x00000000
   0x80000005 0x00: eax=0x00000000 ebx=0x00000000 ecx=0x00000000 edx=0x00000000
   0x80000006 0x00: eax=0x00000000 ebx=0x00000000 ecx=0x01006040 edx=0x00000000
   0x80000007 0x00: eax=0x00000000 ebx=0x00000000 ecx=0x00000000 edx=0x00000100
   0x80000008 0x00: eax=0x0000302e ebx=0x00000000 ecx=0x00000000 edx=0x00000000
   0x80860000 0x00: eax=0x00000000 ebx=0x00000001 ecx=0x00000001 edx=0x00000000
   0xc0000000 0x00: eax=0x00000000 ebx=0x00000001 ecx=0x00000001 edx=0x00000000
CPU 2:
   0x00000000 0x00: eax=0x00000014 ebx=0x756e6547 ecx=0x6c65746e edx=0x49656e69
   0x00000001 0x00: eax=0x000406f1 ebx=0x02200800 ecx=0x7ffefbff edx=0xbfebfbff
   0x00000002 0x00: eax=0x76036301 ebx=0x00f0b5ff ecx=0x00000000 edx=0x00c30000
   0x00000003 0x00: eax=0x00000000 ebx=0x00000000 ecx=0x00000000 edx=0x00000000
   0x00000004 0x00: eax=0x3c004121 ebx=0x01c0003f ecx=0x0000003f edx=0x00000000
   0x00000004 0x01: eax=0x3c004122 ebx=0x01c0003f ecx=0x0000003f edx=0x00000000
   0x00000004 0x02: eax=0x3c004143 ebx=0x01c0003f ecx=0x000001ff edx=0x00000000
   0x00000004 0x03: eax=0x3c07c163 ebx=0x04c0003f ecx=0x00004fff edx=0x00000006
   0x00000005 0x00: eax=0x00000040 ebx=0x00000040 ecx=0x00000003 edx=0x00002120
   0x00000006 0x00: eax=0x00000077 ebx=0x00000002 ecx=0x00000009 edx=0x00000000
   0x00000007 0x00: eax=0x00000000 ebx=0x021cbfbb ecx=0x00000000 edx=0x0c000000
   0x00000008 0x00: eax=0x00000000 ebx=0x00000000 ecx=0x00000000 edx=0x00000000
   0x00000009 0x00: eax=0x00000001 ebx=0x00000000 ecx=0x00000000 edx=0x00000000
   0x0000000a 0x00: eax=0x07300403 ebx=0x00000000 ecx=0x00000000 edx=0x00000603
   0x0000000b 0x00: eax=0x00000001 ebx=0x00000002 ecx=0x00000100 edx=0x00000002
   0x0000000b 0x01: eax=0x00000005 ebx=0x00000014 ecx=0x00000201 edx=0x00000002
   0x0000000c 0x00: eax=0x00000000 ebx=0x00000000 ecx=0x00000000 edx=0x00000000
   0x0000000d 0x00: eax=0x00000007 ebx=0x00000340 ecx=0x00000340 edx=0x00000000
   0x0000000d 0x01: eax=0x00000001 ebx=0x00000000 ecx=0x00000000 edx=0x00000000
   0x0000000d 0x02: eax=0x00000100 ebx=0x00000240 ecx=0x00000000 edx=0x00000000
   0x0000000e 0x00: eax=0x00000000 ebx=0x00000000 ecx=0x00000000 edx=0x00000000
   0x0000000f 0x00: eax=0x00000000 ebx=0x0000004f ecx=0x00000000 edx=0x00000002
   0x0000000f 0x01: eax=0x00000000 ebx=0x0000a000 ecx=0x0000004f edx=0x00000007
   0x00000010 0x00: eax=0x00000000 ebx=0x00000002 ecx=0x00000000 edx=0x00000000
   0x00000010 0x01: eax=0x00000013 ebx=0x000c0000 ecx=0x00000004 edx=0x0000000f
   0x00000011 0x00: eax=0x00000000 ebx=0x00000000 ecx=0x00000000 edx=0x00000000
   0x00000012 0x00: eax=0x00000000 ebx=0x00000000 ecx=0x00000000 edx=0x00000000
   0x00000013 0x00: eax=0x00000000 ebx=0x00000000 ecx=0x00000000 edx=0x00000000
   0x00000014 0x00: eax=0x00000000 ebx=0x00000001 ecx=0x00000001 edx=0x00000000
   0x80000000 0x00: eax=0x80000008 ebx=0x00000000 ecx=0x00000000 edx=0x00000000
   0x80000001 0x00: eax=0x00000000 ebx=0x00000000 ecx=0x00000121 edx=0x2c100800
   0x80000002 0x00: eax=0x65746e49 ebx=0x2952286c ecx=0x6f655820 edx=0x2952286e
   0x80000003 0x00: eax=0x55504320 ebx=0x2d354520 ecx=0x30333632 edx=0x3476204c
   0x80000004 0x00: eax=0x31204020 ebx=0x4730382e ecx=0x00007a48 edx=0x00000000
   0x80000005 0x00: eax=0x00000000 ebx=0x00000000 ecx=0x00000000 edx=0x00000000
   0x80000006 0x00: eax=0x00000000 ebx=0x00000000 ecx=0x01006040 edx=0x00000000
   0x80000007 0x00: eax=0x00000000 ebx=0x00000000 ecx=0x00000000 edx=0x00000100
   0x80000008 0x00: eax=0x0000302e ebx=0x00000000 ecx=0x00000000 edx=0x00000000
   0x80860000 0x00: eax=0x00000000 ebx=0x00000001 ecx=0x00000001 edx=0x00000000
   0xc0000000 0x00: eax=0x00000000 ebx=0x00000001 ecx=0x00000001 edx=0x00000000
CPU 3:
   0x00000000 0x00: eax=0x00000014 ebx=0x756e6547 ecx=0x6c65746e edx=0x49656e69
   0x00000001 0x00: eax=0x000406f1 ebx=0x22200800 ecx=0x7ffefbff edx=0xbfebfbff
   0x00000002 0x00: eax=0x76036301 ebx=0x00f0b5ff ecx=0x00000000 edx=0x00c30000
   0x00000003 0x00: eax=0x00000000 ebx=0x00000000 ecx=0x00000000 edx=0x00000000
   0x00000004 0x00: eax=0x3c004121 ebx=0x01c0003f ecx=0x0000003f edx=0x00000000
   0x00000004 0x01: eax=0x3c004122 ebx=0x01c0003f ecx=0x0000003f edx=0x00000000
   0x00000004 0x02: eax=0x3c004143 ebx=0x01c0003f ecx=0x000001ff edx=0x00000000
   0x00000004 0x03: eax=0x3c07c163 ebx=0x04c0003f ecx=0x00004fff edx=0x00000006
   0x00000005 0x00: eax=0x00000040 ebx=0x00000040 ecx=0x00000003 edx=0x00002120
   0x00000006 0x00: eax=0x00000077 ebx=0x00000002 ecx=0x00000009 edx=0x00000000
   0x00000007 0x00: eax=0x00000000 ebx=0x021cbfbb ecx=0x00000000 edx=0x0c000000
   0x00000008 0x00: eax=0x00000000 ebx=0x00000000 ecx=0x00000000 edx=0x00000000
   0x00000009 0x00: eax=0x00000001 ebx=0x00000000 ecx=0x00000000 edx=0x00000000
   0x0000000a 0x00: eax=0x07300403 ebx=0x00000000 ecx=0x00000000 edx=0x00000603
   0x0000000b 0x00: eax=0x00000001 ebx=0x00000002 ecx=0x00000100 edx=0x00000022
   0x0000000b 0x01: eax=0x00000005 ebx=0x00000014 ecx=0x00000201 edx=0x00000022
   0x0000000c 0x00: eax=0x00000000 ebx=0x00000000 ecx=0x00000000 edx=0x00000000
   0x0000000d 0x00: eax=0x00000007 ebx=0x00000340 ecx=0x00000340 edx=0x00000000
   0x0000000d 0x01: eax=0x00000001 ebx=0x00000000 ecx=0x00000000 edx=0x00000000
   0x0000000d 0x02: eax=0x00000100 ebx=0x00000240 ecx=0x00000000 edx=0x00000000
   0x0000000e 0x00: eax=0x00000000 ebx=0x00000000 ecx=0x00000000 edx=0x00000000
   0x0000000f 0x00: eax=0x00000000 ebx=0x0000004f ecx=0x00000000 edx=0x00000002
   0x0000000f 0x01: eax=0x00000000 ebx=0x0000a000 ecx=0x0000004f edx=0x00000007
   0x00000010 0x00: eax=0x00000000 ebx=0x00000002 ecx=0x00000000 edx=0x00000000
   0x00000010 0x01: eax=0x00000013 ebx=0x000c0000 ecx=0x00000004 edx=0x0000000f
   0x00000011 0x00: eax=0x00000000 ebx=0x00000000 ecx=0x00000000 edx=0x00000000
   0x00000012 0x00: eax=0x00000000 ebx=0x00000000 ecx=0x00000000 edx=0x00000000
   0x00000013 0x00: eax=0x00000000 ebx=0x00000000 ecx=0x00000000 edx=0x00000000
   0x00000014 0x00: eax=0x00000000 ebx=0x00000001 ecx=0x00000001 edx=0x00000000
   0x80000000 0x00: eax=0x80000008 ebx=0x00000000 ecx=0x00000000 edx=0x00000000
   0x80000001 0x00: eax=0x00000000 ebx=0x00000000 ecx=0x00000121 edx=0x2c100800
   0x80000002 0x00: eax=0x65746e49 ebx=0x2952286c ecx=0x6f655820 edx=0x2952286e
   0x80000003 0x00: eax=0x55504320 ebx=0x2d354520 ecx=0x30333632 edx=0x3476204c
   0x80000004 0x00: eax=0x31204020 ebx=0x4730382e ecx=0x00007a48 edx=0x00000000
   0x80000005 0x00: eax=0x00000000 ebx=0x00000000 ecx=0x00000000 edx=0x00000000
   0x80000006 0x00: eax=0x00000000 ebx=0x00000000 ecx=0x01006040 edx=0x00000000
   0x80000007 0x00: eax=0x00000000 ebx=0x00000000 ecx=0x00000000 edx=0x00000100
   0x80000008 0x00: eax=0x0000302e ebx=0x00000000 ecx=0x00000000 edx=0x00000000
   0x80860000 0x00: eax=0x00000000 ebx=0x00000001 ecx=0x00000001 edx=0x00000000
   0xc0000000 0x00: eax=0x00000000 ebx=0x00000001 ecx=0x00000001 edx=0x00000000
