coreutils	8.26-3
cpuid	20161201-1
dmidecode	3.0-4
hwloc	1.11.5-1
intel-cmt-cat	0.1.5-2
libhwloc-dev:amd64	1.11.5-1
libhwloc-plugins	1.11.5-1
libhwloc5:amd64	1.11.5-1
libnuma-dev:amd64	2.0.11-2.1
linux-perf	4.9+80+deb9u4
linux-perf-4.9	4.9.88-1+deb9u1
lsb-release	9.20161125
lshw	02.18-0.1
util-linux	2.29.2-1+deb9u1
util-linux-locales	2.29.2-1+deb9u1
