strict graph  {
0;
1;
2;
3;
0 -- 1  [weight="(26214400, 0)", label="(26214400, 0)"];
0 -- 2  [weight="(0, (2.0999999046325684, 2.0999999046325684))", label="(0, (2.0999999046325684, 2.0999999046325684))"];
0 -- 3  [weight="(0, (2.0999999046325684, 2.0999999046325684))", label="(0, (2.0999999046325684, 2.0999999046325684))"];
1 -- 2  [weight="(0, (2.0999999046325684, 2.0999999046325684))", label="(0, (2.0999999046325684, 2.0999999046325684))"];
1 -- 3  [weight="(0, (2.0999999046325684, 2.0999999046325684))", label="(0, (2.0999999046325684, 2.0999999046325684))"];
2 -- 3  [weight="(26214400, 0)", label="(26214400, 0)"];
}
