Type,Size(B),Time(ns),Misses(%)
0,1024,436441254,23.764
0,1024,404471965,24.314
0,1024,460986833,22.824
0,1024,477924043,23.537
0,1024,411259072,24.509
0,1024,459872306,23.884
0,1024,422953575,24.478
0,1024,426889899,23.894
0,1024,452999086,23.615
0,1024,419514521,24.174
0,1024,446587447,22.886
0,1024,487811823,24.364
0,1024,445497713,24.312
0,1024,459357367,24.006
0,1024,472845395,23.658
0,1024,478748450,25.313
0,1024,443891992,25.712
0,1024,415453739,23.357
0,1024,449504857,23.035
0,1024,468668258,23.460
0,1024,495232459,23.551
0,1024,418567682,24.387
0,1024,468702829,23.847
0,1024,429683412,24.419
0,1024,449313352,23.749
0,1024,504246106,23.540
0,1024,418298654,24.189
0,1024,459312598,23.227
0,1024,454820546,23.250
0,1024,479559936,23.912
1,262144,473235808,25.394
1,262144,497465984,24.517
1,262144,478027408,25.062
1,262144,504417705,25.618
1,262144,483643416,27.374
1,262144,444813408,26.301
1,262144,487805538,25.937
1,262144,459147353,25.775
1,262144,446146260,25.859
1,262144,495980041,25.586
1,262144,470283267,24.815
1,262144,471502137,25.313
1,262144,460519037,26.355
1,262144,485429467,26.304
1,262144,483742381,25.195
1,262144,501690823,26.971
1,262144,473220094,25.520
1,262144,485818693,26.397
1,262144,510353167,24.767
1,262144,502071597,25.057
1,262144,466992486,25.503
1,262144,454951359,25.963
1,262144,483257542,25.859
1,262144,465770054,26.370
1,262144,428152141,26.413
1,262144,482553263,24.208
1,262144,494653056,23.983
1,262144,434691800,26.190
1,262144,465162644,25.838
1,262144,470088200,25.839
1,290944,470551248,25.536
1,290944,469800454,25.634
1,290944,490972491,25.665
1,290944,459597132,26.117
1,290944,496653450,25.186
1,290944,449484743,26.194
1,290944,461544517,25.721
1,290944,491217354,24.967
1,290944,468599883,26.446
1,290944,480803949,24.816
1,290944,470098956,25.683
1,290944,477577630,25.769
1,290944,491339157,27.425
1,290944,465454790,25.549
1,290944,471608645,26.381
1,290944,500982562,25.634
1,290944,434514054,26.470
1,290944,461531317,25.522
1,290944,487463245,24.807
1,290944,466343939,25.358
1,290944,485592477,26.279
1,290944,464723831,26.286
1,290944,474972201,25.404
1,290944,481235358,24.541
1,290944,456924096,26.792
1,290944,499743229,24.766
1,290944,490514890,25.782
1,290944,460491380,27.528
1,290944,463168186,26.989
1,290944,486638419,25.566
1,319744,449709841,27.785
1,319744,470556486,28.157
1,319744,469658117,28.470
1,319744,449536286,28.793
1,319744,502307032,26.999
1,319744,490910681,26.116
1,319744,482337314,29.126
1,319744,464946136,26.345
1,319744,473275477,26.575
1,319744,497450688,26.792
1,319744,492405284,28.577
1,319744,435507476,28.194
1,319744,490583893,24.995
1,319744,467846435,28.193
1,319744,467994010,27.518
1,319744,500031115,28.233
1,319744,470168518,26.484
1,319744,477323199,28.891
1,319744,470066200,29.028
1,319744,472221293,26.660
1,319744,490296706,24.438
1,319744,453194572,25.511
1,319744,475086741,28.157
1,319744,498059146,29.378
1,319744,474781185,27.399
1,319744,491715951,28.846
1,319744,494701945,25.540
1,319744,467484238,26.984
1,319744,467442612,28.432
1,319744,494070789,27.922
1,348544,453763708,26.961
1,348544,470947807,27.982
1,348544,484254597,28.243
1,348544,465923286,26.404
1,348544,495903006,28.562
1,348544,491091849,28.871
1,348544,464140167,27.728
1,348544,460118218,27.784
1,348544,482940883,27.973
1,348544,474273788,28.766
1,348544,492351227,27.690
1,348544,488537194,25.685
1,348544,484140546,28.808
1,348544,464218181,28.603
1,348544,473681814,29.366
1,348544,425860718,28.991
1,348544,476604392,27.571
1,348544,449033568,28.300
1,348544,479050583,28.251
1,348544,480323651,25.457
1,348544,477226818,29.707
1,348544,492121030,25.958
1,348544,449827244,27.364
1,348544,494966434,27.982
1,348544,491769240,27.200
1,348544,459793526,27.179
1,348544,505909516,27.541
1,348544,489865436,28.195
1,348544,487490413,27.307
1,348544,481610127,28.078
1,377344,479304526,27.265
1,377344,476770335,27.362
1,377344,497525488,27.337
1,377344,455698172,29.154
1,377344,417833581,29.479
1,377344,497894669,27.666
1,377344,497364155,26.409
1,377344,439135870,28.545
1,377344,490898389,28.496
1,377344,476042030,26.476
1,377344,457980166,29.759
1,377344,465772568,28.011
1,377344,471761527,26.436
1,377344,495592072,28.204
1,377344,477382983,30.414
1,377344,449431245,28.434
1,377344,442514512,28.411
1,377344,517853283,26.809
1,377344,477655224,28.333
1,377344,490545620,27.660
1,377344,478519231,27.612
1,377344,487998998,28.671
1,377344,455512954,28.818
1,377344,470325382,27.996
1,377344,477176253,28.469
1,377344,461799926,25.706
1,377344,480224196,29.382
1,377344,474661268,26.100
1,377344,460742320,26.826
1,377344,496152479,28.650
1,406144,506286728,28.551
1,406144,495051291,25.313
1,406144,494085037,24.169
1,406144,469727051,27.949
1,406144,471522112,27.063
1,406144,493472040,28.916
1,406144,457523404,27.954
1,406144,442636595,28.052
1,406144,474516138,29.837
1,406144,469172372,24.515
1,406144,447001606,29.063
1,406144,486925258,28.422
1,406144,472618411,27.323
1,406144,489308382,25.605
1,406144,493614935,27.243
1,406144,475122430,27.699
1,406144,512570698,25.956
1,406144,458260859,27.636
1,406144,500270460,29.090
1,406144,517735531,27.308
1,406144,485294882,24.499
1,406144,437015419,28.736
1,406144,478507357,28.636
1,406144,484807181,26.266
1,406144,514598190,28.041
1,406144,487758814,26.549
1,406144,464306529,26.193
1,406144,481504527,25.949
1,406144,467571680,25.638
1,406144,397487348,31.456
1,434944,492747716,29.085
1,434944,491069919,28.585
1,434944,482412953,26.127
1,434944,484527886,25.422
1,434944,489184483,25.777
1,434944,463363812,29.243
1,434944,460850573,28.947
1,434944,424768890,29.118
1,434944,349178412,29.075
1,434944,471248544,26.807
1,434944,475351859,28.110
1,434944,474163719,28.053
1,434944,492887957,26.138
1,434944,459645183,29.658
1,434944,507393713,30.326
1,434944,404743928,30.517
1,434944,475788367,27.221
1,434944,470602721,29.126
1,434944,485916330,28.690
1,434944,471363851,28.988
1,434944,456456439,27.471
1,434944,484895390,29.646
1,434944,463552453,29.085
1,434944,452527657,29.261
1,434944,494103196,28.733
1,434944,472961820,28.163
1,434944,449888145,31.714
1,434944,506552963,27.851
1,434944,491328052,26.872
1,434944,449952749,25.437
1,463744,471802525,28.739
1,463744,483947714,29.534
1,463744,484630552,28.691
1,463744,495985698,27.918
1,463744,470643439,26.800
1,463744,489183296,30.414
1,463744,453417994,29.994
1,463744,466354206,26.806
1,463744,469362689,27.977
1,463744,509761402,26.824
1,463744,442817065,27.089
1,463744,456471106,28.513
1,463744,505598164,27.807
1,463744,474963402,29.475
1,463744,477111161,29.703
1,463744,486532889,26.918
1,463744,475557890,27.657
1,463744,481183955,28.341
1,463744,440848309,29.299
1,463744,471466448,27.684
1,463744,476871814,31.250
1,463744,473732448,27.625
1,463744,463083120,29.508
1,463744,499550257,28.113
1,463744,484841124,28.815
1,463744,469419680,29.899
1,463744,472801325,29.354
1,463744,499945559,29.001
1,463744,484036133,28.934
1,463744,494405119,29.416
1,492544,469862194,30.310
1,492544,461150122,29.356
1,492544,467420752,26.256
1,492544,497794168,30.120
1,492544,470657197,28.475
1,492544,462588085,29.030
1,492544,482628902,27.135
1,492544,469124601,27.089
1,492544,465063330,29.310
1,492544,496043317,26.378
1,492544,443644125,27.325
1,492544,458908637,28.377
1,492544,480739835,29.902
1,492544,447465561,29.241
1,492544,488736103,26.232
1,492544,458795353,26.792
1,492544,468373318,27.006
1,492544,501223235,29.265
1,492544,408377211,30.725
1,492544,483655708,28.950
1,492544,467309984,26.778
1,492544,429129291,30.186
1,492544,453540006,29.090
1,492544,465628905,27.623
1,492544,500531736,29.541
1,492544,483548292,28.647
1,492544,452846622,27.395
1,492544,508102392,28.669
1,492544,482277530,28.209
1,492544,485321701,28.856
1,521344,459282008,31.782
1,521344,471998779,30.515
1,521344,440910119,30.481
1,521344,483234355,30.076
1,521344,449363498,27.763
1,521344,460122199,29.935
1,521344,505996887,29.427
1,521344,435649812,30.475
1,521344,496736282,27.628
1,521344,421969302,31.149
1,521344,460038389,28.841
1,521344,430639050,30.979
1,521344,487549010,28.358
1,521344,457284058,29.526
1,521344,474234678,30.523
1,521344,466413082,29.740
1,521344,478186297,26.244
1,521344,482863219,30.108
1,521344,420234584,29.592
1,521344,499962111,30.258
1,521344,487107683,27.615
1,521344,445406360,29.400
1,521344,478234767,30.268
1,521344,464365755,29.440
1,521344,470586519,29.620
1,521344,478326957,31.081
1,521344,451527530,30.353
1,521344,491406135,30.024
1,521344,341528835,29.627
1,521344,480915206,24.632
1,550144,476284240,28.966
1,550144,499538035,26.223
1,550144,413474647,29.576
1,550144,471439140,29.929
1,550144,430721392,30.059
1,550144,505282340,28.660
1,550144,479459853,30.205
1,550144,460345062,28.850
1,550144,490377722,30.138
1,550144,475764551,27.261
1,550144,466961267,29.200
1,550144,479960545,28.689
1,550144,454792750,28.029
1,550144,464316586,29.768
1,550144,489114922,27.268
1,550144,458922395,28.793
1,550144,460933405,31.009
1,550144,483262082,26.773
1,550144,489773036,27.790
1,550144,497107558,30.716
1,550144,480552939,29.244
1,550144,487640851,28.698
1,550144,473083484,28.859
1,550144,434350486,28.536
1,550144,480404736,30.112
1,550144,489655144,27.552
1,550144,481736958,29.315
1,550144,478240843,26.961
1,550144,466141470,28.432
1,550144,469675369,30.002
1,578944,483203066,26.170
1,578944,502221128,29.958
1,578944,404663610,29.944
1,578944,482331866,29.753
1,578944,463528428,27.026
1,578944,488523785,29.611
1,578944,481846748,30.211
1,578944,480528005,29.074
1,578944,445222678,30.813
1,578944,472843578,27.829
1,578944,448548869,30.584
1,578944,502234187,31.055
1,578944,483181415,26.972
1,578944,425888934,30.511
1,578944,476497185,27.612
1,578944,447007472,29.431
1,578944,483278914,30.685
1,578944,483618482,29.208
1,578944,459338160,30.154
1,578944,500282403,28.624
1,578944,479945739,26.181
1,578944,454525816,27.616
1,578944,482945771,30.815
1,578944,431976999,27.174
1,578944,463598897,29.913
1,578944,503469191,28.648
1,578944,463902008,30.152
1,578944,497506422,29.324
1,578944,460656904,27.273
1,578944,451313327,30.389
1,607744,484910895,28.017
1,607744,484022793,29.323
1,607744,470187026,30.137
1,607744,504074785,30.719
1,607744,470976163,27.000
1,607744,474540093,29.671
1,607744,494652427,30.112
1,607744,482666196,28.769
1,607744,477637694,27.517
1,607744,488022534,29.318
1,607744,457641855,29.721
1,607744,491958369,30.225
1,607744,484739225,26.868
1,607744,466218294,30.239
1,607744,479080545,28.717
1,607744,455574623,29.209
1,607744,458869805,30.104
1,607744,459834382,29.839
1,607744,479190825,29.773
1,607744,481215943,25.834
1,607744,475881465,27.832
1,607744,449458412,28.986
1,607744,496316676,28.848
1,607744,452543162,28.086
1,607744,481596018,29.507
1,607744,491529055,28.509
1,607744,447697854,28.294
1,607744,487914979,28.682
1,607744,438454988,29.631
1,607744,394059608,31.473
1,636544,481697428,30.772
1,636544,461803069,28.062
1,636544,488264046,28.761
1,636544,490957544,30.319
1,636544,467045425,28.061
1,636544,451123219,26.957
1,636544,433745381,30.142
1,636544,457885322,29.925
1,636544,475236970,31.269
1,636544,448506405,30.412
1,636544,474313179,26.730
1,636544,464903602,28.835
1,636544,461096974,28.648
1,636544,503370576,31.413
1,636544,473161427,27.539
1,636544,457132363,30.368
1,636544,511121631,30.377
1,636544,488077429,27.589
1,636544,466309717,29.856
1,636544,477075821,28.774
1,636544,473220722,28.290
1,636544,479235383,28.316
1,636544,488186522,26.702
1,636544,437661312,29.915
1,636544,467251946,29.557
1,636544,436525343,27.498
1,636544,491341113,29.605
1,636544,508317224,30.054
1,636544,470250023,29.583
1,636544,483353784,29.107
1,665344,480841663,27.027
1,665344,471123946,28.340
1,665344,487251416,30.779
1,665344,472329966,28.102
1,665344,478795802,29.753
1,665344,456427804,29.010
1,665344,503268746,28.428
1,665344,465624434,30.295
1,665344,504547890,29.548
1,665344,460792675,29.650
1,665344,464815602,29.013
1,665344,448271111,30.340
1,665344,450934019,29.155
1,665344,500925572,30.802
1,665344,505100405,30.027
1,665344,478444501,30.462
1,665344,487711391,29.761
1,665344,500340791,29.385
1,665344,481475402,30.718
1,665344,467047171,28.981
1,665344,452191371,28.904
1,665344,473511750,31.526
1,665344,509650634,30.080
1,665344,472813268,28.354
1,665344,493093291,26.572
1,665344,500818435,28.134
1,665344,430572422,29.279
1,665344,495447501,28.008
1,665344,499573584,27.335
1,665344,467559317,30.466
1,694144,459906599,29.731
1,694144,511783307,29.359
1,694144,473760455,27.028
1,694144,516193715,29.791
1,694144,495749564,30.440
1,694144,467155635,28.709
1,694144,459509271,28.874
1,694144,455351689,29.319
1,694144,462232244,29.469
1,694144,506847204,32.089
1,694144,469147159,28.838
1,694144,488778567,31.681
1,694144,460548579,30.312
1,694144,461805164,30.193
1,694144,464876853,28.878
1,694144,507023624,28.298
1,694144,470346614,30.214
1,694144,490096750,27.441
1,694144,470926925,29.264
1,694144,511520774,29.469
1,694144,504089452,29.972
1,694144,471824874,29.236
1,694144,497566904,31.221
1,694144,482656978,28.175
1,694144,459635125,29.954
1,694144,511213123,29.110
1,694144,500592638,30.079
1,694144,454267962,29.741
1,694144,487581557,27.566
1,694144,508085700,28.125
1,722944,465672904,30.797
1,722944,502227413,30.365
1,722944,495542555,28.586
1,722944,453118584,29.959
1,722944,494236593,29.434
1,722944,487381671,28.851
1,722944,404906658,28.756
1,722944,464068091,26.716
1,722944,459047481,29.272
1,722944,461332967,28.708
1,722944,499282276,27.341
1,722944,457766941,29.184
1,722944,450002546,29.596
1,722944,492374275,28.632
1,722944,460808180,30.279
1,722944,493924332,30.897
1,722944,436031007,29.643
1,722944,484137124,27.455
1,722944,469198283,29.317
1,722944,483455334,30.416
1,722944,474103865,28.777
1,722944,518754585,28.819
1,722944,451667562,31.563
1,722944,461371799,28.365
1,722944,450861174,28.483
1,722944,450549822,30.167
1,722944,475440417,28.658
1,722944,470025064,30.050
1,722944,500044804,27.243
1,722944,450285613,27.351
1,751744,445591440,28.516
1,751744,508907034,29.987
1,751744,474156176,27.811
1,751744,425264763,31.336
1,751744,455874452,30.715
1,751744,475772792,28.414
1,751744,483186165,30.624
1,751744,483054724,30.353
1,751744,480694647,28.345
1,751744,478496043,29.254
1,751744,464642397,26.642
1,751744,447888660,29.112
1,751744,470953185,30.101
1,751744,501344828,26.170
1,751744,495642497,30.503
1,751744,500984727,31.132
1,751744,528534600,27.971
1,751744,449854971,29.193
1,751744,475273357,28.865
1,751744,455293582,28.484
1,751744,459389633,33.200
1,751744,473461046,28.236
1,751744,461427881,28.807
1,751744,482970076,28.668
1,751744,483099562,27.358
1,751744,455338909,30.191
1,751744,509220551,30.497
1,751744,456303347,27.891
1,751744,470362048,29.700
1,751744,494481106,27.071
1,780544,473891477,28.160
1,780544,478049757,29.538
1,780544,490678458,26.573
1,780544,452351169,30.472
1,780544,469506283,29.227
1,780544,479952374,30.304
1,780544,448670952,27.613
1,780544,461159901,29.464
1,780544,465338364,28.323
1,780544,459026039,27.782
1,780544,477860768,31.242
1,780544,451960686,29.619
1,780544,512361383,29.034
1,780544,501645705,26.228
1,780544,475541268,29.936
1,780544,470990410,30.304
1,780544,463358155,28.064
1,780544,458568649,31.008
1,780544,468472842,30.283
1,780544,466789108,27.508
1,780544,476342767,30.839
1,780544,505127713,27.853
1,780544,464679692,31.251
1,780544,469626130,28.143
1,780544,453744153,27.970
1,780544,475301014,30.848
1,780544,496854453,29.672
1,780544,484422496,29.497
1,780544,476443268,30.715
1,780544,488253779,30.794
1,809344,454827112,28.630
1,809344,488048165,30.836
1,809344,475089186,28.590
1,809344,494032516,29.151
1,809344,482319504,28.895
1,809344,486385524,27.582
1,809344,484410273,31.186
1,809344,498707832,31.741
1,809344,453509626,27.616
1,809344,457476052,29.212
1,809344,491826929,29.767
1,809344,465480142,28.861
1,809344,495154935,30.174
1,809344,490604218,27.352
1,809344,478756132,29.908
1,809344,483935283,29.331
1,809344,486313587,28.147
1,809344,478333593,30.646
1,809344,485651702,28.267
1,809344,452017257,29.347
1,809344,464169920,27.261
1,809344,495274574,30.946
1,809344,469459978,30.556
1,809344,500566169,27.674
1,809344,505308811,27.469
1,809344,469905566,30.378
1,809344,514870222,29.923
1,809344,447279154,27.740
1,809344,458869526,29.742
1,809344,513654146,29.981
1,838144,485050578,27.590
1,838144,467181895,29.192
1,838144,511436126,27.601
1,838144,455313487,28.634
1,838144,410191547,29.381
1,838144,503578842,31.083
1,838144,479921015,29.190
1,838144,477278291,28.709
1,838144,499717317,27.870
1,838144,462667565,29.536
1,838144,496130199,27.394
1,838144,453692680,27.866
1,838144,483281638,29.209
1,838144,492100706,32.076
1,838144,487800229,29.386
1,838144,504369306,31.015
1,838144,489393589,27.806
1,838144,437799108,30.306
1,838144,476156850,30.672
1,838144,365841075,30.755
1,838144,453482178,30.930
1,838144,471894785,31.595
1,838144,469248988,28.170
1,838144,478753687,27.863
1,838144,511807682,29.056
1,838144,467356289,30.204
1,838144,501491286,30.250
1,838144,490180700,27.878
1,838144,473146551,29.069
1,838144,494876408,28.422
1,866944,450400711,29.579
1,866944,447088349,29.167
1,866944,498769711,27.359
1,866944,469010340,27.148
1,866944,449032241,29.168
1,866944,504314410,29.947
1,866944,456051848,28.819
1,866944,460767601,30.313
1,866944,475732005,30.484
1,866944,462253475,27.809
1,866944,508884405,30.185
1,866944,446536672,28.117
1,866944,488991093,30.633
1,866944,484954477,30.422
1,866944,468843349,28.636
1,866944,495643196,31.019
1,866944,499476714,26.671
1,866944,452306889,28.426
1,866944,483304755,28.764
1,866944,496587520,26.228
1,866944,435893908,31.034
1,866944,493629392,29.662
1,866944,466510930,28.514
1,866944,493028128,26.430
1,866944,493366510,30.425
1,866944,467314803,29.677
1,866944,476149376,28.191
1,866944,456420191,30.033
1,866944,479030330,29.879
1,866944,470236264,30.102
1,895744,501462581,30.968
1,895744,478748031,28.389
1,895744,511735955,29.346
1,895744,486949492,28.908
1,895744,436594974,27.986
1,895744,495816402,30.997
1,895744,461181202,27.524
1,895744,468086828,30.675
1,895744,469368836,29.938
1,895744,456408668,28.482
1,895744,462030053,30.759
1,895744,458011735,29.709
1,895744,440412220,30.605
1,895744,484606387,30.160
1,895744,425876084,28.124
1,895744,491127678,29.740
1,895744,484707937,27.680
1,895744,462651291,28.362
1,895744,462087602,30.577
1,895744,478158151,28.325
1,895744,469048823,31.047
1,895744,474808424,31.183
1,895744,468071882,29.450
1,895744,479184749,29.301
1,895744,486392718,29.902
1,895744,471381312,29.273
1,895744,471616956,30.539
1,895744,466448702,28.636
1,895744,472059261,30.123
1,895744,505143776,29.356
1,924544,468297540,32.479
1,924544,465180244,29.628
1,924544,447509422,29.637
1,924544,478453441,27.748
1,924544,493433767,30.472
1,924544,477215852,29.399
1,924544,477684348,29.376
1,924544,494306922,28.930
1,924544,496700174,29.907
1,924544,461970687,28.017
1,924544,511674774,30.012
1,924544,494234777,29.261
1,924544,460619747,30.706
1,924544,501957617,29.143
1,924544,461153266,29.518
1,924544,467045984,30.580
1,924544,499722765,29.216
1,924544,418432889,29.497
1,924544,447379376,27.094
1,924544,475590506,26.890
1,924544,469467801,31.146
1,924544,483154178,29.172
1,924544,471559756,28.017
1,924544,481522406,28.510
1,924544,455610592,30.559
1,924544,437477979,29.775
1,924544,502697025,29.861
1,924544,493242891,26.332
1,924544,438478873,29.713
1,924544,504649019,30.031
1,953344,484430597,30.569
1,953344,475847522,28.345
1,953344,464026186,28.981
1,953344,488523715,29.536
1,953344,445075452,29.879
1,953344,451576628,30.718
1,953344,458096522,28.339
1,953344,516066254,26.833
1,953344,502576410,28.596
1,953344,426926637,29.081
1,953344,489070293,31.027
1,953344,472091528,27.217
1,953344,470932023,30.694
1,953344,512684678,29.965
1,953344,453832433,28.323
1,953344,491769379,29.825
1,953344,477009262,28.499
1,953344,458748491,28.415
1,953344,470229769,31.300
1,953344,496006091,27.371
1,953344,461013233,29.417
1,953344,481977213,27.535
1,953344,467766956,28.504
1,953344,476476303,29.937
1,953344,501306206,27.715
1,953344,464068720,28.682
1,953344,495338409,29.261
1,953344,478360551,28.960
1,953344,476789961,28.581
1,953344,475020741,27.612
1,982144,485483385,29.979
1,982144,481133600,28.058
1,982144,423606591,29.194
1,982144,498206929,29.988
1,982144,444561281,28.980
1,982144,493582739,29.280
1,982144,486269797,29.035
1,982144,478152145,27.318
1,982144,499578542,28.927
1,982144,449682882,28.310
1,982144,462172669,30.150
1,982144,496125311,27.434
1,982144,451846705,29.608
1,982144,477802030,29.682
1,982144,490131951,27.778
1,982144,495844339,29.684
1,982144,468165260,29.523
1,982144,474934207,27.110
1,982144,490735170,27.359
1,982144,485009651,29.550
1,982144,448328869,29.393
1,982144,476508290,28.226
1,982144,477966017,27.959
1,982144,464739266,29.399
1,982144,481656711,30.107
1,982144,472068620,28.468
1,982144,499460860,30.774
1,982144,474356760,30.582
1,982144,473656252,26.972
1,982144,512738736,29.996
1,1010944,506440728,29.167
1,1010944,474239287,28.105
1,1010944,480106654,27.844
1,1010944,487363163,27.681
1,1010944,463499234,28.000
1,1010944,458323995,30.288
1,1010944,490204586,30.549
1,1010944,469651134,28.915
1,1010944,481516609,30.313
1,1010944,464922669,27.944
1,1010944,479681460,30.163
1,1010944,456262769,28.473
1,1010944,450829606,28.801
1,1010944,497341387,28.684
1,1010944,503300873,29.911
1,1010944,482992634,28.556
1,1010944,500598714,30.178
1,1010944,471610670,28.670
1,1010944,495261933,29.115
1,1010944,504421827,29.632
1,1010944,446107218,27.162
1,1010944,443013109,30.188
1,1010944,507798163,29.079
1,1010944,478186926,28.758
1,1010944,490228890,29.619
1,1010944,477863630,29.128
1,1010944,434627056,29.745
1,1010944,465837939,30.037
1,1010944,503577305,28.310
1,1010944,492628008,28.839
1,1039744,472376341,29.654
1,1039744,492599653,29.527
1,1039744,476551732,27.228
1,1039744,477405122,28.365
1,1039744,506411954,27.236
1,1039744,448673536,29.167
1,1039744,493295970,27.938
1,1039744,508838729,28.110
1,1039744,465753292,28.707
1,1039744,508868271,29.586
1,1039744,489003664,26.723
1,1039744,493760834,27.765
1,1039744,495006663,30.069
1,1039744,466915242,28.651
1,1039744,459208814,29.499
1,1039744,483531810,29.515
1,1039744,455299448,28.924
1,1039744,491047710,31.288
1,1039744,488935430,29.726
1,1039744,430338243,30.018
1,1039744,454254134,28.317
1,1039744,466268720,28.789
1,1039744,486981550,30.430
1,1039744,491675164,30.012
1,1039744,492773208,28.051
1,1039744,511168285,29.151
1,1039744,489341766,29.854
1,1039744,463373450,27.235
1,1039744,470864207,29.830
1,1039744,486671734,26.154
1,1068544,437579947,28.729
1,1068544,440817858,29.104
1,1068544,478902240,27.701
1,1068544,438233452,28.783
1,1068544,482081625,31.081
1,1068544,474510341,27.848
1,1068544,452103093,28.683
1,1068544,513517466,27.031
1,1068544,439504004,28.333
1,1068544,488636369,29.858
1,1068544,499923000,26.274
1,1068544,425126478,26.623
1,1068544,508214068,28.716
1,1068544,442016055,27.985
1,1068544,453817346,30.284
1,1068544,477341078,29.927
1,1068544,468717495,28.973
1,1068544,471277388,28.507
1,1068544,477692100,25.972
1,1068544,430740389,29.793
1,1068544,466406308,29.373
1,1068544,471475528,27.814
1,1068544,472315160,29.691
1,1068544,489178477,28.899
1,1068544,449539847,29.144
1,1068544,436250937,29.432
1,1068544,483688533,27.324
1,1068544,471334937,30.031
1,1068544,482357079,26.731
1,1068544,435180410,28.958
1,1097344,479839301,29.685
1,1097344,473333725,30.071
1,1097344,453421206,27.888
1,1097344,488684979,30.642
1,1097344,463852142,29.345
1,1097344,442659573,27.948
1,1097344,371498848,29.534
1,1097344,388629238,27.054
1,1097344,499515476,28.223
1,1097344,485262895,26.579
1,1097344,454028197,29.772
1,1097344,487852680,29.531
1,1097344,490174903,27.391
1,1097344,481158952,29.274
1,1097344,500265572,30.013
1,1097344,468893635,29.144
1,1097344,494829894,28.600
1,1097344,508371420,29.901
1,1097344,456007080,29.129
1,1097344,482000399,29.644
1,1097344,479875269,27.541
1,1097344,466634619,26.817
1,1097344,490218204,30.681
1,1097344,449764596,28.031
1,1097344,484757524,29.093
1,1097344,497596726,29.731
1,1097344,452609441,28.646
1,1097344,506013579,29.482
1,1097344,497208968,24.899
1,1097344,427893240,28.904
1,1126144,495946237,26.081
1,1126144,472155432,29.998
1,1126144,469580873,29.608
1,1126144,477880323,29.677
1,1126144,448991663,28.167
1,1126144,489106890,29.122
1,1126144,499108721,28.584
1,1126144,462093958,27.323
1,1126144,511787148,29.398
1,1126144,487300096,27.827
1,1126144,484615537,25.899
1,1126144,484037111,30.078
1,1126144,488973214,26.341
1,1126144,472724290,29.427
1,1126144,507885255,27.107
1,1126144,475492170,26.330
1,1126144,444224018,29.656
1,1126144,473700112,30.362
1,1126144,483403301,27.851
1,1126144,484733080,29.136
1,1126144,507139071,29.968
1,1126144,472703826,26.928
1,1126144,492753024,28.998
1,1126144,466940384,26.971
1,1126144,438303083,27.996
1,1126144,485080191,29.924
1,1126144,452434210,28.227
1,1126144,487134572,27.418
1,1126144,459640783,30.810
1,1126144,457550572,29.490
1,1154944,485888394,30.267
1,1154944,480245568,29.766
1,1154944,454726331,27.711
1,1154944,491298300,26.710
1,1154944,481549225,28.827
1,1154944,485018730,28.614
1,1154944,480537294,28.911
1,1154944,456791258,26.515
1,1154944,465929781,31.067
1,1154944,465537273,28.822
1,1154944,481668863,26.623
1,1154944,489567772,28.741
1,1154944,478874932,29.513
1,1154944,451501828,27.599
1,1154944,495707869,27.692
1,1154944,500771013,28.664
1,1154944,445474316,29.054
1,1154944,486806249,30.041
1,1154944,471290099,26.601
1,1154944,465883127,30.643
1,1154944,463496650,28.342
1,1154944,432986765,26.492
1,1154944,511967968,28.466
1,1154944,492332579,27.787
1,1154944,471590137,29.534
1,1154944,470571362,30.814
1,1154944,484733499,26.668
1,1154944,455661785,28.031
1,1154944,448616685,27.181
1,1154944,447807504,28.518
1,1183744,446019218,27.025
1,1183744,477999333,28.982
1,1183744,438091394,28.244
1,1183744,499912035,30.468
1,1183744,502696468,28.179
1,1183744,457015519,28.573
1,1183744,484504559,29.464
1,1183744,471795959,26.859
1,1183744,481395784,29.776
1,1183744,477291421,28.395
1,1183744,465190231,27.349
1,1183744,463936300,28.917
1,1183744,506639637,30.022
1,1183744,480015301,27.326
1,1183744,477588875,26.841
1,1183744,491306472,29.443
1,1183744,491284750,29.933
1,1183744,476094481,29.153
1,1183744,481283898,27.343
1,1183744,472214170,28.701
1,1183744,468338118,30.021
1,1183744,485082355,27.013
1,1183744,488312166,29.258
1,1183744,468283292,27.448
1,1183744,456963696,28.529
1,1183744,476689319,29.644
1,1183744,494826682,26.438
1,1183744,435970873,27.422
1,1183744,489608141,27.001
1,1183744,447496292,29.260
1,1212544,469328188,28.816
1,1212544,479165193,30.257
1,1212544,440678246,27.857
1,1212544,479474520,29.710
1,1212544,499326695,30.180
1,1212544,462792580,29.310
1,1212544,490418160,27.940
1,1212544,474087382,26.721
1,1212544,440984848,29.648
1,1212544,471178213,32.066
1,1212544,455324521,29.067
1,1212544,517223873,29.753
1,1212544,478659612,26.288
1,1212544,479839719,28.286
1,1212544,458538547,29.602
1,1212544,487577575,27.430
1,1212544,467231203,29.680
1,1212544,473444074,29.582
1,1212544,445237205,27.822
1,1212544,471595864,27.481
1,1212544,455675125,29.718
1,1212544,444729459,29.170
1,1212544,472817458,29.213
1,1212544,468468162,28.525
1,1212544,470732765,26.236
1,1212544,489173309,29.887
1,1212544,464702948,28.119
1,1212544,435929388,29.371
1,1212544,466716682,26.998
1,1212544,456092775,29.035
1,1241344,485503988,30.371
1,1241344,494834155,28.954
1,1241344,447829364,28.763
1,1241344,463344745,28.132
1,1241344,485241943,26.823
1,1241344,449176113,29.017
1,1241344,477186729,29.666
1,1241344,474947408,28.620
1,1241344,507630893,29.507
1,1241344,466933540,30.024
1,1241344,463820923,28.387
1,1241344,513523891,30.785
1,1241344,476659078,26.567
1,1241344,468571388,29.078
1,1241344,505664372,29.471
1,1241344,452936508,27.685
1,1241344,492310300,29.390
1,1241344,513777136,28.816
1,1241344,465055787,28.276
1,1241344,487990896,28.010
1,1241344,503294379,29.612
1,1241344,426813494,28.621
1,1241344,499877813,27.705
1,1241344,480911435,27.046
1,1241344,469987489,27.471
1,1241344,452651905,30.911
1,1241344,466116815,29.036
1,1241344,498448022,30.031
1,1241344,476240449,27.255
1,1241344,470816645,28.858
1,1270144,474245433,30.325
1,1270144,506091382,29.556
1,1270144,488494591,28.175
1,1270144,481418063,26.339
1,1270144,467771705,29.741
1,1270144,469316524,28.187
1,1270144,471938575,29.834
1,1270144,474976671,26.777
1,1270144,468388893,26.567
1,1270144,478408392,28.987
1,1270144,485541283,27.913
1,1270144,515445085,29.252
1,1270144,453999213,28.188
1,1270144,476912671,28.530
1,1270144,490741385,28.371
1,1270144,515299396,28.799
1,1270144,460835697,29.145
1,1270144,476792754,29.653
1,1270144,496106034,26.605
1,1270144,466742245,29.384
1,1270144,509207351,30.266
1,1270144,464019552,26.566
1,1270144,473506024,30.085
1,1270144,467207038,29.776
1,1270144,441209598,28.364
1,1270144,497807857,28.681
1,1270144,472253281,27.072
1,1270144,503245699,29.303
1,1270144,468612035,26.192
1,1270144,519507823,28.813
1,1298944,477106341,30.043
1,1298944,465870346,29.560
1,1298944,479946367,28.664
1,1298944,445497015,27.232
1,1298944,463138154,29.744
1,1298944,471161731,29.663
1,1298944,452546026,28.146
1,1298944,454667175,28.462
1,1298944,490401398,25.832
1,1298944,458882585,26.345
1,1298944,514248146,28.537
1,1298944,467972848,26.402
1,1298944,473887566,30.004
1,1298944,487422108,29.152
1,1298944,452137873,25.914
1,1298944,516136933,28.956
1,1298944,473655413,28.449
1,1298944,439507287,28.540
1,1298944,479864164,28.919
1,1298944,475282576,27.317
1,1298944,450396660,29.576
1,1298944,480311777,27.335
1,1298944,479737682,29.051
1,1298944,464349691,28.595
1,1298944,460661513,29.632
1,1298944,434102619,28.782
1,1298944,505104036,29.234
1,1298944,477579027,27.289
1,1298944,474016004,27.357
1,1298944,499231292,26.884
1,1327744,493671576,26.512
1,1327744,470952277,28.893
1,1327744,464099730,29.526
1,1327744,495117990,25.727
1,1327744,470024435,29.376
1,1327744,495750751,28.477
1,1327744,471892480,26.526
1,1327744,491584021,28.855
1,1327744,474615522,29.259
1,1327744,436876645,26.324
1,1327744,477390945,26.792
1,1327744,476515485,26.036
1,1327744,454343740,28.223
1,1327744,474257865,29.802
1,1327744,486101480,27.513
1,1327744,488878928,29.440
1,1327744,442491814,28.941
1,1327744,433190003,28.635
1,1327744,501408873,29.717
1,1327744,487892140,26.278
1,1327744,454924051,29.435
1,1327744,478021123,25.915
1,1327744,459475538,27.439
1,1327744,438752093,28.962
1,1327744,497264422,29.828
1,1327744,493837310,28.944
1,1327744,501827991,28.696
1,1327744,486822312,27.267
1,1327744,476254208,27.972
1,1327744,495707800,29.960
1,1356544,474060144,24.526
1,1356544,452407880,28.183
1,1356544,453466464,30.025
1,1356544,509148125,27.745
1,1356544,451484927,29.020
1,1356544,476861199,29.179
1,1356544,486913943,26.533
1,1356544,463744447,28.136
1,1356544,469712036,29.805
1,1356544,452571517,27.961
1,1356544,489851119,25.616
1,1356544,452089962,29.362
1,1356544,477721015,29.456
1,1356544,494686649,29.302
1,1356544,501524810,24.943
1,1356544,441528144,28.904
1,1356544,459716491,27.243
1,1356544,456246775,27.392
1,1356544,467223031,29.158
1,1356544,483391219,29.049
1,1356544,477542431,28.343
1,1356544,473103668,26.586
1,1356544,487107195,26.207
1,1356544,444317256,27.839
1,1356544,492132485,29.212
1,1356544,445676787,27.236
1,1356544,504097972,29.456
1,1356544,479462787,27.806
1,1356544,454840032,26.580
1,1356544,500975857,29.501
1,1385344,503588969,26.449
1,1385344,503135699,28.024
1,1385344,479363961,27.130
1,1385344,463539323,28.403
1,1385344,421319848,28.394
1,1385344,469410182,28.933
1,1385344,491563627,25.596
1,1385344,447822101,26.187
1,1385344,493958275,28.546
1,1385344,470740448,26.985
1,1385344,496888256,28.750
1,1385344,463065101,28.580
1,1385344,467295877,29.042
1,1385344,459801907,29.625
1,1385344,489949804,25.139
1,1385344,451081384,28.044
1,1385344,480321415,28.351
1,1385344,486422540,27.755
1,1385344,473435204,29.032
1,1385344,494098935,28.475
1,1385344,435207159,28.525
1,1385344,480263517,24.816
1,1385344,494125196,26.446
1,1385344,472732113,27.617
1,1385344,489059677,27.983
1,1385344,445529980,25.340
1,1385344,484520134,28.453
1,1385344,448174869,29.460
1,1385344,454781086,26.808
1,1385344,508149465,28.364
1,1414144,478873815,26.552
1,1414144,442716215,27.138
1,1414144,476547542,26.102
1,1414144,479088367,27.671
1,1414144,478900005,28.937
1,1414144,451257734,29.117
1,1414144,480513129,26.471
1,1414144,466716333,26.350
1,1414144,488577004,24.590
1,1414144,433570987,27.197
1,1414144,512067212,28.717
1,1414144,480536247,28.978
1,1414144,454450527,27.476
1,1414144,483260057,28.503
1,1414144,462213805,27.028
1,1414144,485864368,25.737
1,1414144,471112911,27.439
1,1414144,492597208,26.588
1,1414144,471671712,27.083
1,1414144,504379782,28.369
1,1414144,436431965,27.677
1,1414144,472397852,25.884
1,1414144,481286412,28.919
1,1414144,497998384,27.751
1,1414144,496465019,29.435
1,1414144,497491196,28.635
1,1414144,448981816,28.142
1,1414144,462243208,29.430
1,1414144,493621570,25.850
1,1414144,431024853,29.143
1,1442944,500518676,29.898
1,1442944,491566910,28.824
1,1442944,475255407,25.889
1,1442944,508123275,28.866
1,1442944,467931921,25.530
1,1442944,482368324,28.292
1,1442944,489105703,28.657
1,1442944,485984147,26.289
1,1442944,473110303,27.546
1,1442944,474791033,31.205
1,1442944,432047260,27.349
1,1442944,482206013,26.641
1,1442944,503760429,29.359
1,1442944,418703384,28.726
1,1442944,499065140,27.927
1,1442944,497437140,25.952
1,1442944,491421011,26.187
1,1442944,500969153,29.742
1,1442944,450391911,28.258
1,1442944,470685274,29.194
1,1442944,489793220,29.410
1,1442944,452350051,29.162
1,1442944,477907002,25.721
1,1442944,502473953,28.858
1,1442944,460868522,29.114
1,1442944,488220744,27.817
1,1442944,482147904,26.516
1,1442944,480110285,27.919
1,1442944,502586397,28.905
1,1442944,474192354,25.866
1,1471744,461132103,28.372
1,1471744,463860174,29.836
1,1471744,443125834,27.264
1,1471744,492493424,28.794
1,1471744,484159613,26.619
1,1471744,487459404,27.464
1,1471744,495485844,27.711
1,1471744,468177762,29.463
1,1471744,445696412,25.704
1,1471744,483498985,27.184
1,1471744,470549083,25.984
1,1471744,474703941,25.841
1,1471744,486078572,28.661
1,1471744,450873816,27.398
1,1471744,492947392,27.622
1,1471744,480024311,29.361
1,1471744,484098781,27.635
1,1471744,477162844,28.994
1,1471744,495281977,25.610
1,1471744,445219465,27.666
1,1471744,443841637,28.558
1,1471744,452731524,28.926
1,1471744,499703978,28.545
1,1471744,503459973,25.811
1,1471744,447288793,29.345
1,1471744,455703900,26.967
1,1471744,436141845,27.977
1,1471744,478383739,29.425
1,1471744,511489135,28.041
1,1471744,477022671,26.854
1,1500544,454274457,28.649
1,1500544,505074283,29.506
1,1500544,479824006,26.096
1,1500544,489044522,29.143
1,1500544,470542797,26.573
1,1500544,466692448,28.081
1,1500544,454791773,29.184
1,1500544,487056280,25.696
1,1500544,475563338,29.610
1,1500544,492270001,25.898
1,1500544,462155278,26.341
1,1500544,485247880,26.613
1,1500544,515212863,29.561
1,1500544,430746396,27.799
1,1500544,490073144,28.566
1,1500544,496605190,28.018
1,1500544,438878156,28.681
1,1500544,434550860,29.296
1,1500544,467271641,28.678
1,1500544,496955304,28.954
1,1500544,487900242,28.017
1,1500544,465063959,28.311
1,1500544,468244042,28.221
1,1500544,501634321,24.611
1,1500544,448767124,27.555
1,1500544,455865791,28.250
1,1500544,467104930,26.348
1,1500544,458789138,30.425
1,1500544,490800820,29.263
1,1500544,447571301,28.149
1,1529344,472840436,28.311
1,1529344,460386757,29.779
1,1529344,444289669,26.448
1,1529344,495879818,28.321
1,1529344,468320588,27.791
1,1529344,459614872,29.636
1,1529344,498224600,28.979
1,1529344,463084237,26.309
1,1529344,461050319,26.425
1,1529344,480599872,27.116
1,1529344,453787105,26.920
1,1529344,465721933,28.051
1,1529344,491653792,28.248
1,1529344,447063415,26.240
1,1529344,448847091,29.120
1,1529344,468394619,25.539
1,1529344,472121351,26.927
1,1529344,499667032,28.765
1,1529344,413579757,27.577
1,1529344,487560954,30.949
1,1529344,498614104,28.848
1,1529344,448726964,27.545
1,1529344,469012715,28.295
1,1529344,440988550,27.070
1,1529344,496004974,28.019
1,1529344,478326259,27.693
1,1529344,457050300,27.193
1,1529344,490390014,27.471
1,1529344,478292735,25.511
1,1529344,416597251,28.860
1,1558144,463964657,25.830
1,1558144,505041248,28.403
1,1558144,465218796,27.994
1,1558144,496907463,29.066
1,1558144,465152936,26.869
1,1558144,468641019,28.206
1,1558144,500420270,27.858
1,1558144,507853408,26.434
1,1558144,458810789,28.995
1,1558144,480329656,27.347
1,1558144,469358010,27.655
1,1558144,492601120,28.825
1,1558144,495918440,29.441
1,1558144,473105413,28.035
1,1558144,471027286,28.463
1,1558144,475371764,26.113
1,1558144,447458298,27.166
1,1558144,490687049,27.351
1,1558144,425978261,28.952
1,1558144,500868791,28.576
1,1558144,467704448,28.234
1,1558144,480217003,27.074
1,1558144,488789042,28.424
1,1558144,475129834,27.210
1,1558144,456573143,29.274
1,1558144,473136843,28.661
1,1558144,455726249,26.984
1,1558144,498900593,26.451
1,1558144,455098724,25.427
1,1558144,472514138,27.688
1,1586944,480391326,27.109
1,1586944,466845400,28.632
1,1586944,480440146,27.102
1,1586944,473436322,29.623
1,1586944,474189699,30.018
1,1586944,448991523,27.970
1,1586944,495989399,29.918
1,1586944,496875126,25.958
1,1586944,454931664,26.435
1,1586944,481491117,28.143
1,1586944,463933158,26.343
1,1586944,482486425,28.332
1,1586944,471009617,29.612
1,1586944,471835908,27.002
1,1586944,511289180,29.294
1,1586944,478170583,28.836
1,1586944,462390084,27.941
1,1586944,506798944,27.602
1,1586944,448871815,26.745
1,1586944,451786781,28.737
1,1586944,487714185,28.554
1,1586944,485735022,25.921
1,1586944,482402546,29.481
1,1586944,506189300,25.948
1,1586944,444941009,27.027
1,1586944,486697505,28.293
1,1586944,508962277,30.033
1,1586944,476441871,27.013
1,1586944,500133921,29.200
1,1586944,481728926,28.881
1,1615744,509972671,27.651
1,1615744,460870338,28.906
1,1615744,484514546,29.187
1,1615744,488004795,28.190
1,1615744,473731750,26.588
1,1615744,511568545,28.355
1,1615744,480316806,27.331
1,1615744,463896631,26.395
1,1615744,472821160,29.189
1,1615744,460189945,26.951
1,1615744,479681669,28.575
1,1615744,507093325,28.167
1,1615744,463953481,28.369
1,1615744,485937143,26.736
1,1615744,496710022,26.047
1,1615744,464556631,28.696
1,1615744,481401790,29.322
1,1615744,460741481,26.618
1,1615744,490197322,28.162
1,1615744,480899632,29.701
1,1615744,469143807,26.887
1,1615744,479260038,28.604
1,1615744,477873478,27.893
1,1615744,440773160,29.343
1,1615744,493640497,28.832
1,1615744,486932032,25.791
1,1615744,473953706,29.538
1,1615744,495631044,25.997
1,1615744,471901908,27.132
1,1615744,472861808,26.926
1,1644544,451910610,28.533
1,1644544,478714437,25.899
1,1644544,457910534,28.808
1,1644544,475937129,26.027
1,1644544,442205675,27.098
1,1644544,499822498,25.741
1,1644544,501393648,25.954
1,1644544,480272457,27.335
1,1644544,460703278,26.966
1,1644544,487407372,27.135
1,1644544,444273744,28.802
1,1644544,458949843,30.311
1,1644544,460015202,27.394
1,1644544,498116136,25.273
1,1644544,468914518,29.263
1,1644544,471755103,27.851
1,1644544,485554692,28.091
1,1644544,490430871,28.755
1,1644544,474417383,26.316
1,1644544,472716328,28.800
1,1644544,493027291,25.846
1,1644544,471963369,27.086
1,1644544,487581417,26.534
1,1644544,446617478,26.674
1,1644544,466977679,27.641
1,1644544,480954666,28.768
1,1644544,442832011,27.566
1,1644544,508728100,25.163
1,1644544,461738745,25.204
1,1644544,446408863,29.305
1,1673344,508993217,28.602
1,1673344,477165358,27.943
1,1673344,480126838,27.899
1,1673344,480874767,27.710
1,1673344,483143701,26.126
1,1673344,484445823,29.514
1,1673344,489167722,28.763
1,1673344,454866502,26.795
1,1673344,479349643,26.842
1,1673344,484489962,28.474
1,1673344,462150878,27.630
1,1673344,496349850,27.823
1,1673344,491985608,29.638
1,1673344,462126504,28.593
1,1673344,467207876,29.125
1,1673344,499273546,24.818
1,1673344,455149778,28.697
1,1673344,459416243,29.769
1,1673344,436081502,26.988
1,1673344,497186968,24.936
1,1673344,496805774,26.754
1,1673344,445893644,27.142
1,1673344,477913288,25.581
1,1673344,481453124,25.739
1,1673344,460362662,28.525
1,1673344,470593502,28.677
1,1673344,487442084,26.370
1,1673344,462489539,28.609
1,1673344,459718236,29.144
1,1673344,480648412,28.045
1,1702144,425023043,28.123
1,1702144,510355263,25.666
1,1702144,477460646,25.987
1,1702144,480490501,28.814
1,1702144,481785219,28.430
1,1702144,466622256,27.719
1,1702144,481416806,28.045
1,1702144,512742507,28.685
1,1702144,457161207,26.387
1,1702144,470424836,26.558
1,1702144,479936310,27.171
1,1702144,459602859,28.044
1,1702144,483457429,28.641
1,1702144,479267371,26.286
1,1702144,464560612,30.140
1,1702144,484411251,29.377
1,1702144,447018716,27.366
1,1702144,444845116,27.305
1,1702144,489101233,29.038
1,1702144,440979610,27.119
1,1702144,501385058,28.737
1,1702144,469104695,27.506
1,1702144,391578147,30.299
1,1702144,495110307,28.554
1,1702144,487048737,27.300
1,1702144,498681292,27.714
1,1702144,460221373,27.973
1,1702144,434041298,27.325
1,1702144,499611159,29.703
1,1702144,462692358,25.002
1,1730944,476605719,27.578
1,1730944,498182555,28.810
1,1730944,471219071,24.253
1,1730944,415912317,28.299
1,1730944,501568390,29.520
1,1730944,437786956,25.807
1,1730944,473394068,25.813
1,1730944,475381261,28.279
1,1730944,478201733,25.699
1,1730944,511669955,27.806
1,1730944,467094873,27.030
1,1730944,466963013,27.606
1,1730944,485176152,28.478
1,1730944,499569464,24.524
1,1730944,481801213,26.882
1,1730944,500335204,27.986
1,1730944,491090383,27.899
1,1730944,464557958,28.186
1,1730944,460868452,25.542
1,1730944,453313652,27.738
1,1730944,483706413,27.777
1,1730944,512566437,27.286
1,1730944,478074411,25.731
1,1730944,490450636,26.935
1,1730944,505018061,23.743
1,1730944,472025877,28.973
1,1730944,461028669,26.087
1,1730944,439981439,27.273
1,1730944,477922298,28.217
1,1730944,490873176,29.280
1,1759744,471021559,27.438
1,1759744,471800360,28.466
1,1759744,482351701,29.004
1,1759744,480223497,25.682
1,1759744,504030157,29.181
1,1759744,473289515,26.571
1,1759744,464390828,26.576
1,1759744,461230999,28.224
1,1759744,489866204,27.846
1,1759744,478712621,28.240
1,1759744,476168164,24.372
1,1759744,506138525,25.128
1,1759744,444187212,26.552
1,1759744,502731946,28.552
1,1759744,419787949,28.476
1,1759744,488167734,27.668
1,1759744,494025881,26.426
1,1759744,481234590,24.724
1,1759744,491739906,28.646
1,1759744,488221792,26.506
1,1759744,500888416,27.839
1,1759744,469814073,28.280
1,1759744,463446714,27.240
1,1759744,479087879,28.888
1,1759744,502115598,27.872
1,1759744,468262060,28.458
1,1759744,494949044,25.695
1,1759744,501473127,25.706
1,1759744,457636547,27.828
1,1759744,491089684,29.460
1,1788544,423888750,28.351
1,1788544,459431399,28.230
1,1788544,510987047,27.892
1,1788544,467557362,27.971
1,1788544,465139875,27.800
1,1788544,478913554,26.051
1,1788544,490966972,27.031
1,1788544,418505314,27.037
1,1788544,457571455,27.743
1,1788544,461082725,26.026
1,1788544,494589849,28.923
1,1788544,511792246,28.163
1,1788544,475333770,26.550
1,1788544,487001035,27.176
1,1788544,476209090,27.641
1,1788544,468214359,27.364
1,1788544,490007773,28.521
1,1788544,492779005,24.722
1,1788544,473334353,28.271
1,1788544,506913763,27.844
1,1788544,479684113,25.351
1,1788544,466743152,26.717
1,1788544,480044495,29.045
1,1788544,434147107,26.932
1,1788544,470521426,27.906
1,1788544,494792738,28.340
1,1788544,436516753,27.698
1,1788544,478417891,28.632
1,1788544,462408662,25.221
1,1788544,453624584,27.703
1,1817344,470765661,28.860
1,1817344,442909674,28.427
1,1817344,488976566,28.111
1,1817344,489331640,28.745
1,1817344,440239293,27.674
1,1817344,503979312,28.512
1,1817344,513594571,27.725
1,1817344,441607274,27.575
1,1817344,513155339,26.686
1,1817344,456719182,27.605
1,1817344,433955114,28.251
1,1817344,479473192,27.924
1,1817344,474740049,25.499
1,1817344,487307499,27.602
1,1817344,446350056,26.930
1,1817344,477758799,26.611
1,1817344,473864868,28.742
1,1817344,496981146,27.087
1,1817344,444540748,27.047
1,1817344,462373043,26.492
1,1817344,450323746,26.186
1,1817344,443366088,27.196
1,1817344,503077801,25.950
1,1817344,448193517,27.923
1,1817344,493166275,26.658
1,1817344,490339449,25.674
1,1817344,458914224,25.502
1,1817344,458471290,27.218
1,1817344,438100124,27.774
1,1817344,479363612,25.476
1,1846144,460223050,27.503
1,1846144,501878765,27.206
1,1846144,487679823,28.813
1,1846144,496662948,28.564
1,1846144,473718271,26.577
1,1846144,494947437,25.036
1,1846144,480323929,28.487
1,1846144,413326374,28.313
1,1846144,503747927,28.859
1,1846144,452523607,24.815
1,1846144,452290965,27.635
1,1846144,479073282,28.428
1,1846144,437354220,25.182
1,1846144,509844374,28.013
1,1846144,444699218,27.071
1,1846144,468173292,27.453
1,1846144,491200592,28.691
1,1846144,484936667,26.138
1,1846144,462310186,27.457
1,1846144,490251239,24.753
1,1846144,448150983,26.202
1,1846144,498122212,27.130
1,1846144,472651236,28.062
1,1846144,443825783,26.525
1,1846144,489103887,28.739
1,1846144,484480324,25.757
1,1846144,477754189,24.558
1,1846144,502716023,30.024
1,1846144,461957417,26.748
1,1846144,492374834,28.671
1,1874944,452937346,27.541
1,1874944,496855571,25.546
1,1874944,457165887,28.861
1,1874944,484793632,28.164
1,1874944,457533112,26.290
1,1874944,472247134,28.222
1,1874944,502652747,25.526
1,1874944,460735545,27.626
1,1874944,458363246,28.008
1,1874944,478654723,26.600
1,1874944,462801101,26.486
1,1874944,471053686,28.549
1,1874944,484244889,26.022
1,1874944,453999562,28.432
1,1874944,481997467,25.997
1,1874944,462260878,26.801
1,1874944,481277752,26.523
1,1874944,444194894,25.838
1,1874944,458505233,27.113
1,1874944,512657930,24.579
1,1874944,494204046,24.279
1,1874944,448680031,25.984
1,1874944,507714284,28.473
1,1874944,451053028,25.476
1,1874944,496500638,27.049
1,1874944,514178444,27.505
1,1874944,453850452,25.789
1,1874944,473767998,27.601
1,1874944,483696634,27.008
1,1874944,443771795,28.804
1,1903744,483406515,26.040
1,1903744,498351501,28.211
1,1903744,444826399,26.125
1,1903744,495327234,29.005
1,1903744,488731702,27.981
1,1903744,468443438,25.232
1,1903744,467192302,27.583
1,1903744,479053027,25.241
1,1903744,480640869,27.511
1,1903744,464661952,28.615
1,1903744,461432072,27.749
1,1903744,485846908,28.145
1,1903744,482500883,29.331
1,1903744,453566058,27.732
1,1903744,486782781,25.501
1,1903744,489363068,25.219
1,1903744,434841609,27.595
1,1903744,490465024,29.036
1,1903744,469251363,26.244
1,1903744,484944978,28.323
1,1903744,488609900,28.007
1,1903744,457504477,27.386
1,1903744,513637454,27.776
1,1903744,467708358,28.344
1,1903744,452724540,26.988
1,1903744,476382088,28.546
1,1903744,484909219,24.815
1,1903744,453250026,29.447
1,1903744,497988606,25.056
1,1903744,450943588,27.197
1,1932544,442620182,28.281
1,1932544,492005023,29.114
1,1932544,464112371,27.846
1,1932544,473462233,28.113
1,1932544,491869183,28.065
1,1932544,491911017,26.549
1,1932544,479234126,25.892
1,1932544,501016086,28.047
1,1932544,442892354,28.027
1,1932544,491455722,26.306
1,1932544,506308659,27.420
1,1932544,473251661,28.231
1,1932544,484183429,28.806
1,1932544,494224510,25.255
1,1932544,457580604,28.783
1,1932544,500900219,28.151
1,1932544,517331150,25.458
1,1932544,473864239,28.441
1,1932544,458585481,29.131
1,1932544,492653920,26.103
1,1932544,480891320,26.479
1,1932544,463275393,26.513
1,1932544,445098849,27.776
1,1932544,504360645,24.866
1,1932544,506228550,28.401
1,1932544,438117306,27.351
1,1932544,494495634,25.551
1,1932544,476879637,25.608
1,1932544,493838777,26.439
1,1932544,506425992,29.488
1,1961344,470036448,28.211
1,1961344,467742511,27.838
1,1961344,467580758,27.294
1,1961344,496265971,25.375
1,1961344,464195552,28.331
1,1961344,475024653,27.920
1,1961344,443584551,25.148
1,1961344,493374053,25.815
1,1961344,486355912,28.228
1,1961344,469763229,27.700
1,1961344,508631021,27.181
1,1961344,524163303,24.855
1,1961344,456813538,26.803
1,1961344,465840314,26.569
1,1961344,506367535,24.045
1,1961344,438129737,29.169
1,1961344,495683495,24.724
1,1961344,440177204,26.704
1,1961344,513412075,27.887
1,1961344,499396816,28.074
1,1961344,453371899,26.491
1,1961344,495158567,28.527
1,1961344,468402023,27.452
1,1961344,463875609,28.088
1,1961344,478159478,28.329
1,1961344,486937201,24.682
1,1961344,439232112,27.394
1,1961344,476391586,25.171
1,1961344,475397675,26.495
1,1961344,476293110,26.495
1,1990144,466817603,24.906
1,1990144,463175171,25.801
1,1990144,465292688,28.140
1,1990144,476648322,26.766
1,1990144,467779247,26.734
1,1990144,476710202,29.997
1,1990144,506761649,25.803
1,1990144,451814788,27.583
1,1990144,478716323,26.889
1,1990144,520464369,24.463
1,1990144,444551084,25.520
1,1990144,470001597,29.314
1,1990144,497049380,25.154
1,1990144,467230994,25.670
1,1990144,475473313,29.245
1,1990144,471903795,27.210
1,1990144,471603826,27.605
1,1990144,472478728,28.953
1,1990144,476284868,26.853
1,1990144,476976437,28.018
1,1990144,521834795,25.153
1,1990144,469499788,27.304
1,1990144,455494655,26.884
1,1990144,471643287,28.431
1,1990144,466483831,28.038
1,1990144,496223507,27.989
1,1990144,466811038,27.381
1,1990144,487451302,25.240
1,1990144,474724614,27.532
1,1990144,456976547,27.999
1,2018944,477760196,27.951
1,2018944,453797163,28.864
1,2018944,444438360,27.690
1,2018944,477948628,29.533
1,2018944,495396237,26.127
1,2018944,474625230,28.753
1,2018944,498563959,27.679
1,2018944,473056944,26.041
1,2018944,491699678,25.674
1,2018944,522527829,25.669
1,2018944,466796301,26.104
1,2018944,472644182,28.969
1,2018944,496406492,28.099
1,2018944,490396789,27.302
1,2018944,481492374,24.148
1,2018944,473141522,29.437
1,2018944,469119223,26.824
1,2018944,495178611,28.036
1,2018944,495448060,27.551
1,2018944,488336401,27.444
1,2018944,464301850,27.596
1,2018944,453115861,28.544
1,2018944,445613371,28.398
1,2018944,460043766,29.043
1,2018944,453263156,25.447
1,2018944,476200919,29.499
1,2018944,487207276,27.035
1,2018944,475077871,26.812
1,2018944,458178516,27.473
1,2018944,490442604,24.866
1,2047744,460333818,26.569
1,2047744,480523466,26.607
1,2047744,511524057,26.822
1,2047744,489939538,26.082
1,2047744,472965941,28.438
1,2047744,439041166,27.620
1,2047744,449334095,27.019
1,2047744,489519932,24.592
1,2047744,463135082,26.385
1,2047744,487848071,25.033
1,2047744,485501752,24.826
1,2047744,476512970,25.812
1,2047744,455554160,26.446
1,2047744,478373193,24.716
1,2047744,451205352,28.813
1,2047744,486883074,28.165
1,2047744,490766109,28.079
1,2047744,472322213,27.530
1,2047744,502987915,28.524
1,2047744,463195843,26.988
1,2047744,503488537,27.815
1,2047744,484876883,28.237
1,2047744,438636435,28.181
1,2047744,485075371,27.963
1,2047744,496300332,24.419
1,2047744,428682586,27.637
1,2047744,495251316,25.611
1,2047744,497433228,27.294
1,2047744,442168099,28.456
1,2047744,509976653,27.913
1,2076544,483910070,26.309
1,2076544,468475006,28.123
1,2076544,463983514,28.607
1,2076544,506893719,24.616
1,2076544,453271118,25.555
1,2076544,495031177,25.514
1,2076544,484790699,25.428
1,2076544,453046578,27.491
1,2076544,502917445,28.218
1,2076544,426792401,27.932
1,2076544,522479430,28.404
1,2076544,464848917,28.206
1,2076544,456667779,27.617
1,2076544,453772927,28.552
1,2076544,466720454,25.831
1,2076544,476095319,28.103
1,2076544,452699607,27.943
1,2076544,457559163,27.420
1,2076544,476791777,28.691
1,2076544,496198155,27.482
1,2076544,465965679,27.520
1,2076544,485888184,25.836
1,2076544,466391990,25.768
1,2076544,486319455,28.325
1,2076544,463066986,27.880
1,2076544,455476846,25.773
1,2076544,498198130,27.333
1,2076544,479622234,26.289
1,2076544,457644998,26.745
1,2076544,505196157,28.473
1,2105344,486625289,26.104
1,2105344,453228654,26.377
1,2105344,472970201,27.998
1,2105344,497463748,27.304
1,2105344,428157449,27.554
1,2105344,475706234,29.045
1,2105344,510350374,27.674
1,2105344,458917855,26.767
1,2105344,494345056,27.859
1,2105344,457801652,25.834
1,2105344,483852940,30.106
1,2105344,485031651,28.544
1,2105344,477261599,26.415
1,2105344,501881978,28.217
1,2105344,478802577,24.583
1,2105344,446433168,25.623
1,2105344,432991304,27.055
1,2105344,479539123,26.620
1,2105344,490931493,29.107
1,2105344,469176562,28.625
1,2105344,409861477,27.017
1,2105344,425068928,25.399
1,2105344,484532705,25.792
1,2105344,468249769,26.376
1,2105344,496308644,28.351
1,2105344,450762908,26.624
1,2105344,504998367,27.688
1,2105344,470062638,28.753
1,2105344,427529786,28.904
1,2105344,501534518,27.667
1,2134144,455029372,26.413
1,2134144,447617257,26.222
1,2134144,462125177,28.553
1,2134144,457099049,28.505
1,2134144,474487293,27.690
1,2134144,493784441,24.576
1,2134144,462703812,25.932
1,2134144,468881343,27.986
1,2134144,471997242,27.652
1,2134144,461988008,27.034
1,2134144,498605933,30.454
1,2134144,482553543,28.323
1,2134144,467931851,25.167
1,2134144,496964523,25.937
1,2134144,468694029,26.063
1,2134144,467444079,28.172
1,2134144,474996855,24.733
1,2134144,440960474,25.868
1,2134144,455955189,27.954
1,2134144,484829810,24.860
1,2134144,461733577,28.985
1,2134144,484556800,27.618
1,2134144,485803048,25.345
1,2134144,461584885,27.812
1,2134144,486318337,28.237
1,2134144,468610010,26.016
1,2134144,463895933,26.667
1,2134144,493943329,28.601
1,2134144,428982694,27.434
1,2134144,489305169,28.598
1,2162944,459638548,28.518
1,2162944,443019256,27.455
1,2162944,465837171,28.539
1,2162944,479483948,28.338
1,2162944,475809878,28.742
1,2162944,485157645,28.541
1,2162944,484482000,24.458
1,2162944,441051337,28.991
1,2162944,485202273,25.078
1,2162944,461617989,27.016
1,2162944,498546638,28.156
1,2162944,484390578,29.150
1,2162944,449052285,26.424
1,2162944,486964160,28.695
1,2162944,463382390,23.313
1,2162944,437244848,28.611
1,2162944,497870714,28.203
1,2162944,466284994,25.034
1,2162944,475511865,27.977
1,2162944,456384921,26.462
1,2162944,447117612,28.532
1,2162944,493958415,27.269
1,2162944,476548030,25.245
1,2162944,428776173,28.229
1,2162944,499370835,23.837
1,2162944,479564754,26.727
1,2162944,435754994,26.683
1,2162944,484308095,24.401
1,2162944,442245764,29.161
1,2162944,497754009,28.168
1,2191744,480592958,27.957
1,2191744,461788960,27.394
1,2191744,491999926,27.809
1,2191744,486313518,24.925
1,2191744,451424444,28.240
1,2191744,463522770,26.806
1,2191744,471464074,26.887
1,2191744,468924017,28.484
1,2191744,478362437,26.370
1,2191744,357499093,26.446
1,2191744,340685292,25.665
1,2191744,395846218,24.324
1,2191744,894301503,26.078
1,2191744,825049610,26.158
1,2191744,468559934,25.449
1,2191744,509801071,27.758
1,2191744,475602170,24.452
1,2191744,476377478,26.060
1,2191744,467679654,27.826
1,2191744,465551869,28.439
1,2191744,470860226,30.201
1,2191744,485114063,26.420
1,2191744,464801075,29.733
1,2191744,501805432,24.950
1,2191744,444396526,28.021
1,2191744,475200583,27.597
1,2191744,487100420,26.998
1,2191744,424754642,27.660
1,2191744,501955521,27.208
1,2191744,485112946,25.757
1,2220544,464352206,26.843
1,2220544,462910193,26.683
1,2220544,491113849,25.242
1,2220544,467302580,27.924
1,2220544,479044717,27.440
1,2220544,481386076,25.175
1,2220544,451294260,28.425
1,2220544,485522915,26.748
1,2220544,468234752,26.235
1,2220544,500628955,24.567
1,2220544,462754656,27.419
1,2220544,448180387,27.732
1,2220544,497737038,28.322
1,2220544,482876977,25.442
1,2220544,443734430,27.614
1,2220544,470386004,28.473
1,2220544,467405457,27.349
1,2220544,476995434,28.633
1,2220544,441953897,25.085
1,2220544,440032842,26.707
1,2220544,496384631,28.651
1,2220544,424404877,27.208
1,2220544,466601723,24.831
1,2220544,489338693,25.090
1,2220544,435469273,24.923
1,2220544,443635884,28.864
1,2220544,489831913,25.337
1,2220544,454006267,28.256
1,2220544,453534350,27.911
1,2220544,487742052,26.298
1,2249344,444867465,27.921
1,2249344,486172718,25.105
1,2249344,464437203,26.335
1,2249344,499178283,24.935
1,2249344,472174709,26.492
1,2249344,458105392,27.207
1,2249344,490488770,28.503
1,2249344,509218735,24.787
1,2249344,426057252,28.191
1,2249344,429133271,27.856
1,2249344,465461774,26.242
1,2249344,489579995,28.050
1,2249344,476556831,28.934
1,2249344,451702971,27.975
1,2249344,467129654,27.053
1,2249344,467043470,25.361
1,2249344,450897143,25.562
1,2249344,459430351,28.201
1,2249344,475246398,27.615
1,2249344,502273858,28.940
1,2249344,485599810,27.264
1,2249344,464926162,26.935
1,2249344,488354770,25.975
1,2249344,487584071,25.897
1,2249344,472222550,24.150
1,2249344,490211290,27.895
1,2249344,463820644,26.424
1,2249344,483853498,26.902
1,2249344,500829261,25.366
1,2249344,447602729,26.961
1,2278144,441969331,26.293
1,2278144,487720261,25.840
1,2278144,448134850,26.380
1,2278144,499096638,28.511
1,2278144,465222219,25.483
1,2278144,458114541,27.034
1,2278144,490642700,27.964
1,2278144,469808486,25.244
1,2278144,484888966,27.906
1,2278144,481884184,28.515
1,2278144,462533399,26.784
1,2278144,473301668,26.764
1,2278144,457422065,28.691
1,2278144,452457606,27.892
1,2278144,481150012,27.470
1,2278144,480308075,27.676
1,2278144,486705816,28.824
1,2278144,491108891,24.925
1,2278144,457794529,27.186
1,2278144,434355235,25.814
1,2278144,505414131,26.267
1,2278144,462180561,26.959
1,2278144,451320939,27.914
1,2278144,481153504,26.070
1,2278144,469870924,27.825
1,2278144,480250457,25.479
1,2278144,446424367,27.558
1,2278144,511950437,27.957
1,2278144,483759562,27.166
1,2278144,487584839,26.820
1,2306944,467735038,26.524
1,2306944,495998897,27.857
1,2306944,461554224,26.680
1,2306944,483552971,27.623
1,2306944,492826078,28.794
1,2306944,401638086,26.068
1,2306944,469708613,27.376
1,2306944,442265249,26.904
1,2306944,497894599,28.645
1,2306944,504701121,27.996
1,2306944,440525572,26.552
1,2306944,480450063,24.704
1,2306944,498181787,24.803
1,2306944,469076410,28.398
1,2306944,479658691,28.221
1,2306944,470030721,26.094
1,2306944,474682499,27.578
1,2306944,483461200,28.478
1,2306944,457069086,26.887
1,2306944,481538050,28.606
1,2306944,476033928,28.539
1,2306944,439608068,28.436
1,2306944,493241145,28.378
1,2306944,475776074,25.735
1,2306944,453303385,27.920
1,2306944,469218886,27.524
1,2306944,469625223,25.513
1,2306944,484923816,27.583
1,2306944,490647449,25.265
1,2306944,483590895,27.931
1,2335744,477803637,29.386
1,2335744,502106797,28.112
1,2335744,442132620,26.913
1,2335744,448536787,27.069
1,2335744,496514256,25.378
1,2335744,438668423,26.941
1,2335744,490389036,26.041
1,2335744,419528350,26.224
1,2335744,479090812,28.146
1,2335744,460369018,28.414
1,2335744,474235655,25.267
1,2335744,490650801,28.080
1,2335744,479868005,25.185
1,2335744,453319867,28.522
1,2335744,469263585,27.833
1,2335744,452990705,26.549
1,2335744,484051708,28.700
1,2335744,492644840,25.041
1,2335744,469767140,27.670
1,2335744,488334865,27.147
1,2335744,504202315,24.239
1,2335744,465437260,27.748
1,2335744,475446912,28.480
1,2335744,469658257,25.144
1,2335744,484313892,28.238
1,2335744,477556049,26.385
1,2335744,438164587,27.149
1,2335744,474158201,27.445
1,2335744,476033789,27.149
1,2335744,438100403,27.323
1,2364544,458928611,28.593
1,2364544,500518467,28.358
1,2364544,449771790,26.931
1,2364544,464407939,28.620
1,2364544,484386876,25.021
1,2364544,440129153,26.599
1,2364544,469097082,29.177
1,2364544,479577187,25.434
1,2364544,472252302,28.321
1,2364544,484117149,27.884
1,2364544,465510733,29.096
1,2364544,495731755,27.503
1,2364544,455511207,26.572
1,2364544,447164196,27.704
1,2364544,456782668,29.437
1,2364544,462454059,25.450
1,2364544,459158808,28.618
1,2364544,500971038,27.790
1,2364544,453314419,26.357
1,2364544,466861394,26.510
1,2364544,471633089,24.747
1,2364544,453068997,28.395
1,2364544,498248975,28.966
1,2364544,474074112,27.492
1,2364544,513101352,23.584
1,2364544,500619737,27.836
1,2364544,493084910,26.507
1,2364544,480262050,27.947
1,2364544,472720029,27.317
1,2364544,474858919,27.947
1,2393344,490475011,28.557
1,2393344,488413715,28.234
1,2393344,445154582,26.169
1,2393344,454519740,28.079
1,2393344,503000137,28.285
1,2393344,450546330,26.271
1,2393344,490044998,27.268
1,2393344,496394129,25.045
1,2393344,466694403,28.670
1,2393344,497716016,28.212
1,2393344,484967118,24.974
1,2393344,461304890,27.377
1,2393344,468759959,25.859
1,2393344,485607074,25.729
1,2393344,494195666,27.228
1,2393344,457010351,27.695
1,2393344,446865974,27.457
1,2393344,512550164,27.874
1,2393344,492969253,24.462
1,2393344,473831065,26.316
1,2393344,498990689,25.331
1,2393344,437767260,26.645
1,2393344,484056876,28.433
1,2393344,491480935,27.896
1,2393344,454366089,28.116
1,2393344,489197404,25.505
1,2393344,485768267,25.034
1,2393344,476073739,27.922
1,2393344,477225770,27.067
1,2393344,440472633,27.295
1,2422144,456362153,28.143
1,2422144,494801259,27.765
1,2422144,482091472,25.051
1,2422144,455567080,28.181
1,2422144,500045642,27.840
1,2422144,463014046,26.087
1,2422144,480490082,28.105
1,2422144,496368637,26.847
1,2422144,476540138,26.511
1,2422144,502865832,29.091
1,2422144,472044455,24.256
1,2422144,466660809,28.874
1,2422144,506902728,25.393
1,2422144,453635201,27.030
1,2422144,468840695,26.546
1,2422144,512284069,25.341
1,2422144,462383101,26.936
1,2422144,480519834,29.209
1,2422144,469014670,27.613
1,2422144,476663757,25.841
1,2422144,492435944,27.836
1,2422144,480034926,25.963
1,2422144,434940155,28.832
1,2422144,467434581,24.951
1,2422144,468829451,26.482
1,2422144,493110821,25.356
1,2422144,494071208,27.751
1,2422144,471819356,27.603
1,2422144,485736908,26.107
1,2422144,508057484,28.140
1,2450944,469452086,26.482
1,2450944,477630291,29.063
1,2450944,453217689,27.225
1,2450944,439182316,27.126
1,2450944,469123762,27.252
1,2450944,485806401,25.707
1,2450944,454876699,25.086
1,2450944,483436336,26.138
1,2450944,458279017,26.345
1,2450944,459223900,25.759
1,2450944,501752003,29.647
1,2450944,455735048,26.342
1,2450944,493134357,30.863
1,2450944,411935135,27.278
1,2450944,435194239,25.455
1,2450944,457134458,27.906
1,2450944,427753487,26.682
1,2450944,497433927,28.129
1,2450944,465208739,27.621
1,2450944,464626403,26.583
1,2450944,499948283,28.596
1,2450944,468782169,26.402
1,2450944,425115163,29.444
1,2450944,452686267,30.015
1,2450944,469783832,26.029
1,2450944,474208137,28.518
1,2450944,485488413,25.525
1,2450944,464654269,29.151
1,2450944,486998661,26.683
1,2450944,486288794,28.641
1,2479744,435012860,26.944
1,2479744,487001454,27.058
1,2479744,441496716,28.541
1,2479744,491216446,28.606
1,2479744,466807057,28.752
1,2479744,496777070,26.777
1,2479744,474969966,26.064
1,2479744,483572946,25.638
1,2479744,452923238,26.552
1,2479744,480377148,27.753
1,2479744,499375445,28.562
1,2479744,465333056,27.240
1,2479744,484794121,24.973
1,2479744,444570082,27.160
1,2479744,454304978,27.739
1,2479744,481444044,29.522
1,2479744,445453923,27.632
1,2479744,489060166,28.649
1,2479744,498051533,27.332
1,2479744,487293810,26.682
1,2479744,470851705,29.133
1,2479744,487399411,27.501
1,2479744,459565913,27.233
1,2479744,472367191,26.526
1,2479744,493650065,25.235
1,2479744,451264368,29.793
1,2479744,491069430,24.973
1,2479744,475896341,26.636
1,2479744,483230724,25.821
1,2479744,498919939,27.218
1,2508544,486946629,25.099
1,2508544,471641680,28.734
1,2508544,480555523,27.079
1,2508544,465230599,26.296
1,2508544,484139010,28.763
1,2508544,500928296,27.890
1,2508544,473713452,27.868
1,2508544,512246564,25.541
1,2508544,500598994,28.038
1,2508544,474110500,26.665
1,2508544,501525228,24.343
1,2508544,461958116,27.472
1,2508544,487569613,27.421
1,2508544,490790623,28.546
1,2508544,504427762,24.450
1,2508544,464632828,28.554
1,2508544,506123020,24.697
1,2508544,523052827,23.464
1,2508544,438380887,29.005
1,2508544,497865336,28.948
1,2508544,450204597,26.102
1,2508544,489474395,28.417
1,2508544,494699501,25.848
1,2508544,477705230,25.410
1,2508544,468264435,27.706
1,2508544,460439278,24.024
1,2508544,471895204,26.154
1,2508544,479578584,26.668
1,2508544,456515664,26.401
1,2508544,458203449,28.827
1,2537344,462664910,28.127
1,2537344,464319939,27.972
1,2537344,459931532,28.104
1,2537344,497180682,27.865
1,2537344,490132858,24.641
1,2537344,462083691,25.303
1,2537344,493125069,27.784
1,2537344,459018357,25.241
1,2537344,485170705,24.410
1,2537344,485747874,24.427
1,2537344,440562239,26.150
1,2537344,471748607,24.239
1,2537344,500895819,24.042
1,2537344,446893980,25.338
1,2537344,514284394,24.684
1,2537344,482405130,25.213
1,2537344,469222658,24.778
1,2537344,479280361,24.283
1,2537344,467743279,25.217
1,2537344,468430727,25.641
1,2537344,480705752,24.946
1,2537344,446814011,25.617
1,2537344,446600996,26.292
1,2537344,509648887,24.431
1,2537344,448343955,25.936
1,2537344,474422411,25.021
1,2537344,500489971,23.591
1,2537344,469897254,25.326
1,2537344,488802312,25.223
1,2537344,469669502,24.965
1,2566144,466107666,25.513
1,2566144,459124446,25.498
1,2566144,501228543,24.213
1,2566144,452243543,26.092
1,2566144,503569972,23.948
1,2566144,371097540,29.018
1,2566144,488364966,25.656
1,2566144,499193159,24.338
1,2566144,455511765,25.582
1,2566144,492828382,25.787
1,2566144,492830618,24.916
1,2566144,470229210,25.905
1,2566144,490000649,24.979
1,2566144,475954030,25.156
1,2566144,478085237,25.519
1,2566144,493605367,24.978
1,2566144,469718600,25.105
1,2566144,462137330,25.506
1,2566144,475261833,25.321
1,2566144,463111056,25.856
1,2566144,492176554,25.079
1,2566144,407842226,27.432
1,2566144,414906603,25.512
1,2566144,478157732,25.421
1,2566144,471746931,25.457
1,2566144,468338327,24.588
1,2566144,472661014,25.553
1,2566144,456332191,26.124
1,2566144,493095246,25.065
1,2566144,478941770,24.704
1,2594944,495056669,25.584
1,2594944,475891033,25.203
1,2594944,468210657,26.092
1,2594944,431118719,24.935
1,2594944,499400587,25.072
1,2594944,492999005,27.555
1,2594944,449159841,26.555
1,2594944,474146189,25.271
1,2594944,455104940,25.147
1,2594944,508380431,25.151
1,2594944,515566609,24.559
1,2594944,469037648,25.039
1,2594944,507680271,25.307
1,2594944,464137443,24.730
1,2594944,483910768,26.178
1,2594944,504499420,24.960
1,2594944,462264510,25.338
1,2594944,490539334,25.452
1,2594944,488932217,25.200
1,2594944,497441330,23.792
1,2594944,414513675,26.606
1,2594944,466202091,24.680
1,2594944,485993645,25.410
1,2594944,460882561,25.521
1,2594944,490036268,24.660
1,2594944,467864454,25.413
1,2594944,439346791,26.005
1,2594944,501128251,25.024
1,2594944,474289572,26.996
1,2594944,472069528,26.049
1,2623744,466458409,25.361
1,2623744,487753855,25.291
1,2623744,480657632,24.867
1,2623744,484605200,25.988
1,2623744,464312466,25.077
1,2623744,478450507,25.235
1,2623744,448554875,25.390
1,2623744,466948066,27.058
1,2623744,496181812,24.958
1,2623744,475579332,26.068
1,2623744,483621137,24.611
1,2623744,494467767,24.654
1,2623744,433312155,26.709
1,2623744,499327323,25.194
1,2623744,503473661,25.119
1,2623744,478527332,26.136
1,2623744,460568066,25.057
1,2623744,481249885,26.643
1,2623744,483737492,25.308
1,2623744,460721577,24.866
1,2623744,445742157,26.514
1,2623744,468521451,24.303
1,2623744,495009247,24.283
1,2623744,474219662,26.627
1,2623744,518130414,25.003
1,2623744,477205167,24.693
1,2623744,455375715,25.635
1,2623744,380950469,26.317
1,2623744,472296023,26.073
1,2623744,487379995,24.635
1,2652544,498804841,24.995
1,2652544,462011825,25.938
1,2652544,496198294,25.443
1,2652544,488791207,25.246
1,2652544,480797663,24.707
1,2652544,484649410,25.411
1,2652544,493984186,25.116
1,2652544,452723352,25.653
1,2652544,496331692,25.863
1,2652544,494913494,24.697
1,2652544,441275388,25.736
1,2652544,516414692,24.746
1,2652544,455876268,25.689
1,2652544,496252352,27.561
1,2652544,489024128,25.197
1,2652544,467233508,26.841
1,2652544,489368096,26.000
1,2652544,502746194,24.961
1,2652544,473553935,25.712
1,2652544,489048782,26.254
1,2652544,492162655,25.264
1,2652544,464672917,26.120
1,2652544,490138027,27.586
1,2652544,478665478,25.279
1,2652544,450649207,26.199
1,2652544,473705769,25.247
1,2652544,456630204,25.215
1,2652544,504567934,24.796
1,2652544,475034430,26.485
1,2652544,437850511,27.115
1,2681344,477103129,26.167
1,2681344,513045898,24.673
1,2681344,456679302,26.764
1,2681344,475854716,26.143
1,2681344,505404354,24.681
1,2681344,473406639,25.106
1,2681344,491022706,24.278
1,2681344,496738796,25.560
1,2681344,438993604,26.613
1,2681344,482045098,25.158
1,2681344,493827182,25.348
1,2681344,475857439,24.638
1,2681344,504725985,25.480
1,2681344,477909098,26.472
1,2681344,463349425,26.646
1,2681344,494154459,26.107
1,2681344,472227927,26.198
1,2681344,483080146,24.015
1,2681344,473127414,24.728
1,2681344,473567833,25.950
1,2681344,490394065,24.999
1,2681344,503600074,25.330
1,2681344,463675933,26.009
1,2681344,458429176,26.418
1,2681344,438944086,26.597
1,2681344,498925876,24.942
1,2681344,499358333,24.489
1,2681344,479704018,26.312
1,2681344,498655381,24.662
1,2681344,491932389,25.634
1,2710144,489621481,24.553
1,2710144,482494806,24.640
1,2710144,470302892,24.923
1,2710144,459761608,26.059
1,2710144,469717483,25.228
1,2710144,492632548,24.195
1,2710144,458207989,27.437
1,2710144,502301445,25.533
1,2710144,501963133,25.182
1,2710144,485671118,27.515
1,2710144,500854962,25.457
1,2710144,453970369,26.127
1,2710144,466084200,25.029
1,2710144,480272876,26.475
1,2710144,475006563,25.721
1,2710144,471200074,24.594
1,2710144,477938430,24.767
1,2710144,438084479,26.052
1,2710144,463169373,24.990
1,2710144,476051948,26.521
1,2710144,489426623,25.270
1,2710144,501058201,25.341
1,2710144,443322716,26.593
1,2710144,489043055,24.990
1,2710144,486126762,25.176
1,2710144,468715121,26.537
1,2710144,474984214,25.152
1,2710144,497698066,25.964
1,2710144,460644472,28.173
1,2710144,459553201,25.427
1,2738944,469964232,25.954
1,2738944,478452881,25.501
1,2738944,506744328,27.577
1,2738944,506340645,24.690
1,2738944,465214885,26.722
1,2738944,508034087,25.184
1,2738944,488397931,26.182
1,2738944,464615228,25.615
1,2738944,505168988,25.544
1,2738944,466193221,25.410
1,2738944,481444952,24.884
1,2738944,467258022,25.425
1,2738944,466467000,25.498
1,2738944,463713577,25.976
1,2738944,519920445,24.552
1,2738944,454932572,27.748
1,2738944,482842127,25.966
1,2738944,465396473,27.162
1,2738944,480145345,25.481
1,2738944,486318547,24.833
1,2738944,451316749,26.648
1,2738944,466547597,25.378
1,2738944,479912913,25.189
1,2738944,462463069,25.514
1,2738944,489936604,25.897
1,2738944,507745014,24.745
1,2738944,465356453,25.462
1,2738944,451622864,25.688
1,2738944,487226622,25.344
1,2738944,473172321,25.977
1,2767744,477440322,25.214
1,2767744,492207913,25.467
1,2767744,485468020,26.133
1,2767744,495459234,24.576
1,2767744,491692345,24.570
1,2767744,435154288,26.673
1,2767744,482246171,25.885
1,2767744,464495800,25.392
1,2767744,467245870,25.193
1,2767744,500222060,24.735
1,2767744,466024625,25.399
1,2767744,477894780,25.135
1,2767744,492037290,24.606
1,2767744,465268803,25.824
1,2767744,493353519,24.798
1,2767744,512913409,24.198
1,2767744,465995780,25.063
1,2767744,459812662,25.347
1,2767744,475637719,24.685
1,2767744,469268264,25.316
1,2767744,501453991,25.055
1,2767744,447836069,26.488
1,2767744,508544836,26.163
1,2767744,496061684,25.327
1,2767744,421403937,26.843
1,2767744,477448913,25.698
1,2767744,471460722,26.053
1,2767744,456669106,26.446
1,2767744,453106013,25.444
1,2767744,514491962,25.796
1,2796544,492426656,26.306
1,2796544,456252991,25.904
1,2796544,492989507,24.423
1,2796544,496208212,26.028
1,2796544,460520712,24.855
1,2796544,466699292,24.782
1,2796544,492910027,27.468
1,2796544,509620463,25.078
1,2796544,462905654,25.455
1,2796544,484680908,25.741
1,2796544,495031177,25.675
1,2796544,462650662,25.632
1,2796544,492882301,26.117
1,2796544,502001686,25.490
1,2796544,438564639,27.034
1,2796544,513537161,26.313
1,2796544,486035131,24.455
1,2796544,492681437,25.670
1,2796544,484515943,25.669
1,2796544,471075687,25.265
1,2796544,470136460,24.865
1,2796544,471049287,25.661
1,2796544,480727333,26.355
1,2796544,457668884,25.792
1,2796544,500689089,24.191
1,2796544,472327381,24.895
1,2796544,442309599,26.271
1,2796544,506244684,23.538
1,2796544,453527854,25.212
1,2796544,468274702,25.776
1,2825344,479579701,24.864
1,2825344,468241317,25.397
1,2825344,468921711,25.276
1,2825344,487132058,24.115
1,2825344,482298621,26.249
1,2825344,483392755,25.422
1,2825344,451955099,26.568
1,2825344,480150165,25.175
1,2825344,481097561,26.267
1,2825344,487595245,26.998
1,2825344,512451200,24.705
1,2825344,490329252,27.072
1,2825344,468149895,25.772
1,2825344,473184334,25.387
1,2825344,476079186,24.834
1,2825344,453467651,26.050
1,2825344,498332784,26.272
1,2825344,493152097,25.674
1,2825344,459190585,24.914
1,2825344,504058931,24.721
1,2825344,470194569,25.641
1,2825344,487349264,24.286
1,2825344,486463747,26.926
1,2825344,448987962,25.569
1,2825344,503267699,25.517
1,2825344,496652961,24.777
1,2825344,456325137,26.241
1,2825344,500669603,24.744
1,2825344,477752653,26.334
1,2825344,462957405,25.406
1,2854144,462341894,26.465
1,2854144,495839659,24.559
1,2854144,428957551,25.672
1,2854144,491063912,24.300
1,2854144,477364406,25.625
1,2854144,491794522,24.605
1,2854144,482071707,24.937
1,2854144,474432189,26.282
1,2854144,515414775,24.217
1,2854144,489868510,26.066
1,2854144,484866965,25.412
1,2854144,491084796,26.244
1,2854144,493894859,24.139
1,2854144,455648236,26.363
1,2854144,490762757,25.237
1,2854144,489146141,25.139
1,2854144,440478011,25.815
1,2854144,481702946,24.878
1,2854144,446604349,26.085
1,2854144,503803242,25.889
1,2854144,498606701,24.583
1,2854144,472769267,25.900
1,2854144,474981909,25.130
1,2854144,508099808,22.835
1,2854144,444431376,25.671
1,2854144,486263511,25.487
1,2854144,459396338,26.447
1,2854144,489933671,25.476
1,2854144,487451162,24.811
1,2854144,465185482,25.213
1,2882944,473236087,27.344
1,2882944,496618599,25.436
1,2882944,423270306,31.235
1,2882944,480711339,25.032
1,2882944,458116008,25.051
1,2882944,462701367,26.142
1,2882944,499567298,25.302
1,2882944,493545304,25.308
1,2882944,467634537,25.101
1,2882944,482690501,25.461
1,2882944,470696239,26.336
1,2882944,483658153,28.874
1,2882944,489846999,28.230
1,2882944,484140406,26.690
1,2882944,469800734,27.882
1,2882944,502063006,27.817
1,2882944,467035718,25.425
1,2882944,499499343,26.233
1,2882944,476882640,26.889
1,2882944,483746013,28.211
1,2882944,471695109,27.974
1,2882944,497669082,25.006
1,2882944,463956136,28.498
1,2882944,457835455,27.263
1,2882944,472488925,25.853
1,2882944,470049928,25.599
1,2882944,475968627,28.103
1,2882944,450171142,27.294
1,2882944,502227344,24.341
1,2882944,466685813,27.918
1,2911744,467696974,25.957
1,2911744,479416761,27.982
1,2911744,472827236,29.405
1,2911744,471935363,26.389
1,2911744,495711920,25.241
1,2911744,509930418,28.038
1,2911744,444928507,27.001
1,2911744,489293436,24.500
1,2911744,472631052,28.298
1,2911744,450482565,28.016
1,2911744,497688568,29.055
1,2911744,507787059,25.124
1,2911744,486481975,28.344
1,2911744,463801647,25.217
1,2911744,450339460,25.646
1,2911744,465777597,28.616
1,2911744,479488628,25.066
1,2911744,450627834,27.601
1,2911744,499630993,25.424
1,2911744,483148171,24.469
1,2911744,449926768,25.883
1,2911744,506961326,27.923
1,2911744,447493567,26.942
1,2911744,480079904,28.386
1,2911744,518329601,27.277
1,2911744,463581438,26.979
1,2911744,491062097,27.799
1,2911744,462459368,27.908
1,2911744,465913438,28.616
1,2911744,476150424,27.673
1,2940544,479249281,26.634
1,2940544,452059930,28.126
1,2940544,507281548,28.775
1,2940544,500140556,24.955
1,2940544,495941837,28.191
1,2940544,492811621,26.686
1,2940544,470502220,26.521
1,2940544,468111273,28.570
1,2940544,441993077,28.950
1,2940544,446019917,27.205
1,2940544,490518592,28.534
1,2940544,489663036,24.897
1,2940544,463112662,28.750
1,2940544,485478845,27.346
1,2940544,479480038,25.770
1,2940544,473947141,27.200
1,2940544,501942181,29.257
1,2940544,467869203,26.561
1,2940544,513285453,27.191
1,2940544,511302170,28.142
1,2940544,477340450,24.320
1,2940544,475104201,28.392
1,2940544,471211528,29.697
1,2940544,460914478,27.151
1,2940544,469732848,27.492
1,2940544,490819328,25.688
1,2940544,458592256,27.898
1,2940544,487447810,29.271
1,2940544,475445935,25.426
1,2940544,477411828,25.646
1,2969344,479602050,28.194
1,2969344,478457142,26.273
1,2969344,454828089,28.814
1,2969344,430760504,28.720
1,2969344,469611464,26.738
1,2969344,463497558,28.694
1,2969344,461211862,28.722
1,2969344,455490604,28.079
1,2969344,446155199,28.151
1,2969344,477160958,25.838
1,2969344,475093236,25.899
1,2969344,475164126,27.117
1,2969344,440447909,27.196
1,2969344,474749827,29.241
1,2969344,515881245,24.992
1,2969344,460781431,27.503
1,2969344,471326487,28.359
1,2969344,460212154,26.091
1,2969344,480392164,28.051
1,2969344,500759908,27.738
1,2969344,465448016,25.293
1,2969344,494487881,25.302
1,2969344,458251570,26.493
1,2969344,434767717,27.085
1,2969344,463646530,28.523
1,2969344,463570332,26.889
1,2969344,494144053,27.057
1,2969344,489047315,26.203
1,2969344,448582044,28.333
1,2969344,483653124,27.446
1,2998144,482512825,28.344
1,2998144,439531382,27.156
1,2998144,498520517,28.436
1,2998144,508474926,29.147
1,2998144,459802604,27.072
1,2998144,454084279,27.618
1,2998144,473235598,26.310
1,2998144,471614652,27.177
1,2998144,466945064,27.533
1,2998144,432309025,28.228
1,2998144,490167011,27.223
1,2998144,488574140,25.372
1,2998144,462884701,28.049
1,2998144,483369079,26.528
1,2998144,488822496,24.994
1,2998144,461626859,27.927
1,2998144,458810090,29.609
1,2998144,459907437,27.380
1,2998144,499337590,25.149
1,2998144,499465330,24.472
1,2998144,462053869,27.895
1,2998144,490197811,27.556
1,2998144,480254367,25.781
1,2998144,475031636,28.353
1,2998144,477317192,30.245
1,2998144,463664688,26.433
1,2998144,478147395,28.093
1,2998144,456130769,27.031
1,2998144,455509461,25.549
1,2998144,507911446,28.026
1,3026944,496231958,28.324
1,3026944,469819940,27.308
1,3026944,468221483,28.380
1,3026944,467107933,27.509
1,3026944,458647150,25.719
1,3026944,471201401,28.752
1,3026944,463762815,25.476
1,3026944,486133817,27.859
1,3026944,484162965,28.103
1,3026944,478210323,27.171
1,3026944,518881626,29.420
1,3026944,500683362,25.599
1,3026944,457049950,26.289
1,3026944,476271739,27.081
1,3026944,487591054,25.568
1,3026944,435518650,27.636
1,3026944,509313859,26.632
1,3026944,440987992,26.702
1,3026944,472619738,27.990
1,3026944,487047271,26.947
1,3026944,445235110,27.791
1,3026944,473750398,29.821
1,3026944,454609905,26.124
1,3026944,470358766,27.765
1,3026944,475576119,28.221
1,3026944,464592459,26.400
1,3026944,511472723,28.596
1,3026944,486080387,25.431
1,3026944,469304651,27.615
1,3026944,482495714,30.558
1,3055744,499661305,27.454
1,3055744,468265902,27.104
1,3055744,483423067,28.464
1,3055744,460013246,28.222
1,3055744,458448592,28.009
1,3055744,461018681,28.682
1,3055744,443232411,26.016
1,3055744,495615329,28.073
1,3055744,510563948,28.384
1,3055744,446991828,26.396
1,3055744,486696597,29.019
1,3055744,499286607,25.716
1,3055744,476799110,27.587
1,3055744,448807491,25.095
1,3055744,493702656,26.480
1,3055744,456620985,27.783
1,3055744,498641482,28.328
1,3055744,479944342,25.685
1,3055744,461027202,28.419
1,3055744,509690652,28.607
1,3055744,439173445,27.548
1,3055744,497499438,27.803
1,3055744,451305854,28.593
1,3055744,451729441,27.623
1,3055744,403787311,27.646
1,3055744,442957376,26.340
1,3055744,484091867,28.243
1,3055744,479673847,28.303
1,3055744,463443990,29.063
1,3055744,473514334,28.913
1,3084544,490538986,28.342
1,3084544,449562965,27.761
1,3084544,509051675,27.391
1,3084544,495630065,25.117
1,3084544,435512226,28.524
1,3084544,473739433,27.705
1,3084544,417048634,26.029
1,3084544,490801658,31.059
1,3084544,452135778,28.808
1,3084544,464120961,28.145
1,3084544,517338343,24.827
1,3084544,486352349,27.801
1,3084544,486612579,28.009
1,3084544,477892056,28.734
1,3084544,457829798,25.689
1,3084544,481630450,25.009
1,3084544,517672394,24.764
1,3084544,468543520,27.224
1,3084544,488281156,26.171
1,3084544,485583467,25.098
1,3084544,468600791,30.144
1,3084544,484895041,24.434
1,3084544,449067371,28.477
1,3084544,477591529,28.292
1,3084544,474082982,27.132
1,3084544,472544588,26.887
1,3084544,471160195,28.566
1,3084544,489105004,24.898
1,3084544,466167939,25.038
1,3084544,486055594,27.788
1,3113344,503785712,26.970
1,3113344,449667866,27.451
1,3113344,460795189,28.011
1,3113344,510004031,24.843
1,3113344,427586078,27.441
1,3113344,491198426,28.278
1,3113344,452574660,26.951
1,3113344,501622797,28.478
1,3113344,487247226,27.466
1,3113344,467449527,25.968
1,3113344,482344787,28.199
1,3113344,446475631,26.162
1,3113344,442851078,28.074
1,3113344,483436685,27.703
1,3113344,458623405,26.291
1,3113344,487093506,28.368
1,3113344,483720730,25.340
1,3113344,470434614,27.673
1,3113344,488863493,27.184
1,3113344,485231886,26.782
1,3113344,491700865,28.691
1,3113344,483888629,26.850
1,3113344,450650184,27.183
1,3113344,490894897,24.481
1,3113344,454875861,27.388
1,3113344,463817501,25.185
1,3113344,502671394,27.177
1,3113344,474246271,25.797
1,3113344,484670920,26.985
1,3113344,492795069,27.713
1,3142144,500272765,27.102
1,3142144,452132426,27.867
1,3142144,469198352,24.807
1,3142144,445045700,26.672
1,3142144,458223424,30.039
1,3142144,477981313,27.573
1,3142144,491570750,28.096
1,3142144,469227546,28.861
1,3142144,493714319,23.883
1,3142144,450252927,27.363
1,3142144,501473686,28.599
1,3142144,449085111,26.521
1,3142144,488536077,25.186
1,3142144,481301777,28.023
1,3142144,471410575,24.812
1,3142144,476694837,28.936
1,3142144,467781203,27.677
1,3142144,481516120,27.589
1,3142144,474016843,26.267
1,3142144,480164901,25.663
1,3142144,466256708,24.927
1,3142144,493878865,29.115
1,3142144,458007754,27.022
1,3142144,478431580,24.903
1,3142144,470570874,28.060
1,3142144,410725623,28.485
1,3142144,477052913,26.198
1,3142144,455046483,26.587
1,3142144,478963142,24.960
1,3142144,461672884,26.955
