acl	2.2.52-3+b1
adduser	3.115
adwaita-icon-theme	3.22.0-1+deb9u1
aglfn	1.7-3
ant	1.9.9-1
ant-optional	1.9.9-1
apt	1.4.8
apt-utils	1.4.8
ash	0.5.8-2.4
at	3.1.20-3
at-spi2-core	2.22.0-6+deb9u1
attr	1:2.4.47-2+b2
augeas-lenses	1.8.0-1+deb9u1
autoconf	2.69-10
autofs	5.1.2-1
automake	1:1.15-6
autopoint	0.19.8.1-2
autotools-dev	20161112.1
base-files	9.9+deb9u4
base-passwd	3.5.43
bash	4.4-5
bash-completion	1:2.1-4.3
bc	1.06.95-9+b3
bind9-host	1:9.10.3.dfsg.P4-12.3+deb9u4
binutils	2.28-5
binutils-doc	2.28-5
bison	2:3.0.4.dfsg-1+b1
blcr-util	0.8.5-2.3+b1
blt	2.5.3+dfsg-3
bootlogd	2.88dsf-59.9
bridge-utils	1.5-13+deb9u1
bsd-mailx	8.1.2-0.20160123cvs-4
bsdmainutils	9.0.12+nmu1
bsdutils	1:2.29.2-1+deb9u1
build-essential	12.3
busybox	1:1.22.0-19+b3
bzip2	1.0.6-8.1
bzip2-doc	1.0.6-8.1
ca-certificates	20161130+nmu1
ca-certificates-java	20170531+nmu1
cdbs	0.4.150
ceph	10.2.5-7.2
ceph-base	10.2.5-7.2
ceph-common	10.2.5-7.2
ceph-fs-common	10.2.5-7.2
ceph-fuse	10.2.5-7.2
ceph-mds	10.2.5-7.2
ceph-mon	10.2.5-7.2
ceph-osd	10.2.5-7.2
cgdb	0.6.7-2+b3
clustershell	1.7.3-1
cmake	3.7.2-1
cmake-curses-gui	3.7.2-1
cmake-data	3.7.2-1
connect-proxy	1.105-1
console-setup	1.164
console-setup-linux	1.164
coreutils	8.26-3
cpio	2.11+dfsg-6
cpp	4:6.3.0-4
cpp-6	6.3.0-18+deb9u1
cpufrequtils	008-1+b1
cpuid	20161201-1
cron	3.0pl1-128+deb9u1
cryptsetup-bin	2:1.7.3-4
curl	7.52.1-5+deb9u5
cvs	2:1.12.13+real-22+deb9u1
cython3	0.25.2-1
dash	0.5.8-2.4
db-util	5.3.1
db5.3-util	5.3.28-12+deb9u1
dbus	1.10.26-0+deb9u1
dconf-gsettings-backend:amd64	0.26.0-2+b1
dconf-service	0.26.0-2+b1
debconf	1.5.61
debconf-i18n	1.5.61
debconf-utils	1.5.61
debhelper	10.2.5
debian-archive-keyring	2017.5
debianutils	4.8.1.1
debootstrap	1.0.89
default-jre-headless	2:1.8-58
default-mysql-client	1.0.2
dh-autoreconf	14
dh-python	2.20170125
dh-strip-nondeterminism	0.034-1
dictionaries-common	1.27.2
diffstat	1.61-1+b1
diffutils	1:3.5-3
dirmngr	2.1.18-8~deb9u1
discover	2.1.2-7.1
discover-data	2.2013.01.11
distro-info-data	0.36
dkms	2.3-2
dmeventd	2:1.02.137-2
dmidecode	3.0-4
dmsetup	2:1.02.137-2
dns-root-data	2017072601~deb9u1
dnsmasq-base	2.76-5+deb9u1
dnsutils	1:9.10.3.dfsg.P4-12.3+deb9u4
dpkg	1.18.24
dpkg-dev	1.18.24
dstat	0.7.2-4
dtach	0.9-1
e2fslibs:amd64	1.43.4-2
e2fsprogs	1.43.4-2
ebtables	2.0.10.4-3.5+b1
eject	2.1.5+deb1+cvs20081104-13.2
emacs	46.1
emacs24	24.5+1-11+deb9u1
emacs24-bin-common	24.5+1-11+deb9u1
emacs24-common	24.5+1-11+deb9u1
emacs24-el	24.5+1-11+deb9u1
emacsen-common	2.0.8
ethtool	1:4.8-1+b1
extlinux	3:6.03+dfsg-14.1+deb9u1
fakeroot	1.21-3.1
ffmpeg	7:3.2.10-1~deb9u1
file	1:5.30-1+deb9u1
findutils	4.6.0+git+20161106-2
fio	2.16-1
firmware-bnx2	20161130-3
firmware-bnx2x	20161130-3
flex	2.6.1-1.3
fontconfig	2.11.0-6.7+b1
fontconfig-config	2.11.0-6.7
fonts-dejavu-core	2.37-1
fonts-dejavu-extra	2.37-1
fonts-droid-fallback	1:6.0.1r16-1.1
fonts-lato	2.0-1
fonts-liberation	1:1.07.4-2
fonts-lyx	2.2.2-1
fonts-noto-mono	20161116-1
freeipmi-common	1.4.11-1.1+b1
freepats	20060219-1
ftp	0.17-34
fuse	2.9.7-1
g++	4:6.3.0-4
g++-6	6.3.0-18+deb9u1
g5k-meta-packages-debian9-base	0.7.10
g5k-meta-packages-debian9-big	0.7.10
g5k-meta-packages-debian9-min	0.7.10
g5k-meta-packages-debian9-nfs	0.7.10
g5kchecks	0.8.1
ganglia-monitor	3.6.0-7+b1
ganglia-monitor-python-nvidia	0.1
gcc	4:6.3.0-4
gcc-6	6.3.0-18+deb9u1
gcc-6-base:amd64	6.3.0-18+deb9u1
gconf-service	3.2.6-4+b1
gconf2-common	3.2.6-4
gdb	7.12-6
gdisk	1.0.1-1
genders	1.21-1+b4
genisoimage	9:1.1.11-3+b2
geoip-database	20170512-1
gettext	0.19.8.1-2
gettext-base	0.19.8.1-2
gfortran	4:6.3.0-4
gfortran-6	6.3.0-18+deb9u1
ghostscript	9.20~dfsg-3.2+deb9u1
gir1.2-freedesktop:amd64	1.50.0-1+b1
gir1.2-glib-2.0:amd64	1.50.0-1+b1
gir1.2-libosinfo-1.0:amd64	1.0.0-2
git	1:2.11.0-3+deb9u2
git-cola	2.10-1
git-core	1:2.11.0-3+deb9u2
git-man	1:2.11.0-3+deb9u2
gitk	1:2.11.0-3+deb9u2
glib-networking:amd64	2.50.0-1+b1
glib-networking-common	2.50.0-1
glib-networking-services	2.50.0-1+b1
glusterfs-common	3.8.8-1
gnupg	2.1.18-8~deb9u1
gnupg-agent	2.1.18-8~deb9u1
gnuplot	5.0.5+dfsg1-6+deb9u1
gnuplot-data	5.0.5+dfsg1-6+deb9u1
gnuplot-qt	5.0.5+dfsg1-6+deb9u1
gnutls-bin	3.5.8-5+deb9u3
gpgv	2.1.18-8~deb9u1
graphviz	2.38.0-17
grep	2.27-2
groff-base	1.22.3-9
grub-common	2.02~beta3-5
grub-pc	2.02~beta3-5
grub-pc-bin	2.02~beta3-5
grub2-common	2.02~beta3-5
gsettings-desktop-schemas	3.22.0-1
gsfonts	1:8.11+urwcyr1.0.7~pre44-4.3
gstreamer1.0-libav:amd64	1.10.4-1
gstreamer1.0-plugins-bad:amd64	1.10.4-1
gstreamer1.0-plugins-base:amd64	1.10.4-1
gstreamer1.0-plugins-good:amd64	1.10.4-1
gstreamer1.0-x:amd64	1.10.4-1
gtk-update-icon-cache	3.22.11-1
gzip	1.6-5+b1
hdf5-helpers	1.10.0-patch1+docs-3+deb9u1
hdparm	9.51+ds-1
hicolor-icon-theme	0.15-1
hostname	3.18+b1
html2text	1.3.2a-18+b2
htop	2.0.2-1
hwloc	1.11.5-1
i965-va-driver:amd64	1.7.3-1
iamerican	3.4.00-5
ibritish	3.4.00-5
ibutils	1.5.7-5
ibverbs-utils	1.2.1-2
icu-devtools	57.1-6+deb9u2
ienglish-common	3.4.00-5
ifupdown	0.8.19
imagemagick-6-common	8:6.9.7.4+dfsg-11+deb9u4
infiniband-diags	1.6.7-1
info	6.3.0.dfsg.1-1+b2
init	1.48
init-system-helpers	1.48
initramfs-tools	0.130
initramfs-tools-core	0.130
inotify-tools	3.14-2
install-info	6.3.0.dfsg.1-1+b2
installation-report	2.62
intltool-debian	0.35.0+20060710.4
iperf	2.0.9+dfsg1-1
ipmitool	1.8.18-3
iproute2	4.9.0-1+deb9u1
iptables	1.6.0+snapshot20161117-6
iputils-arping	3:20161105-1
iputils-ping	3:20161105-1
iputils-tracepath	3:20161105-1
ipxe-qemu	1.0.0+git-20161027.b991c67-1
ipython	5.1.0-3
ipython3	5.1.0-3
isc-dhcp-client	4.3.5-3+deb9u1
isc-dhcp-common	4.3.5-3+deb9u1
iso-codes	3.75-1
ispell	3.4.00-5
java-common	0.58
javascript-common	11
jed	1:0.99.19-7+b1
jed-common	1:0.99.19-7
joe	4.4-1
jq	1.5+dfsg-1.3
kanif	1.2.2-2
kbd	2.0.3-2+b1
kexec-tools	1:2.0.14-1
keyboard-configuration	1.164
keyutils	1.5.9-9
klibc-utils	2.0.4-9
kmod	23-2
krb5-locales	1.15-1+deb9u1
laptop-detect	0.13.8
ldap-utils	2.4.44+dfsg-5+deb9u1
less	481-2.1
libaa1:amd64	1.4p5-44+b1
libaacs0:amd64	0.8.1-2
libacl1:amd64	2.2.52-3+b1
libacl1-dev	2.2.52-3+b1
libaec-dev:amd64	0.3.2-1
libaec0:amd64	0.3.2-1
libaio1:amd64	0.3.110-3
libalgorithm-diff-perl	1.19.03-1
libalgorithm-diff-xs-perl	0.04-4+b2
libalgorithm-merge-perl	0.08-3
libann0	1.1.2+doc-6
libapparmor1:amd64	2.11.0-3+deb9u2
libapr1:amd64	1.5.2-5
libaprutil1:amd64	1.5.4-3
libapt-inst2.0:amd64	1.4.8
libapt-pkg5.0:amd64	1.4.8
libarchive-zip-perl	1.59-1
libarchive13:amd64	3.2.2-2
libargtable2-0	13-1
libasan3:amd64	6.3.0-18+deb9u1
libasound2:amd64	1.1.3-5
libasound2-data	1.1.3-5
libass5:amd64	1:0.13.4-2
libassuan0:amd64	2.4.3-2
libasyncns0:amd64	0.8-6
libatk-bridge2.0-0:amd64	2.22.0-2
libatk-wrapper-java	0.33.3-13+deb9u1
libatk-wrapper-java-jni:amd64	0.33.3-13+deb9u1
libatk1.0-0:amd64	2.22.0-1
libatk1.0-data	2.22.0-1
libatlas-base-dev	3.10.3-1+b1
libatlas-dev	3.10.3-1+b1
libatlas3-base	3.10.3-1+b1
libatomic1:amd64	6.3.0-18+deb9u1
libatspi2.0-0:amd64	2.22.0-6+deb9u1
libattr1:amd64	1:2.4.47-2+b2
libattr1-dev:amd64	1:2.4.47-2+b2
libaudio2:amd64	1.9.4-5+b1
libaudit-common	1:2.6.7-2
libaudit1:amd64	1:2.6.7-2
libaugeas0	1.8.0-1+deb9u1
libauthen-sasl-perl	2.1600-1
libavahi-client3:amd64	0.6.32-2
libavahi-common-data:amd64	0.6.32-2
libavahi-common3:amd64	0.6.32-2
libavc1394-0:amd64	0.5.4-4+b1
libavcodec57:amd64	7:3.2.10-1~deb9u1
libavdevice57:amd64	7:3.2.10-1~deb9u1
libavfilter6:amd64	7:3.2.10-1~deb9u1
libavformat57:amd64	7:3.2.10-1~deb9u1
libavresample3:amd64	7:3.2.10-1~deb9u1
libavutil55:amd64	7:3.2.10-1~deb9u1
libbabeltrace-ctf1:amd64	1.5.1-1
libbabeltrace1:amd64	1.5.1-1
libbdplus0:amd64	0.1.2-2
libbind9-140:amd64	1:9.10.3.dfsg.P4-12.3+deb9u4
libbison-dev:amd64	2:3.0.4.dfsg-1+b1
libbit-vector-perl	7.4-1+b2
libblas-common	3.7.0-2
libblas-dev	3.7.0-2
libblas3	3.7.0-2
libblkid1:amd64	2.29.2-1+deb9u1
libblosc1	1.11.1+ds2-1
libbluetooth3:amd64	5.43-2+deb9u1
libbluray1:amd64	1:0.9.3-3
libboost-all-dev	1.62.0.1
libboost-atomic-dev:amd64	1.62.0.1
libboost-atomic1.62-dev:amd64	1.62.0+dfsg-4
libboost-atomic1.62.0:amd64	1.62.0+dfsg-4
libboost-chrono-dev:amd64	1.62.0.1
libboost-chrono1.62-dev:amd64	1.62.0+dfsg-4
libboost-chrono1.62.0:amd64	1.62.0+dfsg-4
libboost-context-dev:amd64	1.62.0.1
libboost-context1.62-dev:amd64	1.62.0+dfsg-4
libboost-context1.62.0:amd64	1.62.0+dfsg-4
libboost-coroutine-dev:amd64	1.62.0.1
libboost-coroutine1.62-dev:amd64	1.62.0+dfsg-4
libboost-coroutine1.62.0:amd64	1.62.0+dfsg-4
libboost-date-time-dev:amd64	1.62.0.1
libboost-date-time1.62-dev:amd64	1.62.0+dfsg-4
libboost-date-time1.62.0:amd64	1.62.0+dfsg-4
libboost-dev:amd64	1.62.0.1
libboost-exception-dev:amd64	1.62.0.1
libboost-exception1.62-dev:amd64	1.62.0+dfsg-4
libboost-fiber-dev:amd64	1.62.0.1
libboost-fiber1.62-dev:amd64	1.62.0+dfsg-4
libboost-fiber1.62.0:amd64	1.62.0+dfsg-4
libboost-filesystem-dev:amd64	1.62.0.1
libboost-filesystem1.62-dev:amd64	1.62.0+dfsg-4
libboost-filesystem1.62.0:amd64	1.62.0+dfsg-4
libboost-graph-dev:amd64	1.62.0.1
libboost-graph-parallel-dev	1.62.0.1
libboost-graph-parallel1.62-dev	1.62.0+dfsg-4
libboost-graph-parallel1.62.0	1.62.0+dfsg-4
libboost-graph1.62-dev:amd64	1.62.0+dfsg-4
libboost-graph1.62.0:amd64	1.62.0+dfsg-4
libboost-iostreams-dev:amd64	1.62.0.1
libboost-iostreams1.62-dev:amd64	1.62.0+dfsg-4
libboost-iostreams1.62.0:amd64	1.62.0+dfsg-4
libboost-locale-dev:amd64	1.62.0.1
libboost-locale1.62-dev:amd64	1.62.0+dfsg-4
libboost-locale1.62.0:amd64	1.62.0+dfsg-4
libboost-log-dev	1.62.0.1
libboost-log1.62-dev	1.62.0+dfsg-4
libboost-log1.62.0	1.62.0+dfsg-4
libboost-math-dev:amd64	1.62.0.1
libboost-math1.62-dev:amd64	1.62.0+dfsg-4
libboost-math1.62.0:amd64	1.62.0+dfsg-4
libboost-mpi-dev	1.62.0.1
libboost-mpi-python-dev	1.62.0.1
libboost-mpi-python1.62-dev	1.62.0+dfsg-4
libboost-mpi-python1.62.0	1.62.0+dfsg-4
libboost-mpi1.62-dev	1.62.0+dfsg-4
libboost-mpi1.62.0	1.62.0+dfsg-4
libboost-program-options-dev:amd64	1.62.0.1
libboost-program-options1.62-dev:amd64	1.62.0+dfsg-4
libboost-program-options1.62.0:amd64	1.62.0+dfsg-4
libboost-python-dev	1.62.0.1
libboost-python1.62-dev	1.62.0+dfsg-4
libboost-python1.62.0	1.62.0+dfsg-4
libboost-random-dev:amd64	1.62.0.1
libboost-random1.62-dev:amd64	1.62.0+dfsg-4
libboost-random1.62.0:amd64	1.62.0+dfsg-4
libboost-regex-dev:amd64	1.62.0.1
libboost-regex1.62-dev:amd64	1.62.0+dfsg-4
libboost-regex1.62.0:amd64	1.62.0+dfsg-4
libboost-serialization-dev:amd64	1.62.0.1
libboost-serialization1.62-dev:amd64	1.62.0+dfsg-4
libboost-serialization1.62.0:amd64	1.62.0+dfsg-4
libboost-signals-dev:amd64	1.62.0.1
libboost-signals1.62-dev:amd64	1.62.0+dfsg-4
libboost-signals1.62.0:amd64	1.62.0+dfsg-4
libboost-system-dev:amd64	1.62.0.1
libboost-system1.62-dev:amd64	1.62.0+dfsg-4
libboost-system1.62.0:amd64	1.62.0+dfsg-4
libboost-test-dev:amd64	1.62.0.1
libboost-test1.62-dev:amd64	1.62.0+dfsg-4
libboost-test1.62.0:amd64	1.62.0+dfsg-4
libboost-thread-dev:amd64	1.62.0.1
libboost-thread1.62-dev:amd64	1.62.0+dfsg-4
libboost-thread1.62.0:amd64	1.62.0+dfsg-4
libboost-timer-dev:amd64	1.62.0.1
libboost-timer1.62-dev:amd64	1.62.0+dfsg-4
libboost-timer1.62.0:amd64	1.62.0+dfsg-4
libboost-tools-dev	1.62.0.1
libboost-type-erasure-dev:amd64	1.62.0.1
libboost-type-erasure1.62-dev:amd64	1.62.0+dfsg-4
libboost-type-erasure1.62.0:amd64	1.62.0+dfsg-4
libboost-wave-dev:amd64	1.62.0.1
libboost-wave1.62-dev:amd64	1.62.0+dfsg-4
libboost-wave1.62.0:amd64	1.62.0+dfsg-4
libboost1.62-dev:amd64	1.62.0+dfsg-4
libboost1.62-tools-dev	1.62.0+dfsg-4
libbrlapi0.6:amd64	5.4-7
libbs2b0:amd64	3.1.0+dfsg-2.2
libbsd0:amd64	0.8.3-1
libbz2-1.0:amd64	1.0.6-8.1
libbz2-dev:amd64	1.0.6-8.1
libc-bin	2.24-11+deb9u3
libc-dev-bin	2.24-11+deb9u3
libc-l10n	2.24-11+deb9u3
libc6:amd64	2.24-11+deb9u3
libc6-dbg:amd64	2.24-11+deb9u3
libc6-dev:amd64	2.24-11+deb9u3
libc6-i386	2.24-11+deb9u3
libcaca0:amd64	0.99.beta19-2+b2
libcacard0:amd64	1:2.5.0-3
libcairo-gobject2:amd64	1.14.8-1
libcairo2:amd64	1.14.8-1
libcap-ng0:amd64	0.7.7-3+b1
libcap2:amd64	1:2.25-1
libcap2-bin	1:2.25-1
libcarp-clan-perl	6.06-1
libcc1-0:amd64	6.3.0-18+deb9u1
libcdio-cdda1:amd64	0.83-4.3+b1
libcdio-paranoia1:amd64	0.83-4.3+b1
libcdio13:amd64	0.83-4.3+b1
libcdparanoia0:amd64	3.10.2+debian-11
libcdt5	2.38.0-17
libcephfs1	10.2.5-7.2
libcgraph6	2.38.0-17
libchromaprint1:amd64	1.4.2-1
libcilkrts5:amd64	6.3.0-18+deb9u1
libcolord2:amd64	1.3.3-2
libcomerr2:amd64	1.43.4-2
libcommon-sense-perl	3.74-2
libconfuse-common	3.0+dfsg-2
libconfuse1:amd64	3.0+dfsg-2
libcpufreq0	008-1+b1
libcpupower1	4.9.82-1+deb9u3
libcr0	0.8.5-2.3+b1
libcroco3:amd64	0.6.11-3
libcryptsetup4:amd64	2:1.7.3-4
libcrystalhd3:amd64	1:0.0~git20110715.fdd2f19-12
libcups2:amd64	2.2.1-8+deb9u1
libcupsfilters1:amd64	1.11.6-3
libcupsimage2:amd64	2.2.1-8+deb9u1
libcurl3:amd64	7.52.1-5+deb9u5
libcurl3-gnutls:amd64	7.52.1-5+deb9u5
libcurl4-gnutls-dev:amd64	7.52.1-5+deb9u5
libcxgb3-1	1.3.1-1
libcxgb3-dev	1.3.1-1
libdate-calc-perl	6.4-1
libdate-calc-xs-perl	6.4-1+b2
libdatrie1:amd64	0.2.10-4+b1
libdb-dev:amd64	5.3.1
libdb5.3:amd64	5.3.28-12+deb9u1
libdb5.3-dev	5.3.28-12+deb9u1
libdbd-mysql-perl	4.041-2
libdbd-pg-perl	3.5.3-1+b2
libdbi-perl	1.636-1+b1
libdbus-1-3:amd64	1.10.26-0+deb9u1
libdbus-glib-1-2:amd64	0.108-2
libdc1394-22:amd64	2.2.5-1
libdca0:amd64	0.0.5-10
libdconf1:amd64	0.26.0-2+b1
libde265-0:amd64	1.0.2-2+b2
libdebconfclient0:amd64	0.227
libdevmapper-event1.02.1:amd64	2:1.02.137-2
libdevmapper1.02.1:amd64	2:1.02.137-2
libdiscover2	2.1.2-7.1
libdns-export162	1:9.10.3.dfsg.P4-12.3+deb9u4
libdns162:amd64	1:9.10.3.dfsg.P4-12.3+deb9u4
libdouble-conversion1:amd64	2.0.1-4
libdpkg-perl	1.18.24
libdrm-amdgpu1:amd64	2.4.74-1
libdrm-intel1:amd64	2.4.74-1
libdrm-nouveau2:amd64	2.4.74-1
libdrm-radeon1:amd64	2.4.74-1
libdrm2:amd64	2.4.74-1
libdv4:amd64	1.0.0-11
libdvdnav4:amd64	5.0.3-3
libdvdread4:amd64	5.0.3-2
libdw1:amd64	0.168-1
libebur128-1:amd64	1.2.2-2
libedit2:amd64	3.1-20160903-3
libegl1-mesa:amd64	13.0.6-1+b2
libelf1:amd64	0.168-1
libencode-locale-perl	1.05-1
libepoxy0:amd64	1.3.1-2
liberror-perl	0.17024-1
libestr0	0.1.10-2
libevdev2:amd64	1.5.6+dfsg-1
libevent-2.0-5:amd64	2.0.21-stable-3
libexpat1:amd64	2.2.0-2+deb9u1
libexpat1-dev:amd64	2.2.0-2+deb9u1
libfaad2:amd64	2.8.0~cvs20161113-1
libfabric1	1.4.0-1
libfakeroot:amd64	1.21-3.1
libfastjson4:amd64	0.99.4-1
libfcgi-bin	2.4.0-8.4+b1
libfcgi0ldbl:amd64	2.4.0-8.4+b1
libfdisk1:amd64	2.29.2-1+deb9u1
libfdt1:amd64	1.4.2-1
libffi6:amd64	3.2.1-6
libfftw3-double3:amd64	3.3.5-3
libfile-basedir-perl	0.07-1
libfile-desktopentry-perl	0.22-1
libfile-fcntllock-perl	0.22-3+b2
libfile-listing-perl	6.04-1
libfile-mimeinfo-perl	0.27-1
libfile-stripnondeterminism-perl	0.034-1
libfl-dev:amd64	2.6.1-1.3
libflac8:amd64	1.3.2-1
libflite1:amd64	2.0.0-release-3+b1
libfluidsynth1:amd64	1.1.6-4
libfont-afm-perl	1.20-2
libfontconfig1:amd64	2.11.0-6.7+b1
libfontenc1:amd64	1:1.1.3-1+b2
libfreeipmi16	1.4.11-1.1+b1
libfreetype6:amd64	2.6.3-3.2
libfribidi0:amd64	0.19.7-1+b1
libfuse2:amd64	2.9.7-1
libgail-common:amd64	2.24.31-2
libgail18:amd64	2.24.31-2
libganglia1	3.6.0-7+b1
libgbm1:amd64	13.0.6-1+b2
libgcc-6-dev:amd64	6.3.0-18+deb9u1
libgcc1:amd64	1:6.3.0-18+deb9u1
libgconf-2-4:amd64	3.2.6-4+b1
libgcrypt20:amd64	1.7.6-2+deb9u2
libgd3:amd64	2.2.4-2+deb9u2
libgdbm3:amd64	1.8.3-14
libgdk-pixbuf2.0-0:amd64	2.36.5-2+deb9u2
libgdk-pixbuf2.0-common	2.36.5-2+deb9u2
libgenders0:amd64	1.21-1+b4
libgeoip1:amd64	1.6.9-4
libgfortran-6-dev:amd64	6.3.0-18+deb9u1
libgfortran3:amd64	6.3.0-18+deb9u1
libgif7:amd64	5.1.4-0.4
libgirepository-1.0-1:amd64	1.50.0-1+b1
libgl1-mesa-dri:amd64	13.0.6-1+b2
libgl1-mesa-glx:amd64	13.0.6-1+b2
libglade2-0:amd64	1:2.6.4-2
libglapi-mesa:amd64	13.0.6-1+b2
libglew2.0:amd64	2.0.0-3+b1
libglib2.0-0:amd64	2.50.3-2
libglib2.0-data	2.50.3-2
libglu1-mesa:amd64	9.0.0-2.1
libgme0:amd64	0.6.0-4
libgmp-dev:amd64	2:6.1.2+dfsg-1
libgmp10:amd64	2:6.1.2+dfsg-1
libgmpxx4ldbl:amd64	2:6.1.2+dfsg-1
libgnutls-dane0:amd64	3.5.8-5+deb9u3
libgnutls30:amd64	3.5.8-5+deb9u3
libgomp1:amd64	6.3.0-18+deb9u1
libgoogle-perftools4	2.5-2.2
libgovirt-common	0.3.4-2
libgovirt2:amd64	0.3.4-2
libgpg-error0:amd64	1.26-2
libgpm2:amd64	1.20.4-6.2+b1
libgraphite2-3:amd64	1.3.10-1
libgs9:amd64	9.20~dfsg-3.2+deb9u1
libgs9-common	9.20~dfsg-3.2+deb9u1
libgsl-dev	2.3+dfsg-1
libgsl2:amd64	2.3+dfsg-1
libgsm1:amd64	1.0.13-4+b2
libgssapi-krb5-2:amd64	1.15-1+deb9u1
libgstreamer-plugins-bad1.0-0:amd64	1.10.4-1
libgstreamer-plugins-base1.0-0:amd64	1.10.4-1
libgstreamer1.0-0:amd64	1.10.4-1
libgtk-3-0:amd64	3.22.11-1
libgtk-3-bin	3.22.11-1
libgtk-3-common	3.22.11-1
libgtk-vnc-2.0-0:amd64	0.6.0-3
libgtk2.0-0:amd64	2.24.31-2
libgtk2.0-bin	2.24.31-2
libgtk2.0-common	2.24.31-2
libgts-0.7-5:amd64	0.7.6+darcs121130-4
libgts-bin	0.7.6+darcs121130-4
libgudev-1.0-0:amd64	230-3
libgvc6	2.38.0-17
libgvnc-1.0-0:amd64	0.6.0-3
libgvpr2	2.38.0-17
libharfbuzz0b:amd64	1.4.2-1
libhdf5-100:amd64	1.10.0-patch1+docs-3+deb9u1
libhdf5-cpp-100:amd64	1.10.0-patch1+docs-3+deb9u1
libhdf5-dev	1.10.0-patch1+docs-3+deb9u1
libhogweed4:amd64	3.3-1+b2
libhtml-form-perl	6.03-1
libhtml-format-perl	2.12-1
libhtml-parser-perl	3.72-3
libhtml-tagset-perl	3.20-3
libhtml-tree-perl	5.03-2
libhttp-cookies-perl	6.01-1
libhttp-daemon-perl	6.01-1
libhttp-date-perl	6.02-1
libhttp-message-perl	6.11-1
libhttp-negotiate-perl	6.00-2
libhwloc-dev:amd64	1.11.5-1
libhwloc-plugins	1.11.5-1
libhwloc5:amd64	1.11.5-1
libibdm1	1.5.7-5
libibmad5	1.3.12-2
libibnetdisc5	1.6.7-1
libibumad3	1.3.10.2-2
libibverbs-dev	1.2.1-2
libibverbs1	1.2.1-2
libibverbs1-dbg	1.2.1-2
libice-dev:amd64	2:1.0.9-2
libice6:amd64	2:1.0.9-2
libicu-dev	57.1-6+deb9u2
libicu57:amd64	57.1-6+deb9u2
libidn11:amd64	1.33-1
libidn2-0:amd64	0.16-1+deb9u1
libiec61883-0:amd64	1.2.0-2
libijs-0.35:amd64	0.35-12
libilmbase12:amd64	2.2.0-12
libinotifytools0	3.14-2
libinput-bin	1.6.3-1
libinput10:amd64	1.6.3-1
libio-html-perl	1.001-1
libio-socket-ssl-perl	2.044-1
libip4tc0:amd64	1.6.0+snapshot20161117-6
libip6tc0:amd64	1.6.0+snapshot20161117-6
libipathverbs-dev	1.3-2
libipathverbs1	1.3-2
libipc-system-simple-perl	1.25-3
libiptc0:amd64	1.6.0+snapshot20161117-6
libisc-export160	1:9.10.3.dfsg.P4-12.3+deb9u4
libisc160:amd64	1:9.10.3.dfsg.P4-12.3+deb9u4
libisccc140:amd64	1:9.10.3.dfsg.P4-12.3+deb9u4
libisccfg140:amd64	1:9.10.3.dfsg.P4-12.3+deb9u4
libiscsi7:amd64	1.17.0-1.1
libisl15:amd64	0.18-1
libisns0:amd64	0.97-2
libitm1:amd64	6.3.0-18+deb9u1
libjack-jackd2-0:amd64	1.9.10+20150825git1ed50c92~dfsg-5
libjbig0:amd64	2.1-3.1+b2
libjbig2dec0:amd64	0.13-4.1
libjemalloc1	3.6.0-9.1
libjpeg-dev	1:1.5.1-2
libjpeg62-turbo:amd64	1:1.5.1-2
libjpeg62-turbo-dev:amd64	1:1.5.1-2
libjq1:amd64	1.5+dfsg-1.3
libjs-jquery	3.1.1-2
libjs-jquery-ui	1.12.1+dfsg-4
libjs-modernizr	2.6.2+ds1-1
libjs-underscore	1.8.3~dfsg-1
libjson-glib-1.0-0:amd64	1.2.6-1
libjson-glib-1.0-common	1.2.6-1
libjson-perl	2.90-1
libjson-xs-perl	3.030-1
libjsoncpp1:amd64	1.7.4-3
libk5crypto3:amd64	1.15-1+deb9u1
libkate1:amd64	0.4.1-7+b1
libkeyutils1:amd64	1.5.9-9
libklibc	2.0.4-9
libkmod2:amd64	23-2
libkrb5-3:amd64	1.15-1+deb9u1
libkrb5support0:amd64	1.15-1+deb9u1
libksba8:amd64	1.3.5-2
liblcms2-2:amd64	2.8-4
libldap-2.4-2:amd64	2.4.44+dfsg-5+deb9u1
libldap-common	2.4.44+dfsg-5+deb9u1
libleveldb1v5:amd64	1.18-5
liblilv-0-0	0.24.2~dfsg0-1
liblinear3:amd64	2.1.0+dfsg-2
libllvm3.9:amd64	1:3.9.1-9
liblocale-gettext-perl	1.07-3+b1
liblockfile-bin	1.14-1+b1
liblockfile1:amd64	1.14-1+b1
liblogging-stdlog0:amd64	1.0.5-2+b2
liblognorm5:amd64	2.0.1-1.1+b1
liblqr-1-0:amd64	0.4.2-2+b2
liblsan0:amd64	6.3.0-18+deb9u1
libltdl-dev:amd64	2.4.6-2
libltdl7:amd64	2.4.6-2
liblua5.1-0:amd64	5.1.5-8.1+b2
liblua5.3-0:amd64	5.3.3-1
liblvm2app2.2:amd64	2.02.168-2
liblwp-mediatypes-perl	6.02-1
liblwp-protocol-https-perl	6.06-2
liblwres141:amd64	1:9.10.3.dfsg.P4-12.3+deb9u4
liblz4-1:amd64	0.0~r131-2+b1
liblzma-dev:amd64	5.2.2-1.2+b1
liblzma5:amd64	5.2.2-1.2+b1
liblzo2-2:amd64	2.08-1.2+b2
libm17n-0:amd64	1.7.0-3+b1
libmagic-mgc	1:5.30-1+deb9u1
libmagic1:amd64	1:5.30-1+deb9u1
libmagickcore-6.q16-3:amd64	8:6.9.7.4+dfsg-11+deb9u4
libmagickwand-6.q16-3:amd64	8:6.9.7.4+dfsg-11+deb9u4
libmail-sendmail-perl	0.79.16-2
libmailtools-perl	2.18-1
libmariadbclient18:amd64	10.1.26-0+deb9u1
libmjpegutils-2.1-0	1:2.1.0+debian-5
libmlx4-1	1.2.1-1
libmlx4-dev	1.2.1-1
libmms0:amd64	0.6.4-2
libmng1:amd64	1.0.10+dfsg-3.1+b5
libmnl0:amd64	1.0.4-2
libmodplug1:amd64	1:0.8.8.5-3
libmount1:amd64	2.29.2-1+deb9u1
libmp3lame0:amd64	3.99.5+repack1-9+b2
libmpc3:amd64	1.0.3-1+b2
libmpcdec6:amd64	2:0.1~r495-1+b1
libmpdec2:amd64	2.4.2-1
libmpeg2encpp-2.1-0	1:2.1.0+debian-5
libmpfr4:amd64	3.1.5-1
libmpg123-0:amd64	1.23.8-1+b1
libmplex2-2.1-0	1:2.1.0+debian-5
libmpx2:amd64	6.3.0-18+deb9u1
libmtdev1:amd64	1.1.5-1+b1
libmthca-dev	1.0.6-1.1
libmthca1	1.0.6-1.1
libncurses5:amd64	6.0+20161126-1+deb9u2
libncurses5-dev:amd64	6.0+20161126-1+deb9u2
libncursesw5:amd64	6.0+20161126-1+deb9u2
libnet-dbus-perl	1.1.0-4+b1
libnet-http-perl	6.12-1
libnet-smtp-ssl-perl	1.04-1
libnet-ssleay-perl	1.80-1
libnetcdf-dev	1:4.4.1.1-2
libnetcdf11	1:4.4.1.1-2
libnetcf1	1:0.2.8-1+b2
libnetfilter-conntrack3:amd64	1.0.6-2
libnettle6:amd64	3.3-1+b2
libnewt0.52:amd64	0.52.19-1+b1
libnfnetlink0:amd64	1.0.1-3
libnfs8:amd64	1.11.0-2
libnfsidmap2:amd64	0.25-5.1
libnghttp2-14:amd64	1.18.1-1
libnl-3-200:amd64	3.2.27-2
libnl-route-3-200:amd64	3.2.27-2
libnotify4:amd64	0.7.7-2
libnpth0:amd64	1.3-1
libnspr4:amd64	2:4.12-6
libnss-ldapd:amd64	0.9.7-2
libnss3:amd64	2:3.26.2-1.1+deb9u1
libnuma-dev:amd64	2.0.11-2.1
libnuma1:amd64	2.0.11-2.1
liboar-perl	2.5.7-2~bpo8+1
libofa0:amd64	0.9.3-15
libogg0:amd64	1.3.2-1
libonig4:amd64	6.1.3-2
libopenal-data	1:1.17.2-4
libopenal1:amd64	1:1.17.2-4+b2
libopenblas-base	0.2.19-3
libopenblas-dev	0.2.19-3
libopencv-calib3d2.4v5:amd64	2.4.9.1+dfsg1-2
libopencv-core2.4v5:amd64	2.4.9.1+dfsg1-2
libopencv-features2d2.4v5:amd64	2.4.9.1+dfsg1-2
libopencv-flann2.4v5:amd64	2.4.9.1+dfsg1-2
libopencv-highgui2.4-deb0:amd64	2.4.9.1+dfsg1-2
libopencv-imgproc2.4v5:amd64	2.4.9.1+dfsg1-2
libopencv-objdetect2.4v5:amd64	2.4.9.1+dfsg1-2
libopencv-video2.4v5:amd64	2.4.9.1+dfsg1-2
libopenexr22:amd64	2.2.0-11+b1
libopenipmi0	2.0.22-1.1
libopenjp2-7:amd64	2.1.2-1.1+deb9u2
libopenmpi-dev	2.0.2-2
libopenmpi2:amd64	2.0.2-2
libopenmpt0:amd64	0.2.7386~beta20.3-3+deb9u2
libopensm5a	3.3.20-1
libopts25:amd64	1:5.18.12-3
libopus0:amd64	1.2~alpha2-1
liborc-0.4-0:amd64	1:0.4.26-2
libosinfo-1.0-0:amd64	1.0.0-2
libosmcomp3	3.3.20-1
libosmvendor4	3.3.20-1
libotf0:amd64	0.9.13-3+b1
libp11-kit0:amd64	0.23.3-2
libpam-cap:amd64	1:2.25-1
libpam-ldapd:amd64	0.9.7-2
libpam-modules:amd64	1.1.8-3.6
libpam-modules-bin	1.1.8-3.6
libpam-runtime	1.1.8-3.6
libpam-systemd:amd64	232-25+deb9u3
libpam0g:amd64	1.1.8-3.6
libpango-1.0-0:amd64	1.40.5-1
libpangocairo-1.0-0:amd64	1.40.5-1
libpangoft2-1.0-0:amd64	1.40.5-1
libpaper-utils	1.1.24+nmu5
libpaper1:amd64	1.1.24+nmu5
libparted2:amd64	3.2-17
libpathplan4	2.38.0-17
libpcap0.8:amd64	1.8.1-3
libpci3:amd64	1:3.5.2-1
libpciaccess0:amd64	0.13.4-1+b2
libpcre16-3:amd64	2:8.39-3
libpcre3:amd64	2:8.39-3
libpcre3-dev:amd64	2:8.39-3
libpcre32-3:amd64	2:8.39-3
libpcrecpp0v5:amd64	2:8.39-3
libpcsclite1:amd64	1.8.20-1
libperl-dev	5.24.1-3+deb9u3
libperl5.24:amd64	5.24.1-3+deb9u3
libpgm-5.2-0:amd64	5.2.122~dfsg-2
libphodav-2.0-0:amd64	2.1-1
libphodav-2.0-common	2.1-1
libpipeline1:amd64	1.4.1-2
libpixman-1-0:amd64	0.34.0-1
libpng-dev:amd64	1.6.28-1
libpng-tools	1.6.28-1
libpng16-16:amd64	1.6.28-1
libpolkit-agent-1-0:amd64	0.105-18
libpolkit-backend-1-0:amd64	0.105-18
libpolkit-gobject-1-0:amd64	0.105-18
libpopt0:amd64	1.16-10+b2
libpostproc54:amd64	7:3.2.10-1~deb9u1
libpq5:amd64	9.6.7-0+deb9u1
libprocps6:amd64	2:3.3.12-3
libproxy1v5:amd64	0.4.14-2
libpsl5:amd64	0.17.0-3
libpsm-infinipath1	3.3+19.g67c0807.open-3
libpthread-stubs0-dev:amd64	0.3-4
libpulse-mainloop-glib0:amd64	10.0-1+deb9u1
libpulse0:amd64	10.0-1+deb9u1
libpython-all-dev:amd64	2.7.13-2
libpython-dev:amd64	2.7.13-2
libpython-stdlib:amd64	2.7.13-2
libpython2.7:amd64	2.7.13-2+deb9u2
libpython2.7-dev:amd64	2.7.13-2+deb9u2
libpython2.7-minimal:amd64	2.7.13-2+deb9u2
libpython2.7-stdlib:amd64	2.7.13-2+deb9u2
libpython3-dev:amd64	3.5.3-1
libpython3-stdlib:amd64	3.5.3-1
libpython3.5:amd64	3.5.3-1
libpython3.5-dev:amd64	3.5.3-1
libpython3.5-minimal:amd64	3.5.3-1
libpython3.5-stdlib:amd64	3.5.3-1
libqt4-dbus:amd64	4:4.8.7+dfsg-11
libqt4-xml:amd64	4:4.8.7+dfsg-11
libqt5clucene5:amd64	5.7.1-1
libqt5core5a:amd64	5.7.1+dfsg-3+b1
libqt5dbus5:amd64	5.7.1+dfsg-3+b1
libqt5designer5:amd64	5.7.1-1
libqt5gui5:amd64	5.7.1+dfsg-3+b1
libqt5help5:amd64	5.7.1-1
libqt5multimedia5:amd64	5.7.1~20161021-2
libqt5multimediawidgets5:amd64	5.7.1~20161021-2
libqt5network5:amd64	5.7.1+dfsg-3+b1
libqt5opengl5:amd64	5.7.1+dfsg-3+b1
libqt5printsupport5:amd64	5.7.1+dfsg-3+b1
libqt5qml5:amd64	5.7.1-2+b2
libqt5quick5:amd64	5.7.1-2+b2
libqt5sql5:amd64	5.7.1+dfsg-3+b1
libqt5sql5-sqlite:amd64	5.7.1+dfsg-3+b1
libqt5svg5:amd64	5.7.1~20161021-2+b2
libqt5test5:amd64	5.7.1+dfsg-3+b1
libqt5webkit5:amd64	5.7.1+dfsg-1
libqt5widgets5:amd64	5.7.1+dfsg-3+b1
libqt5xml5:amd64	5.7.1+dfsg-3+b1
libqtcore4:amd64	4:4.8.7+dfsg-11
libqtdbus4:amd64	4:4.8.7+dfsg-11
libqtgui4:amd64	4:4.8.7+dfsg-11
libquadmath0:amd64	6.3.0-18+deb9u1
librados2	10.2.5-7.2
libradosstriper1	10.2.5-7.2
libraw1394-11:amd64	2.1.2-1+b1
librbd1	10.2.5-7.2
librdmacm1	1.1.0-2
libreadline-dev:amd64	7.0-3
libreadline5:amd64	5.2+dfsg-3+b1
libreadline6:amd64	6.3-9
libreadline7:amd64	7.0-3
librest-0.7-0:amd64	0.8.0-2
librgw2	10.2.5-7.2
librsvg2-2:amd64	2.40.16-1+b1
librsvg2-common:amd64	2.40.16-1+b1
librtmp1:amd64	2.4+20151223.gitfa8646d.1-1+b1
librubberband2:amd64	1.8.1-7
libruby	1:2.3.3
libruby2.3:amd64	2.3.3-1+deb9u2
libsamplerate0:amd64	0.1.8-8+b2
libsasl2-2:amd64	2.1.27~101-g0780600+dfsg-3
libsasl2-modules:amd64	2.1.27~101-g0780600+dfsg-3
libsasl2-modules-db:amd64	2.1.27~101-g0780600+dfsg-3
libsbc1:amd64	1.3-2
libsdl1.2debian:amd64	1.2.15+dfsg1-4
libsdl2-2.0-0:amd64	2.0.5+dfsg1-2
libseccomp2:amd64	2.3.1-2.1
libselinux1:amd64	2.6-3+b3
libsemanage-common	2.6-2
libsemanage1:amd64	2.6-2
libsensors4:amd64	1:3.4.0-4
libsepol1:amd64	2.6-2
libserd-0-0:amd64	0.26.0~dfsg0-1
libserf-1-1:amd64	1.3.9-3
libshine3:amd64	3.1.0-5
libshout3:amd64	2.3.1-3
libsigsegv2:amd64	2.10-5
libslang2:amd64	2.3.1-5
libslang2-modules:amd64	2.3.1-5
libsm-dev:amd64	2:1.2.2-1+b3
libsm6:amd64	2:1.2.2-1+b3
libsmartcols1:amd64	2.29.2-1+deb9u1
libsmbios2	2.3.1-1+b1
libsnappy1v5:amd64	1.1.3-3
libsndfile1:amd64	1.0.27-3
libsndio6.1:amd64	1.1.0-3
libsnmp-base	5.7.3+dfsg-1.7
libsnmp30:amd64	5.7.3+dfsg-1.7
libsodium18:amd64	1.0.11-2
libsord-0-0:amd64	0.16.0~dfsg0-1+b1
libsoundtouch1:amd64	1.9.2-2+deb9u1
libsoup-gnome2.4-1:amd64	2.56.0-2+deb9u1
libsoup2.4-1:amd64	2.56.0-2+deb9u1
libsoxr0:amd64	0.1.2-2
libspandsp2:amd64	0.0.6+dfsg-0.1
libspeex1:amd64	1.2~rc1.2-1+b2
libspice-client-glib-2.0-8:amd64	0.33-3.3
libspice-client-gtk-3.0-5:amd64	0.33-3.3
libspice-server1:amd64	0.12.8-2.1+deb9u1
libsqlite0	2.8.17-14
libsqlite3-0:amd64	3.16.2-5+deb9u1
libsratom-0-0:amd64	0.6.0~dfsg0-1
libsrtp0	1.4.5~20130609~dfsg-2
libss2:amd64	1.43.4-2
libssh-gcrypt-4:amd64	0.7.3-2
libssh2-1:amd64	1.7.0-1
libssl-dev:amd64	1.1.0f-3+deb9u2
libssl-doc	1.1.0f-3+deb9u2
libssl1.0.0:amd64	1.0.1t-1+deb8u6
libssl1.0.2:amd64	1.0.2l-2+deb9u3
libssl1.1:amd64	1.1.0f-3+deb9u2
libstdc++-6-dev:amd64	6.3.0-18+deb9u1
libstdc++6:amd64	6.3.0-18+deb9u1
libsvn1:amd64	1.9.5-1+deb9u1
libswitch-perl	2.17-2
libswresample2:amd64	7:3.2.10-1~deb9u1
libswscale4:amd64	7:3.2.10-1~deb9u1
libsys-hostname-long-perl	1.5-1
libsysfs2:amd64	2.1.0+repack-4+b2
libsystemd0:amd64	232-25+deb9u3
libsz2:amd64	0.3.2-1
libtag1v5:amd64	1.11.1+dfsg.1-0.1
libtag1v5-vanilla:amd64	1.11.1+dfsg.1-0.1
libtasn1-6:amd64	4.10-1.1+deb9u1
libtbb2:amd64	4.3~20150611-2
libtcl8.6:amd64	8.6.6+dfsg-1+b1
libtcmalloc-minimal4	2.5-2.2
libterm-readkey-perl	2.37-1
libterm-readline-gnu-perl	1.35-1
libtext-charwidth-perl	0.04-7+b5
libtext-iconv-perl	1.7-5+b4
libtext-wrapi18n-perl	0.06-7.1
libthai-data	0.1.26-1
libthai0:amd64	0.1.26-1
libtheora0:amd64	1.1.1+dfsg.1-14+b1
libtie-ixhash-perl	1.23-2
libtiff5:amd64	4.0.8-2+deb9u2
libtimedate-perl	2.3000-2
libtinfo-dev:amd64	6.0+20161126-1+deb9u2
libtinfo5:amd64	6.0+20161126-1+deb9u2
libtirpc1:amd64	0.2.5-1.2
libtk8.6:amd64	8.6.6-1+b1
libtool	2.4.6-2
libtsan0:amd64	6.3.0-18+deb9u1
libtwolame0:amd64	0.3.13-2
libtxc-dxtn-s2tc:amd64	1.0+git20151227-2
libtypes-serialiser-perl	1.0-1
libubsan0:amd64	6.3.0-18+deb9u1
libudev1:amd64	232-25+deb9u3
libunbound2:amd64	1.6.0-3+deb9u1
libunistring0:amd64	0.9.6+really0.9.3-0.1
libunwind8	1.1-4.1
liburcu4:amd64	0.9.3-1
liburi-perl	1.71-1
libusb-0.1-4:amd64	2:0.1.12-30
libusb-1.0-0:amd64	2:1.0.21-1
libusbredirhost1:amd64	0.7.1-1
libusbredirparser1:amd64	0.7.1-1
libustr-1.0-1:amd64	1.0.4-6
libutempter0:amd64	1.1.6-3
libuuid1:amd64	2.29.2-1+deb9u1
libuv1:amd64	1.9.1-3
libv4l-0:amd64	1.12.3-1
libv4lconvert0:amd64	1.12.3-1
libva-drm1:amd64	1.7.3-2
libva-x11-1:amd64	1.7.3-2
libva1:amd64	1.7.3-2
libvdeplug2	2.3.2+r586-2.1
libvdpau-va-gl1:amd64	0.4.2-1
libvdpau1:amd64	1.1.1-6
libvirt-clients	3.0.0-4+deb9u3
libvirt-daemon	3.0.0-4+deb9u3
libvirt-daemon-system	3.0.0-4+deb9u3
libvirt-dev	3.0.0-4+deb9u3
libvirt-glib-1.0-0:amd64	1.0.0-1
libvirt0	3.0.0-4+deb9u3
libvisual-0.4-0:amd64	0.4.0-10
libvo-aacenc0:amd64	0.1.3-1
libvo-amrwbenc0:amd64	0.1.3-1
libvorbis0a:amd64	1.3.5-4+deb9u2
libvorbisenc2:amd64	1.3.5-4+deb9u2
libvorbisfile3:amd64	1.3.5-4+deb9u2
libvpx4:amd64	1.6.1-3+deb9u1
libwacom-bin	0.22-1+b1
libwacom-common	0.22-1
libwacom2:amd64	0.22-1+b1
libwavpack1:amd64	5.0.0-2+deb9u1
libwayland-client0:amd64	1.12.0-1
libwayland-cursor0:amd64	1.12.0-1
libwayland-egl1-mesa:amd64	13.0.6-1+b2
libwayland-server0:amd64	1.12.0-1
libwebp6:amd64	0.5.2-1
libwebpdemux2:amd64	0.5.2-1
libwebpmux2:amd64	0.5.2-1
libwebrtc-audio-processing1:amd64	0.3-1
libwildmidi-config	0.4.0-2
libwildmidi2:amd64	0.4.0-2+b2
libwrap0:amd64	7.6.q-26
libwww-perl	6.15-1
libwww-robotrules-perl	6.01-1
libwxbase3.0-0v5:amd64	3.0.2+dfsg-4
libwxgtk3.0-0v5:amd64	3.0.2+dfsg-4
libx11-6:amd64	2:1.6.4-3
libx11-data	2:1.6.4-3
libx11-dev:amd64	2:1.6.4-3
libx11-doc	2:1.6.4-3
libx11-protocol-perl	0.56-7
libx11-xcb1:amd64	2:1.6.4-3
libx264-148:amd64	2:0.148.2748+git97eaef2-1
libx265-95:amd64	2.1-2+b2
libx86-1:amd64	1.1+ds1-10.2
libxapian30:amd64	1.4.3-2
libxau-dev:amd64	1:1.0.8-1
libxau6:amd64	1:1.0.8-1
libxaw7:amd64	2:1.0.13-1+b2
libxcb-dri2-0:amd64	1.12-1
libxcb-dri3-0:amd64	1.12-1
libxcb-glx0:amd64	1.12-1
libxcb-icccm4:amd64	0.4.1-1
libxcb-image0:amd64	0.4.0-1+b2
libxcb-keysyms1:amd64	0.4.0-1+b2
libxcb-present0:amd64	1.12-1
libxcb-randr0:amd64	1.12-1
libxcb-render-util0:amd64	0.3.9-1
libxcb-render0:amd64	1.12-1
libxcb-shape0:amd64	1.12-1
libxcb-shm0:amd64	1.12-1
libxcb-sync1:amd64	1.12-1
libxcb-util0:amd64	0.3.8-3+b2
libxcb-xfixes0:amd64	1.12-1
libxcb-xinerama0:amd64	1.12-1
libxcb-xkb1:amd64	1.12-1
libxcb1:amd64	1.12-1
libxcb1-dev:amd64	1.12-1
libxcomposite1:amd64	1:0.4.4-2
libxcursor1:amd64	1:1.1.14-1+deb9u1
libxdamage1:amd64	1:1.1.4-2+b3
libxdmcp-dev:amd64	1:1.1.2-3
libxdmcp6:amd64	1:1.1.2-3
libxdot4	2.38.0-17
libxen-4.8:amd64	4.8.3+comet2+shim4.10.0+comet3-1+deb9u5
libxen-dev:amd64	4.8.3+comet2+shim4.10.0+comet3-1+deb9u5
libxenstore3.0:amd64	4.8.3+comet2+shim4.10.0+comet3-1+deb9u5
libxext6:amd64	2:1.3.3-1+b2
libxfixes3:amd64	1:5.0.3-1
libxft2:amd64	2.3.2-1+b2
libxi6:amd64	2:1.7.9-1
libxinerama1:amd64	2:1.1.3-1+b3
libxkbcommon-x11-0:amd64	0.7.1-2~deb9u1
libxkbcommon0:amd64	0.7.1-2~deb9u1
libxml-parser-perl	2.44-2+b1
libxml-twig-perl	1:3.50-1
libxml-xpathengine-perl	0.13-1
libxml2:amd64	2.9.4+dfsg1-2.2+deb9u2
libxml2-utils	2.9.4+dfsg1-2.2+deb9u2
libxmu6:amd64	2:1.1.2-2
libxmuu1:amd64	2:1.1.2-2
libxpm4:amd64	1:3.5.12-1
libxrandr2:amd64	2:1.5.1-1
libxrender1:amd64	1:0.9.10-1
libxshmfence1:amd64	1.2-1+b2
libxslt1.1:amd64	1.1.29-2.1
libxss1:amd64	1:1.2.2-1
libxt-dev:amd64	1:1.1.5-1
libxt6:amd64	1:1.1.5-1
libxtables12:amd64	1.6.0+snapshot20161117-6
libxtst6:amd64	2:1.2.3-1
libxv1:amd64	2:1.0.11-1
libxvidcore4:amd64	2:1.3.4-1+b2
libxxf86dga1:amd64	2:1.1.4-1+b3
libxxf86vm1:amd64	1:1.1.4-1+b2
libyajl-dev:amd64	2.1.0-2+b3
libyajl2:amd64	2.1.0-2+b3
libyaml-0-2:amd64	0.1.7-2
libzbar0:amd64	0.10+doc-10.1
libzmq5:amd64	4.2.1-4
libzstd1	1.1.2-1
libzvbi-common	0.2.35-13
libzvbi0:amd64	0.2.35-13
linux-base	4.5
linux-compiler-gcc-6-x86	4.9.82-1+deb9u3
linux-cpupower	4.9.82-1+deb9u3
linux-headers-4.9.0-6-amd64	4.9.82-1+deb9u3
linux-headers-4.9.0-6-common	4.9.82-1+deb9u3
linux-headers-amd64	4.9+80+deb9u4
linux-image-4.9.0-6-amd64	4.9.82-1+deb9u3
linux-image-amd64	4.9+80+deb9u4
linux-kbuild-4.9	4.9.82-1+deb9u3
linux-libc-dev:amd64	4.9.82-1+deb9u3
linux-perf	4.9+80+deb9u4
linux-perf-4.9	4.9.82-1+deb9u3
linux-tools	4.9+80+deb9u4
littler	0.3.1-1
locales	2.24-11+deb9u3
login	1:4.4-4.1
logrotate	3.11.0-0.1
lsb-base	9.20161125
lsb-release	9.20161125
lshw	02.18-0.1
lsof	4.89+dfsg-0.1
m17n-db	1.7.0-2
m4	1.4.18-1
make	4.1-9.1
man-db	2.7.6.1-2
manpages	4.10-2
manpages-dev	4.10-2
mariadb-client-10.1	10.1.26-0+deb9u1
mariadb-client-core-10.1	10.1.26-0+deb9u1
mariadb-common	10.1.26-0+deb9u1
mawk	1.3.3-17+b3
megacli	8.07.14-1
megactl	0.4.1+svn20090725.r6-6
mesa-utils	8.3.0-3
mesa-va-drivers:amd64	13.0.6-1+b2
mesa-vdpau-drivers:amd64	13.0.6-1+b2
mime-support	3.60
module-assistant	0.11.9
mount	2.29.2-1+deb9u1
mpi-default-bin	1.8
mpi-default-dev	1.8
mtools	4.0.18-2+b1
multiarch-support	2.24-11+deb9u3
mysql-common	5.8+1.0.2
nano	2.7.4-1
ncurses-base	6.0+20161126-1+deb9u2
ncurses-bin	6.0+20161126-1+deb9u2
ncurses-term	6.0+20161126-1+deb9u2
ndiff	7.40-1
net-tools	1.60+git20161116.90da8a0-1
netbase	5.4
netcat-openbsd	1.130-3
nfs-common	1:1.3.4-2.1
nmap	7.40-1
notification-daemon	3.20.0-1+b1
nscd	2.24-11+deb9u3
nslcd	0.9.7-2
nslcd-utils	0.9.7-2
ntp	1:4.2.8p10+dfsg-3+deb9u2
ntpdate	1:4.2.8p10+dfsg-3+deb9u2
numactl	2.0.11-2.1
nuttcp	6.1.2-4+b1
oar-common	2.5.7-2~bpo8+1
oar-node	2.5.7-2~bpo8+1
ocl-icd-libopencl1:amd64	2.2.11-1
ohai	8.21.0-1
open-iscsi	2.0.874-3~deb9u1
opencl-c-headers	2.1-1
opencl-clhpp-headers	2.0.10-1
opencl-headers	2.1-1
openipmi	2.0.22-1.1
openjdk-8-jdk:amd64	8u162-b12-1~deb9u1
openjdk-8-jdk-headless:amd64	8u162-b12-1~deb9u1
openjdk-8-jre:amd64	8u162-b12-1~deb9u1
openjdk-8-jre-headless:amd64	8u162-b12-1~deb9u1
openmpi-bin	2.0.2-2
openmpi-common	2.0.2-2
openssh-client	1:7.4p1-10+deb9u3
openssh-server	1:7.4p1-10+deb9u3
openssh-sftp-server	1:7.4p1-10+deb9u3
openssl	1.1.0f-3+deb9u2
os-prober	1.76~deb9u1
osinfo-db	0.20180226-1~deb9u1
parallel	20161222-1
parted	3.2-17
passwd	1:4.4-4.1
patch	2.7.5-1+b2
pciutils	1:3.5.2-1
perftest	3.4+0.6.gc3435c2-1
perl	5.24.1-3+deb9u3
perl-base	5.24.1-3+deb9u3
perl-modules-5.24	5.24.1-3+deb9u3
perl-openssl-defaults:amd64	3
php-cli	1:7.0+49
php-common	1:49
php7.0-cli	7.0.27-0+deb9u1
php7.0-common	7.0.27-0+deb9u1
php7.0-json	7.0.27-0+deb9u1
php7.0-opcache	7.0.27-0+deb9u1
php7.0-readline	7.0.27-0+deb9u1
pinentry-curses	1.0.0-2
pkg-config	0.29-4+b1
pm-utils	1.4.1-17
po-debconf	1.0.20
policykit-1	0.105-18
poppler-data	0.4.7-8
postfix	3.1.8-0+deb9u1
postfix-sqlite	3.1.8-0+deb9u1
postgresql-client	9.6+181+deb9u1
postgresql-client-9.6	9.6.7-0+deb9u1
postgresql-client-common	181+deb9u1
powermgmt-base	1.31+nmu1
procps	2:3.3.12-3
psmisc	22.21-2.1+b2
pv	1.6.0-1+b1
python	2.7.13-2
python-all	2.7.13-2
python-all-dev	2.7.13-2
python-backports-shutil-get-terminal-size	1.0.0-3
python-blinker	1.3.dfsg2-1
python-bs4	4.5.3-1
python-cairo	1.8.8-2.2
python-cephfs	10.2.5-7.2
python-cffi-backend	1.9.1-2
python-chardet	2.3.0-2
python-click	6.6-1
python-colorama	0.3.7-1
python-crypto	2.6.1-7
python-cryptography	1.7.1-3
python-cycler	0.10.0-1
python-dateutil	2.5.3-2
python-dbus	1.2.4-1+b1
python-decorator	4.0.11-1
python-dev	2.7.13-2
python-egenix-mxdatetime	3.2.9-1
python-egenix-mxtools	3.2.9-1
python-enum34	1.1.6-1
python-flask	0.12.1-1
python-functools32	3.2.3.2-3
python-gi	3.22.0-2
python-glade2	2.24.0-5.1
python-gobject-2	2.28.6-13
python-gtk2	2.24.0-5.1
python-html5lib	0.999999999-1
python-httplib2	0.9.2+dfsg-1
python-idna	2.2-1
python-imaging	4.0.0-4
python-ipaddr	2.1.11-2
python-ipaddress	1.0.17-1
python-ipython	5.1.0-3
python-ipython-genutils	0.1.0-2
python-itsdangerous	0.24+dfsg1-2
python-jinja2	2.8-1
python-keyring	10.1-1
python-keyrings.alt	1.3-1
python-libsmbios	2.3.1-1
python-libvirt	3.0.0-2
python-libxml2	2.9.4+dfsg1-2.2+deb9u2
python-lxml	3.7.1-1
python-markupsafe	0.23-3
python-matplotlib	2.0.0+dfsg1-2
python-matplotlib-data	2.0.0+dfsg1-2
python-matplotlib-doc	2.0.0+dfsg1-2
python-minimal	2.7.13-2
python-mysqldb	1.3.7-1.1
python-networkx	1.11-2
python-numpy	1:1.12.1-3
python-openssl	16.2.0-1
python-paramiko	2.0.0-1
python-pathlib2	2.2.0+really2.1.0-1
python-pexpect	4.2.1-1
python-pickleshare	0.7.4-1
python-pil:amd64	4.0.0-4
python-pip	9.0.1-2
python-pip-whl	9.0.1-2
python-pkg-resources	33.1.1-1
python-prompt-toolkit	1.0.9-1
python-psycopg2	2.6.2-1
python-ptyprocess	0.5.1-1
python-pyasn1	0.1.9-2
python-pygments	2.2.0+dfsg-1
python-pygraphviz	1.4~rc1-1
python-pyinotify	0.9.6-1
python-pyparsing	2.1.10+dfsg1-1
python-rados	10.2.5-7.2
python-rbd	10.2.5-7.2
python-requests	2.12.4-1
python-scipy	0.18.1-2
python-secretstorage	2.3.1-2
python-setuptools	33.1.1-1
python-simplegeneric	0.8.1-1
python-simplejson	3.10.0-1
python-six	1.10.0-3
python-sqlite	1.0.1-12
python-subprocess32	3.2.7-2
python-tables-data	3.3.0-5
python-tk	2.7.13-1
python-traitlets	4.3.1-1
python-tz	2016.7-0.3
python-urllib3	1.19.1-1
python-wcwidth	0.1.7+dfsg1-1
python-webencodings	0.5-2
python-werkzeug	0.11.15+dfsg1-1
python-wheel	0.29.0-2
python-xdg	0.25-4
python-yaml	3.12-1
python2.7	2.7.13-2+deb9u2
python2.7-dev	2.7.13-2+deb9u2
python2.7-minimal	2.7.13-2+deb9u2
python3	3.5.3-1
python3-bs4	4.5.3-1
python3-cffi	1.9.1-2
python3-cffi-backend	1.9.1-2
python3-chardet	2.3.0-2
python3-crypto	2.6.1-7
python3-cryptography	1.7.1-3
python3-cycler	0.10.0-1
python3-dateutil	2.5.3-2
python3-dbus	1.2.4-1+b1
python3-decorator	4.0.11-1
python3-dev	3.5.3-1
python3-gi	3.22.0-2
python3-html5lib	0.999999999-1
python3-idna	2.2-1
python3-ipython	5.1.0-3
python3-ipython-genutils	0.1.0-2
python3-keyring	10.1-1
python3-keyrings.alt	1.3-1
python3-lxml	3.7.1-1
python3-matplotlib	2.0.0+dfsg1-2
python3-minimal	3.5.3-1
python3-numexpr	2.6.1-4
python3-numpy	1:1.12.1-3
python3-pandas	0.19.2-5.1
python3-pandas-lib	0.19.2-5.1
python3-pexpect	4.2.1-1
python3-pickleshare	0.7.4-1
python3-pil:amd64	4.0.0-4
python3-pip	9.0.1-2
python3-pkg-resources	33.1.1-1
python3-ply	3.9-1
python3-prompt-toolkit	1.0.9-1
python3-ptyprocess	0.5.1-1
python3-pyasn1	0.1.9-2
python3-pycparser	2.17-2
python3-pygments	2.2.0+dfsg-1
python3-pyparsing	2.1.10+dfsg1-1
python3-pyqt5	5.7+dfsg-5
python3-pyqt5.qtmultimedia	5.7+dfsg-5
python3-pyqt5.qtsvg	5.7+dfsg-5
python3-pyqt5.qtwebkit	5.7+dfsg-5
python3-qtpy	1.2.1-2
python3-scipy	0.18.1-2
python3-secretstorage	2.3.1-2
python3-setuptools	33.1.1-1
python3-simplegeneric	0.8.1-1
python3-sip	4.18.1+dfsg-2
python3-six	1.10.0-3
python3-tables	3.3.0-5
python3-tables-lib	3.3.0-5
python3-tk:amd64	3.5.3-1
python3-traitlets	4.3.1-1
python3-tz	2016.7-0.3
python3-virtualenv	15.1.0+ds-1
python3-wcwidth	0.1.7+dfsg1-1
python3-webencodings	0.5-2
python3-wheel	0.29.0-2
python3-xdg	0.25-4
python3.5	3.5.3-1
python3.5-dev	3.5.3-1
python3.5-minimal	3.5.3-1
qdbus	4:4.8.7+dfsg-11
qemu-block-extra:amd64	1:2.8+dfsg-6+deb9u3
qemu-kvm	1:2.8+dfsg-6+deb9u3
qemu-system-common	1:2.8+dfsg-6+deb9u3
qemu-system-x86	1:2.8+dfsg-6+deb9u3
qemu-utils	1:2.8+dfsg-6+deb9u3
qlvnictools	0.0.1-4+b1
qt-at-spi:amd64	0.4.0-5
qt5-gtk-platformtheme:amd64	5.7.1+dfsg-3+b1
qtchooser	63-g13a3d08-1
qtcore4-l10n	4:4.8.7+dfsg-11
qttranslations5-l10n	5.7.1~20161021-1
r-base	3.3.3-1
r-base-core	3.3.3-1
r-base-dev	3.3.3-1
r-base-html	3.3.3-1
r-cran-assertthat	0.1-1
r-cran-boot	1.3-18-2
r-cran-class	7.3-14-1
r-cran-cluster	2.0.5-1
r-cran-codetools	0.2-15-1
r-cran-colorspace	1.3-2-1
r-cran-crayon	1.3.2-1
r-cran-data.table	1.10.0-1
r-cran-dbi	0.5-1-1
r-cran-dichromat	2.0.0-3
r-cran-digest	0.6.11-1
r-cran-dplyr	0.5.0-1
r-cran-foreign	0.8.67-1
r-cran-ggplot2	2.2.1-2
r-cran-gtable	0.2.0-1
r-cran-kernsmooth	2.23-15-2
r-cran-labeling	0.3-1
r-cran-lattice	0.20-34-1
r-cran-lazyeval	0.2.0-1
r-cran-littler	0.3.1-1
r-cran-magrittr	1.5-3
r-cran-mass	7.3-45-1
r-cran-matrix	1.2-7.1-1
r-cran-memoise	1.0.0-1
r-cran-mgcv	1.8-16-1
r-cran-munsell	0.4.3-1
r-cran-nlme	3.1.129-1
r-cran-nnet	7.3-12-1
r-cran-pkgkitten	0.1.4-1
r-cran-plyr	1.8.4-1
r-cran-purrr	0.2.4-1~bpo9+1
r-cran-r6	2.2.0-2
r-cran-rcolorbrewer	1.1-2-1
r-cran-rcpp	0.12.9-1
r-cran-reshape2	1.4.2-1
r-cran-rlang	0.1.6-1~bpo9+1
r-cran-rpart	4.1-10-2
r-cran-rsqlite	1.1-2-1
r-cran-scales	0.4.1-1
r-cran-spatial	7.3-11-1
r-cran-stringi	1.1.2-1
r-cran-stringr	1.1.0-1
r-cran-survival	2.40-1-1
r-cran-tibble	1.2-1
r-cran-tidyr	0.6.1-1
r-doc-html	3.3.3-1
r-recommended	3.3.3-1
rake	10.5.0-2
rdmacm-utils	1.1.0-2
readline-common	7.0-3
rename	0.20-4
ri	1:2.3.3
rpcbind	0.2.3-0.6
rsync	3.1.2-1+deb9u1
rsyslog	8.24.0-1
ruby	1:2.3.3
ruby-addressable	2.4.0-1
ruby-chef-config	12.14.60-2
ruby-dev:amd64	1:2.3.3
ruby-did-you-mean	1.0.0-2
ruby-diff-lcs	1.2.5-2
ruby-domain-name	0.5.20160216-2
ruby-ffi	1.9.10debian-1+b2
ruby-ffi-yajl	2.2.3-2
ruby-fuzzyurl	0.8.0-1
ruby-http-cookie	1.0.2-1
ruby-ipaddress	0.8.3-2
ruby-json	2.0.1+dfsg-3
ruby-mime-types	2.6.1-1
ruby-minitest	5.9.0-1
ruby-mixlib-cli	1.7.0-1
ruby-mixlib-config	2.2.1-1
ruby-mixlib-log	1.7.1-1
ruby-mixlib-shellout	2.2.6-1
ruby-net-ssh	1:3.2.0-1
ruby-net-ssh-gateway	1.2.0-3
ruby-net-ssh-multi	1.2.1-2
ruby-net-telnet	0.1.1-2
ruby-netrc	0.10.3-1
ruby-plist	3.2.0-1
ruby-power-assert	0.3.0-1
ruby-rack	1.6.4-4
ruby-rest-client	1.8.0-3
ruby-rspec	3.5.0c3e0m0s0-1
ruby-rspec-core	3.5.0c3e0m0s0-1
ruby-rspec-expectations	3.5.0c3e0m0s0-1
ruby-rspec-mocks	3.5.0c3e0m0s0-1
ruby-rspec-support	3.5.0c3e0m0s0-1
ruby-sqlite3	1.3.11-2
ruby-systemu	2.6.5-1
ruby-test-unit	3.1.7-2
ruby-thread-order	1.1.0-1
ruby-unf	0.1.4-2
ruby-unf-ext	0.0.7.2-3
ruby2.3	2.3.3-1+deb9u2
ruby2.3-dev:amd64	2.3.3-1+deb9u2
ruby2.3-doc	2.3.3-1+deb9u2
rubygems-integration	1.11
screen	4.5.0-6
seabios	1.10.2-1
sed	4.4-1
sensible-utils	0.0.9+deb9u1
sgml-base	1.29
shared-mime-info	1.8-1
slsh	2.3.1-5
smbios-utils	2.3.1-1+b1
smistrip	0.4.8+dfsg2-15
snmp	5.7.3+dfsg-1.7
snmp-mibs-downloader	1.1+nmu1
spice-client-glib-usb-acl-helper	0.33-3.3
sqlite3	3.16.2-5+deb9u1
srptools	1.0.3-1+b1
srvadmin-base	9.0.1
srvadmin-deng	9.0.1-1
srvadmin-deng-snmp	9.0.1-1
srvadmin-hapi	9.0.1-1
srvadmin-idrac-ivmcli	9.0.1-1
srvadmin-idrac-snmp	9.0.1-1
srvadmin-idrac-vmcli	9.0.1-1
srvadmin-idracadm7	9.0.1-1
srvadmin-idracadm8	9.0.1-1
srvadmin-isvc	9.0.1-1
srvadmin-isvc-snmp	9.0.1-1
srvadmin-nvme	9.0.1
srvadmin-omacore	9.0.1-1
srvadmin-omacs	9.0.1-1
srvadmin-omcommon	9.0.1-1
srvadmin-omilcore	9.0.1
srvadmin-ominst	9.0.1-1
srvadmin-server-cli	9.0.1
srvadmin-server-snmp	9.0.1
srvadmin-smcommon	9.0.1
srvadmin-smweb	9.0.1
srvadmin-storage	9.0.1
srvadmin-storage-cli	9.0.1
srvadmin-storage-snmp	9.0.1
srvadmin-storageservices	9.0.1
srvadmin-storageservices-cli	9.0.1
srvadmin-storageservices-snmp	9.0.1
srvadmin-storelib	9.0.1
srvadmin-storelib-sysfs	9.0.1
srvadmin-xmlsup	9.0.1
sshfs	2.8-1
ssl-cert	1.0.39
strace	4.15-2
stress	1.0.4-2
subversion	1.9.5-1+deb9u1
sudo	1.8.19p1-2.1
sudo-g5k	0.3.0
syscfg	6.0.1-1877-1
syslinux	3:6.03+dfsg-14.1+deb9u1
syslinux-common	3:6.03+dfsg-14.1+deb9u1
sysstat	11.4.3-2
systemd	232-25+deb9u3
systemd-sysv	232-25+deb9u3
sysvinit-utils	2.88dsf-59.9
taktuk	3.7.6-1
tar	1.29b-1.1
task-english	3.39
tasksel	3.39
tasksel-data	3.39
tcl	8.6.0+9
tcl8.6	8.6.6+dfsg-1+b1
tcpd	7.6.q-26
tcsh	6.20.00-7
telnet	0.17-41
tgz-g5k	1.0.11
tig	2.2-1+b2
time	1.7-25.1+b1
tk	8.6.0+9
tk8.6	8.6.6-1+b1
tk8.6-blt2.5	2.5.3+dfsg-3
tmux	2.3-4
ttf-bitstream-vera	1.10-8
tzdata	2018d-0+deb9u1
ucf	3.0036
udev	232-25+deb9u3
uml-utilities	20070815.1-2+b2
unzip	6.0-21
usbutils	1:007-4+b1
util-linux	2.29.2-1+deb9u1
util-linux-locales	2.29.2-1+deb9u1
uuid-runtime	2.29.2-1+deb9u1
va-driver-all:amd64	1.7.3-2
valgrind	1:3.12.0~svn20160714-1+b1
valgrind-dbg	1:3.12.0~svn20160714-1+b1
vbetool	1.1-4
vdpau-driver-all:amd64	1.1.1-6
vim	2:8.0.0197-4+deb9u1
vim-common	2:8.0.0197-4+deb9u1
vim-runtime	2:8.0.0197-4+deb9u1
vim-tiny	2:8.0.0197-4+deb9u1
virt-viewer	5.0-1
virtinst	1:1.4.0-5
virtualenv	15.1.0+ds-1
wamerican	7.1-1
wget	1.18-5+deb9u1
whiptail	0.52.19-1+b1
x11-common	1:7.7+19
x11-utils	7.7+3+b1
x11-xserver-utils	7.7+7+b1
x11proto-core-dev	7.0.31-1
x11proto-input-dev	2.3.2-1
x11proto-kb-dev	1.0.7-1
x86info	1.31~pre0.8052aabdd159bc9050e7dc264f33782c5acce05f-1+b1
xauth	1:1.0.9-1+b2
xbitmaps	1.1.1-2
xdg-user-dirs	0.15-2+b1
xdg-utils	1.1.1-1
xfsprogs	4.9.0+nmu1
xkb-data	2.19-1+deb9u1
xml-core	0.17
xorg-sgml-doctools	1:1.11-1
xstow	1.0.2-1
xterm	327-2
xtrans-dev	1.3.5-1
xxd	2:8.0.0197-4+deb9u1
xxdiff	1:4.0.1+dfsg-1+b1
xz-utils	5.2.2-1.2+b1
zip	3.0-11+b1
zlib1g:amd64	1:1.2.8.dfsg-5
zlib1g-dev:amd64	1:1.2.8.dfsg-5
zsh	5.3.1-4+b2
zsh-common	5.3.1-4
