Parameter,Value
points,100
p1_cpu_mask,0x1
p2_cpu_mask,0x4
repeat,30
cmd,/home/ajanon/software/benchmarks/cblas_dgemm/cblas_dgemm
parasite,/home/ajanon/software/parasite/parasite
dcache_line_size,
para_size,
L1_size,32768
L2_size,6291456
