Time,Core,IPC,LLC Misses,LLC[KB]
2018-04-27 12:16:04,"0",0.68,401,0.0
2018-04-27 12:16:04,"0",0.98,20124,4096.0
2018-04-27 12:16:04,"0",1.01,5506,9952.0
2018-04-27 12:16:04,"0",1.02,11732,18432.0
2018-04-27 12:16:04,"0",1.01,23172,20384.0
2018-04-27 12:16:04,"0",1.01,23140,20320.0
2018-04-27 12:16:04,"0",1.01,23312,20352.0
2018-04-27 12:16:05,"0",1.01,23447,20448.0
2018-04-27 12:16:05,"0",1.01,23415,20288.0
2018-04-27 12:16:05,"0",1.01,24749,20416.0
2018-04-27 12:16:05,"0",1.01,25411,20256.0
2018-04-27 12:16:05,"0",1.02,23018,20384.0
2018-04-27 12:16:05,"0",1.02,23784,20448.0
2018-04-27 12:16:05,"0",1.02,23635,20320.0
2018-04-27 12:16:05,"0",1.02,23508,20448.0
2018-04-27 12:16:05,"0",1.02,23455,20416.0
2018-04-27 12:16:05,"0",1.00,244570,20384.0
2018-04-27 12:16:06,"0",1.03,872573,20416.0
2018-04-27 12:16:06,"0",1.05,879516,20448.0
2018-04-27 12:16:06,"0",1.06,886174,20256.0
2018-04-27 12:16:06,"0",1.44,998021,20352.0
2018-04-27 12:16:06,"0",2.32,1175042,20256.0
2018-04-27 12:16:06,"0",2.32,1131446,19840.0
2018-04-27 12:16:06,"0",2.29,1303407,20288.0
2018-04-27 12:16:06,"0",2.24,1491062,20448.0
2018-04-27 12:16:06,"0",2.31,1170310,20480.0
2018-04-27 12:16:06,"0",2.32,1205684,20288.0
2018-04-27 12:16:07,"0",2.29,1295588,20224.0
2018-04-27 12:16:07,"0",2.25,1481083,20256.0
2018-04-27 12:16:07,"0",2.16,1058744,20320.0
2018-04-27 12:16:07,"0",2.31,1196729,20384.0
2018-04-27 12:16:07,"0",2.31,1193955,20416.0
2018-04-27 12:16:07,"0",2.25,1465079,20480.0
2018-04-27 12:16:07,"0",2.29,1082607,20480.0
2018-04-27 12:16:07,"0",2.32,1171216,20448.0
2018-04-27 12:16:07,"0",2.31,1217603,20480.0
2018-04-27 12:16:07,"0",2.22,1475292,20384.0
2018-04-27 12:16:08,"0",2.30,1135406,20448.0
2018-04-27 12:16:08,"0",2.32,1168107,20480.0
2018-04-27 12:16:08,"0",2.31,1180402,20384.0
2018-04-27 12:16:08,"0",2.23,1454506,20480.0
2018-04-27 12:16:08,"0",2.30,1135526,20416.0
2018-04-27 12:16:08,"0",2.32,1140839,20480.0
2018-04-27 12:16:08,"0",2.31,1214963,20480.0
2018-04-27 12:16:08,"0",2.21,1422853,20480.0
2018-04-27 12:16:08,"0",2.29,1162356,20448.0
2018-04-27 12:16:08,"0",2.32,1183726,20288.0
2018-04-27 12:16:09,"0",2.32,1151438,20288.0
2018-04-27 12:16:09,"0",2.20,1351019,20416.0
2018-04-27 12:16:09,"0",2.22,1111368,20416.0
2018-04-27 12:16:09,"0",2.30,1145622,20352.0
2018-04-27 12:16:09,"0",2.32,1196501,20448.0
2018-04-27 12:16:09,"0",2.24,1446241,20416.0
2018-04-27 12:16:09,"0",2.25,1172591,20480.0
2018-04-27 12:16:09,"0",2.31,1109892,20384.0
2018-04-27 12:16:09,"0",2.32,1162324,20448.0
2018-04-27 12:16:09,"0",2.26,1371218,20352.0
2018-04-27 12:16:10,"0",2.25,1161809,20416.0
2018-04-27 12:16:10,"0",2.16,1006068,20480.0
2018-04-27 12:16:10,"0",2.32,1161750,20480.0
2018-04-27 12:16:10,"0",2.28,1328168,20480.0
2018-04-27 12:16:10,"0",2.20,1208422,20480.0
2018-04-27 12:16:10,"0",2.32,1084377,20480.0
2018-04-27 12:16:10,"0",2.32,1159184,19456.0
2018-04-27 12:16:10,"0",2.28,1306821,20480.0
2018-04-27 12:16:10,"0",2.20,1206867,20416.0
2018-04-27 12:16:10,"0",2.30,1137082,20352.0
2018-04-27 12:16:11,"0",2.32,1132461,20288.0
2018-04-27 12:16:11,"0",2.30,1222988,20480.0
2018-04-27 12:16:11,"0",2.19,1318562,20480.0
2018-04-27 12:16:11,"0",2.29,1150255,20352.0
2018-04-27 12:16:11,"0",2.31,1157257,20448.0
2018-04-27 12:16:11,"0",2.30,1253901,20448.0
2018-04-27 12:16:11,"0",2.23,1311811,20480.0
2018-04-27 12:16:11,"0",2.30,1141596,20384.0
2018-04-27 12:16:11,"0",2.32,1169853,20480.0
2018-04-27 12:16:11,"0",2.30,1222314,20480.0
2018-04-27 12:16:12,"0",2.22,1300923,20480.0
2018-04-27 12:16:12,"0",2.17,1071810,20448.0
2018-04-27 12:16:12,"0",2.32,1119255,20448.0
2018-04-27 12:16:12,"0",2.31,1176752,20384.0
2018-04-27 12:16:12,"0",2.20,1300086,20480.0
2018-04-27 12:16:12,"0",2.24,1019652,20480.0
2018-04-27 12:16:12,"0",2.32,1161365,20448.0
2018-04-27 12:16:12,"0",2.32,1176344,20384.0
2018-04-27 12:16:12,"0",1.87,790422,20416.0
2018-04-27 12:16:12,"0",0.99,45391,20320.0
2018-04-27 12:16:13,"0",1.21,140762,20128.0
2018-04-27 12:16:13,"0",0.44,530,20000.0
2018-04-27 12:16:13,"0",0.26,71,19840.0
2018-04-27 12:16:13,"0",0.22,1460,19776.0
2018-04-27 12:16:13,"0",0.40,41,19712.0
2018-04-27 12:16:13,"0",0.10,40,19680.0
2018-04-27 12:16:13,"0",0.23,39,19616.0
2018-04-27 12:16:13,"0",0.43,37,19616.0
2018-04-27 12:16:13,"0",0.42,41,19456.0
2018-04-27 12:16:13,"0",0.42,39,19456.0
2018-04-27 12:16:14,"0",0.27,160,19456.0
2018-04-27 12:16:14,"0",0.27,36,19456.0
2018-04-27 12:16:14,"0",0.27,39,19456.0
2018-04-27 12:16:14,"0",0.27,38,19456.0
2018-04-27 12:16:14,"0",0.27,3818,19360.0
2018-04-27 12:16:14,"0",0.25,749,19200.0
2018-04-27 12:16:14,"0",0.40,59,19200.0
2018-04-27 12:16:14,"0",0.18,66,19040.0
2018-04-27 12:16:14,"0",0.17,35,18976.0
2018-04-27 12:16:14,"0",0.35,36,18912.0
2018-04-27 12:16:15,"0",0.36,52,18912.0
2018-04-27 12:16:15,"0",0.35,50,18912.0
2018-04-27 12:16:15,"0",0.35,45,18880.0
2018-04-27 12:16:15,"0",0.34,224,18784.0
2018-04-27 12:16:15,"0",0.12,39,18784.0
2018-04-27 12:16:15,"0",0.23,258,18784.0
2018-04-27 12:16:15,"0",0.27,38,18752.0
2018-04-27 12:16:15,"0",0.41,71,18752.0
2018-04-27 12:16:15,"0",0.39,41,18752.0
2018-04-27 12:16:15,"0",0.39,39,18720.0
2018-04-27 12:16:16,"0",0.38,51,18688.0
2018-04-27 12:16:16,"0",0.38,36,18656.0
2018-04-27 12:16:16,"0",0.39,35,18656.0
2018-04-27 12:16:16,"0",0.39,42,18656.0
2018-04-27 12:16:16,"0",0.49,340,18240.0
2018-04-27 12:16:16,"0",0.34,71,18240.0
2018-04-27 12:16:16,"0",0.31,38,18240.0
2018-04-27 12:16:16,"0",0.15,73,18240.0
2018-04-27 12:16:16,"0",0.24,42,18240.0
2018-04-27 12:16:16,"0",0.42,37,18240.0
