Time,Core,IPC,LLC Misses,LLC[KB]
2018-04-27 12:20:11,"0",0.54,298,10816.0
2018-04-27 12:20:11,"0",0.97,22882,10592.0
2018-04-27 12:20:11,"0",0.99,4620,11904.0
2018-04-27 12:20:11,"0",1.00,10756,17536.0
2018-04-27 12:20:11,"0",1.01,23032,20416.0
2018-04-27 12:20:11,"0",1.01,23264,20384.0
2018-04-27 12:20:11,"0",1.01,23256,20448.0
2018-04-27 12:20:11,"0",1.01,23369,20384.0
2018-04-27 12:20:11,"0",1.01,23114,20416.0
2018-04-27 12:20:12,"0",1.01,23323,20320.0
2018-04-27 12:20:12,"0",1.01,23203,20448.0
2018-04-27 12:20:12,"0",1.01,23331,20416.0
2018-04-27 12:20:12,"0",1.01,23438,20288.0
2018-04-27 12:20:12,"0",1.01,24362,20448.0
2018-04-27 12:20:12,"0",1.01,23100,20416.0
2018-04-27 12:20:12,"0",1.01,23061,20448.0
2018-04-27 12:20:12,"0",0.99,242938,20448.0
2018-04-27 12:20:12,"0",1.03,871643,20416.0
2018-04-27 12:20:12,"0",1.04,876229,20416.0
2018-04-27 12:20:13,"0",1.06,888039,20288.0
2018-04-27 12:20:13,"0",1.40,961516,20416.0
2018-04-27 12:20:13,"0",2.32,1155405,20320.0
2018-04-27 12:20:13,"0",2.32,1150662,20352.0
2018-04-27 12:20:13,"0",2.29,1264783,20288.0
2018-04-27 12:20:13,"0",2.25,1453066,20352.0
2018-04-27 12:20:13,"0",2.19,1075363,20352.0
2018-04-27 12:20:13,"0",2.31,1194372,20288.0
2018-04-27 12:20:13,"0",2.31,1178010,20416.0
2018-04-27 12:20:13,"0",2.24,1501503,20320.0
2018-04-27 12:20:14,"0",2.28,1128342,20320.0
2018-04-27 12:20:14,"0",2.32,1147741,20320.0
2018-04-27 12:20:14,"0",2.31,1178348,20448.0
2018-04-27 12:20:14,"0",2.25,1407490,20384.0
2018-04-27 12:20:14,"0",2.26,1145632,20416.0
2018-04-27 12:20:14,"0",2.32,1127596,20352.0
2018-04-27 12:20:14,"0",2.31,1182373,20416.0
2018-04-27 12:20:14,"0",2.23,1482272,20224.0
2018-04-27 12:20:14,"0",2.28,1110550,20384.0
2018-04-27 12:20:14,"0",2.31,1164833,20416.0
2018-04-27 12:20:15,"0",2.32,1181891,20384.0
2018-04-27 12:20:15,"0",2.23,1415069,20448.0
2018-04-27 12:20:15,"0",2.26,1072798,20416.0
2018-04-27 12:20:15,"0",2.25,1092564,20032.0
2018-04-27 12:20:15,"0",2.31,1190298,20448.0
2018-04-27 12:20:15,"0",2.25,1423232,20384.0
2018-04-27 12:20:15,"0",2.24,1082469,20416.0
2018-04-27 12:20:15,"0",2.30,1136187,20416.0
2018-04-27 12:20:15,"0",2.32,1147710,20288.0
2018-04-27 12:20:15,"0",2.25,1433372,20448.0
2018-04-27 12:20:16,"0",2.25,1059939,20384.0
2018-04-27 12:20:16,"0",2.24,1009521,20352.0
2018-04-27 12:20:16,"0",2.31,1178941,20320.0
2018-04-27 12:20:16,"0",2.27,1366144,20448.0
2018-04-27 12:20:16,"0",2.23,1160886,20416.0
2018-04-27 12:20:16,"0",2.26,1070338,20416.0
2018-04-27 12:20:16,"0",2.32,1156898,19712.0
2018-04-27 12:20:16,"0",2.28,1309707,20448.0
2018-04-27 12:20:16,"0",2.25,1174245,20448.0
2018-04-27 12:20:16,"0",2.25,1022620,20288.0
2018-04-27 12:20:17,"0",2.32,1187882,20288.0
2018-04-27 12:20:17,"0",2.28,1274701,20256.0
2018-04-27 12:20:17,"0",2.23,1238414,20288.0
2018-04-27 12:20:17,"0",2.25,1033861,20448.0
2018-04-27 12:20:17,"0",2.31,1167534,20320.0
2018-04-27 12:20:17,"0",2.30,1237844,20384.0
2018-04-27 12:20:17,"0",2.20,1223713,20288.0
2018-04-27 12:20:17,"0",2.26,1033842,20416.0
2018-04-27 12:20:17,"0",2.32,1159082,20448.0
2018-04-27 12:20:17,"0",2.30,1217406,20256.0
2018-04-27 12:20:18,"0",2.21,1321043,20256.0
2018-04-27 12:20:18,"0",2.21,1036219,20384.0
2018-04-27 12:20:18,"0",2.32,1121968,20416.0
2018-04-27 12:20:18,"0",2.31,1201823,20352.0
2018-04-27 12:20:18,"0",2.23,1351063,20352.0
2018-04-27 12:20:18,"0",2.28,1092237,20416.0
2018-04-27 12:20:18,"0",2.32,1099072,20448.0
2018-04-27 12:20:18,"0",2.30,1221183,20384.0
2018-04-27 12:20:18,"0",2.23,1330339,20288.0
2018-04-27 12:20:18,"0",2.24,1093210,20416.0
2018-04-27 12:20:19,"0",2.32,1105409,20352.0
2018-04-27 12:20:19,"0",2.31,1218099,20448.0
2018-04-27 12:20:19,"0",2.21,1309554,20352.0
2018-04-27 12:20:19,"0",2.28,1125637,20448.0
2018-04-27 12:20:19,"0",2.32,1116997,20224.0
2018-04-27 12:20:19,"0",2.32,1144522,20352.0
2018-04-27 12:20:19,"0",1.95,862300,20416.0
2018-04-27 12:20:19,"0",1.01,65807,20192.0
2018-04-27 12:20:19,"0",1.16,106483,20256.0
2018-04-27 12:20:19,"0",1.40,33323,20032.0
2018-04-27 12:20:20,"0",0.28,0,19840.0
2018-04-27 12:20:20,"0",0.11,9,19552.0
2018-04-27 12:20:20,"0",0.25,1,19552.0
2018-04-27 12:20:20,"0",0.48,1,19488.0
2018-04-27 12:20:20,"0",0.32,135,19456.0
2018-04-27 12:20:20,"0",0.49,1,19392.0
2018-04-27 12:20:20,"0",0.49,2,19392.0
2018-04-27 12:20:20,"0",0.48,2,19360.0
2018-04-27 12:20:20,"0",0.47,6,19360.0
2018-04-27 12:20:20,"0",0.48,1,19360.0
2018-04-27 12:20:21,"0",0.33,298,19296.0
2018-04-27 12:20:21,"0",0.45,11,19232.0
2018-04-27 12:20:21,"0",0.44,774,19200.0
2018-04-27 12:20:21,"0",0.25,1219,19200.0
2018-04-27 12:20:21,"0",0.32,0,19168.0
2018-04-27 12:20:21,"0",0.10,11,19168.0
2018-04-27 12:20:21,"0",0.26,1,19040.0
2018-04-27 12:20:21,"0",0.49,0,18848.0
2018-04-27 12:20:21,"0",0.49,1,18848.0
2018-04-27 12:20:21,"0",0.49,0,18848.0
2018-04-27 12:20:22,"0",0.27,97,18752.0
2018-04-27 12:20:22,"0",0.29,0,18688.0
2018-04-27 12:20:22,"0",0.27,0,18688.0
2018-04-27 12:20:22,"0",0.27,0,18688.0
2018-04-27 12:20:22,"0",0.27,15,18688.0
2018-04-27 12:20:22,"0",0.27,0,18656.0
2018-04-27 12:20:22,"0",0.27,67,18656.0
2018-04-27 12:20:22,"0",0.46,0,18528.0
2018-04-27 12:20:22,"0",0.20,461,18464.0
2018-04-27 12:20:22,"0",0.49,103,18464.0
2018-04-27 12:20:23,"0",0.37,5,18336.0
2018-04-27 12:20:23,"0",0.59,63,18304.0
2018-04-27 12:20:23,"0",0.45,9,18304.0
2018-04-27 12:20:23,"0",0.38,230,18272.0
2018-04-27 12:20:23,"0",0.40,0,18272.0
2018-04-27 12:20:23,"0",0.08,11,18272.0
2018-04-27 12:20:23,"0",0.26,0,18272.0
2018-04-27 12:20:23,"0",0.49,0,18240.0
2018-04-27 12:20:23,"0",0.48,23,18240.0
2018-04-27 12:20:23,"0",0.46,0,18240.0
