Time,Core,IPC,LLC Misses,LLC[KB]
2018-04-27 12:20:50,"0",0.79,565,16032.0
2018-04-27 12:20:50,"0",0.96,21168,16192.0
2018-04-27 12:20:50,"0",0.99,4956,16832.0
2018-04-27 12:20:50,"0",0.99,10455,18976.0
2018-04-27 12:20:50,"0",1.01,22561,20448.0
2018-04-27 12:20:50,"0",1.02,22671,20480.0
2018-04-27 12:20:50,"0",1.02,22915,20320.0
2018-04-27 12:20:50,"0",1.02,22812,19840.0
2018-04-27 12:20:50,"0",1.02,22947,20448.0
2018-04-27 12:20:50,"0",1.02,22748,20352.0
2018-04-27 12:20:51,"0",1.02,22808,20384.0
2018-04-27 12:20:51,"0",1.02,24030,20448.0
2018-04-27 12:20:51,"0",1.02,23685,20448.0
2018-04-27 12:20:51,"0",1.02,22895,20480.0
2018-04-27 12:20:51,"0",1.02,24391,20224.0
2018-04-27 12:20:51,"0",1.02,24495,20448.0
2018-04-27 12:20:51,"0",1.00,241585,20448.0
2018-04-27 12:20:51,"0",1.03,867792,20384.0
2018-04-27 12:20:51,"0",1.04,877479,20448.0
2018-04-27 12:20:51,"0",1.04,880043,20352.0
2018-04-27 12:20:52,"0",1.42,975960,20352.0
2018-04-27 12:20:52,"0",2.32,1136148,20480.0
2018-04-27 12:20:52,"0",2.32,1133834,20480.0
2018-04-27 12:20:52,"0",2.29,1284851,20480.0
2018-04-27 12:20:52,"0",2.25,1436262,20384.0
2018-04-27 12:20:52,"0",2.31,1188658,20448.0
2018-04-27 12:20:52,"0",2.31,1178958,20224.0
2018-04-27 12:20:52,"0",2.30,1244836,20352.0
2018-04-27 12:20:52,"0",2.20,1509430,20480.0
2018-04-27 12:20:52,"0",2.24,1091801,20480.0
2018-04-27 12:20:53,"0",2.31,1190262,20480.0
2018-04-27 12:20:53,"0",2.30,1213585,20320.0
2018-04-27 12:20:53,"0",2.25,1423966,20384.0
2018-04-27 12:20:53,"0",2.27,1087027,20320.0
2018-04-27 12:20:53,"0",2.30,1153393,20096.0
2018-04-27 12:20:53,"0",2.16,1088183,20416.0
2018-04-27 12:20:53,"0",2.18,1402962,20480.0
2018-04-27 12:20:53,"0",2.27,1146975,19776.0
2018-04-27 12:20:53,"0",2.32,1120759,20448.0
2018-04-27 12:20:53,"0",2.32,1173334,20416.0
2018-04-27 12:20:54,"0",2.25,1399641,20480.0
2018-04-27 12:20:54,"0",2.27,1100834,20384.0
2018-04-27 12:20:54,"0",2.28,1122746,20480.0
2018-04-27 12:20:54,"0",2.32,1184696,20416.0
2018-04-27 12:20:54,"0",2.23,1415603,20352.0
2018-04-27 12:20:54,"0",2.28,1085603,20480.0
2018-04-27 12:20:54,"0",2.23,1094716,20448.0
2018-04-27 12:20:54,"0",2.32,1109854,20480.0
2018-04-27 12:20:54,"0",2.22,1431580,20448.0
2018-04-27 12:20:54,"0",2.26,1134614,20480.0
2018-04-27 12:20:55,"0",2.24,1014728,20352.0
2018-04-27 12:20:55,"0",2.31,1178499,20448.0
2018-04-27 12:20:55,"0",2.26,1361452,20480.0
2018-04-27 12:20:55,"0",2.22,1226035,20480.0
2018-04-27 12:20:55,"0",2.32,1136722,20448.0
2018-04-27 12:20:55,"0",2.32,1166826,20320.0
2018-04-27 12:20:55,"0",2.28,1325934,20448.0
2018-04-27 12:20:55,"0",2.18,1199761,20480.0
2018-04-27 12:20:55,"0",2.30,1083881,20256.0
2018-04-27 12:20:55,"0",2.32,1173020,20352.0
2018-04-27 12:20:56,"0",2.29,1268831,20416.0
2018-04-27 12:20:56,"0",2.24,1295793,20352.0
2018-04-27 12:20:56,"0",2.22,1049213,20480.0
2018-04-27 12:20:56,"0",2.32,1162263,20480.0
2018-04-27 12:20:56,"0",2.30,1221845,20480.0
2018-04-27 12:20:56,"0",2.21,1278346,20448.0
2018-04-27 12:20:56,"0",2.23,1067567,20288.0
2018-04-27 12:20:56,"0",2.32,1103242,20480.0
2018-04-27 12:20:56,"0",2.30,1202973,20352.0
2018-04-27 12:20:56,"0",2.23,1342338,20448.0
2018-04-27 12:20:57,"0",2.28,1131460,20128.0
2018-04-27 12:20:57,"0",2.32,1158893,20384.0
2018-04-27 12:20:57,"0",2.31,1178834,20480.0
2018-04-27 12:20:57,"0",2.16,1230692,20480.0
2018-04-27 12:20:57,"0",2.26,1106217,20480.0
2018-04-27 12:20:57,"0",2.31,1141654,20480.0
2018-04-27 12:20:57,"0",2.31,1153164,20448.0
2018-04-27 12:20:57,"0",2.22,1388014,20416.0
2018-04-27 12:20:57,"0",2.19,958724,20448.0
2018-04-27 12:20:57,"0",2.31,1172839,20480.0
2018-04-27 12:20:58,"0",2.31,1190979,20416.0
2018-04-27 12:20:58,"0",2.23,1312006,20480.0
2018-04-27 12:20:58,"0",2.29,1069657,20288.0
2018-04-27 12:20:58,"0",2.26,1052304,20448.0
2018-04-27 12:20:58,"0",2.32,1112033,20384.0
2018-04-27 12:20:58,"0",2.17,1038954,20416.0
2018-04-27 12:20:58,"0",0.99,54763,20320.0
2018-04-27 12:20:58,"0",1.17,117153,20128.0
2018-04-27 12:20:58,"0",1.06,21234,19904.0
2018-04-27 12:20:58,"0",0.21,38,19808.0
2018-04-27 12:20:59,"0",0.09,42,19776.0
2018-04-27 12:20:59,"0",0.18,46,19648.0
2018-04-27 12:20:59,"0",0.37,35,19648.0
2018-04-27 12:20:59,"0",0.36,39,19584.0
2018-04-27 12:20:59,"0",0.37,38,19552.0
2018-04-27 12:20:59,"0",0.35,1042,19488.0
2018-04-27 12:20:59,"0",0.31,1410,19424.0
2018-04-27 12:20:59,"0",0.41,38,19424.0
2018-04-27 12:20:59,"0",0.39,36,19424.0
2018-04-27 12:20:59,"0",0.40,42,19424.0
2018-04-27 12:21:00,"0",0.40,53,19264.0
2018-04-27 12:21:00,"0",0.40,53,19232.0
2018-04-27 12:21:00,"0",0.41,46,19232.0
2018-04-27 12:21:00,"0",0.40,44,19232.0
2018-04-27 12:21:00,"0",0.40,40,19232.0
2018-04-27 12:21:00,"0",0.40,43,19232.0
2018-04-27 12:21:00,"0",0.40,38,19168.0
2018-04-27 12:21:00,"0",0.31,65,19136.0
2018-04-27 12:21:00,"0",0.41,36,19008.0
2018-04-27 12:21:00,"0",0.41,46,19008.0
2018-04-27 12:21:01,"0",0.34,308,18944.0
2018-04-27 12:21:01,"0",0.37,42,18880.0
2018-04-27 12:21:01,"0",0.35,36,18880.0
2018-04-27 12:21:01,"0",0.35,37,18880.0
2018-04-27 12:21:01,"0",0.36,49,18880.0
2018-04-27 12:21:01,"0",0.30,71,18880.0
2018-04-27 12:21:01,"0",0.44,281,18816.0
2018-04-27 12:21:01,"0",0.26,43,18816.0
2018-04-27 12:21:01,"0",0.11,41,18816.0
2018-04-27 12:21:01,"0",0.24,51,18816.0
2018-04-27 12:21:02,"0",0.27,137,18720.0
2018-04-27 12:21:02,"0",0.27,37,18720.0
2018-04-27 12:21:02,"0",0.27,37,18624.0
2018-04-27 12:21:02,"0",0.27,45,18624.0
2018-04-27 12:21:02,"0",0.27,45,18624.0
2018-04-27 12:21:02,"0",0.27,54,18592.0
2018-04-27 12:21:02,"0",0.26,2600,18560.0
2018-04-27 12:21:02,"0",0.30,3616,18560.0
2018-04-27 12:21:02,"0",0.24,623,18560.0
2018-04-27 12:21:02,"0",0.49,61,18560.0
