Time,Core,IPC,LLC Misses,LLC[KB]
2018-04-27 12:21:42,"0",0.46,175,17408.0
2018-04-27 12:21:42,"0",0.96,25543,17600.0
2018-04-27 12:21:42,"0",0.99,4062,17792.0
2018-04-27 12:21:42,"0",1.00,12511,19712.0
2018-04-27 12:21:42,"0",1.01,22754,20480.0
2018-04-27 12:21:42,"0",1.01,22873,19936.0
2018-04-27 12:21:42,"0",1.01,22749,20384.0
2018-04-27 12:21:42,"0",1.01,22961,20416.0
2018-04-27 12:21:42,"0",1.01,22774,20480.0
2018-04-27 12:21:42,"0",1.01,22687,20416.0
2018-04-27 12:21:43,"0",1.01,22749,20320.0
2018-04-27 12:21:43,"0",1.01,23378,20416.0
2018-04-27 12:21:43,"0",1.01,23043,20448.0
2018-04-27 12:21:43,"0",1.01,23128,20288.0
2018-04-27 12:21:43,"0",1.01,22797,20480.0
2018-04-27 12:21:43,"0",1.01,22970,20352.0
2018-04-27 12:21:43,"0",1.00,243721,20448.0
2018-04-27 12:21:43,"0",1.03,871427,19904.0
2018-04-27 12:21:43,"0",1.05,879044,20320.0
2018-04-27 12:21:43,"0",1.05,878803,20352.0
2018-04-27 12:21:44,"0",1.41,986593,20352.0
2018-04-27 12:21:44,"0",2.32,1121570,20192.0
2018-04-27 12:21:44,"0",2.32,1124787,20480.0
2018-04-27 12:21:44,"0",2.29,1273258,20384.0
2018-04-27 12:21:44,"0",2.25,1447387,20480.0
2018-04-27 12:21:44,"0",2.20,1049326,20352.0
2018-04-27 12:21:44,"0",2.31,1197589,20448.0
2018-04-27 12:21:44,"0",2.31,1207180,20480.0
2018-04-27 12:21:44,"0",2.24,1476505,20384.0
2018-04-27 12:21:44,"0",2.28,1174852,20160.0
2018-04-27 12:21:45,"0",2.32,1161550,20032.0
2018-04-27 12:21:45,"0",2.30,1223308,20416.0
2018-04-27 12:21:45,"0",2.25,1461036,20480.0
2018-04-27 12:21:45,"0",2.28,1126152,20480.0
2018-04-27 12:21:45,"0",2.32,1124280,20480.0
2018-04-27 12:21:45,"0",2.31,1198413,20448.0
2018-04-27 12:21:45,"0",2.22,1435384,20416.0
2018-04-27 12:21:45,"0",2.27,1136206,20480.0
2018-04-27 12:21:45,"0",2.32,1135785,20288.0
2018-04-27 12:21:45,"0",2.31,1220520,20448.0
2018-04-27 12:21:46,"0",2.22,1403221,20480.0
2018-04-27 12:21:46,"0",2.30,1173642,20448.0
2018-04-27 12:21:46,"0",2.31,1153856,20480.0
2018-04-27 12:21:46,"0",2.31,1193568,20480.0
2018-04-27 12:21:46,"0",2.21,1401599,20480.0
2018-04-27 12:21:46,"0",2.26,1094144,20448.0
2018-04-27 12:21:46,"0",2.25,1121019,20256.0
2018-04-27 12:21:46,"0",2.32,1152371,20448.0
2018-04-27 12:21:46,"0",2.24,1407241,20480.0
2018-04-27 12:21:46,"0",2.25,1145638,20480.0
2018-04-27 12:21:47,"0",2.32,1091155,20192.0
2018-04-27 12:21:47,"0",2.32,1164047,20320.0
2018-04-27 12:21:47,"0",2.24,1383453,20480.0
2018-04-27 12:21:47,"0",2.23,1128021,20480.0
2018-04-27 12:21:47,"0",2.29,1100418,20480.0
2018-04-27 12:21:47,"0",2.32,1152148,20448.0
2018-04-27 12:21:47,"0",2.27,1317474,20448.0
2018-04-27 12:21:47,"0",2.22,1177843,20448.0
2018-04-27 12:21:47,"0",2.22,1029448,20192.0
2018-04-27 12:21:47,"0",2.32,1154641,20416.0
2018-04-27 12:21:48,"0",2.29,1259924,20256.0
2018-04-27 12:21:48,"0",2.21,1338598,20320.0
2018-04-27 12:21:48,"0",2.30,1113429,20288.0
2018-04-27 12:21:48,"0",2.32,1154104,20480.0
2018-04-27 12:21:48,"0",2.29,1269638,20416.0
2018-04-27 12:21:48,"0",2.18,1269637,20480.0
2018-04-27 12:21:48,"0",2.31,1094398,20352.0
2018-04-27 12:21:48,"0",2.31,1165379,20480.0
2018-04-27 12:21:48,"0",2.30,1241982,20480.0
2018-04-27 12:21:48,"0",2.18,1294653,20480.0
2018-04-27 12:21:49,"0",2.25,1104451,20256.0
2018-04-27 12:21:49,"0",2.31,1152898,20448.0
2018-04-27 12:21:49,"0",2.30,1202520,20416.0
2018-04-27 12:21:49,"0",2.22,1302269,20480.0
2018-04-27 12:21:49,"0",2.22,1050625,20480.0
2018-04-27 12:21:49,"0",2.32,1109754,20448.0
2018-04-27 12:21:49,"0",2.31,1169402,20480.0
2018-04-27 12:21:49,"0",2.22,1302286,20416.0
2018-04-27 12:21:49,"0",2.28,1147734,20384.0
2018-04-27 12:21:49,"0",2.31,1133449,20416.0
2018-04-27 12:21:50,"0",2.31,1229169,20320.0
2018-04-27 12:21:50,"0",2.21,1318330,20320.0
2018-04-27 12:21:50,"0",2.22,1025198,20480.0
2018-04-27 12:21:50,"0",2.25,1058961,20480.0
2018-04-27 12:21:50,"0",2.32,1148004,20448.0
2018-04-27 12:21:50,"0",2.12,984789,20480.0
2018-04-27 12:21:50,"0",0.94,6740,20416.0
2018-04-27 12:21:50,"0",1.20,141722,20224.0
2018-04-27 12:21:50,"0",0.41,830,20160.0
2018-04-27 12:21:50,"0",0.27,29,20096.0
2018-04-27 12:21:51,"0",0.10,47,19936.0
2018-04-27 12:21:51,"0",0.19,74,19744.0
2018-04-27 12:21:51,"0",0.53,573,19744.0
2018-04-27 12:21:51,"0",0.14,28,19680.0
2018-04-27 12:21:51,"0",0.10,34,19680.0
2018-04-27 12:21:51,"0",0.23,44,19680.0
2018-04-27 12:21:51,"0",0.42,41,19648.0
2018-04-27 12:21:51,"0",0.41,39,19648.0
2018-04-27 12:21:51,"0",0.40,46,19648.0
2018-04-27 12:21:51,"0",0.30,1388,19616.0
2018-04-27 12:21:52,"0",0.23,27,19456.0
2018-04-27 12:21:52,"0",0.31,31,19456.0
2018-04-27 12:21:52,"0",0.08,35,19328.0
2018-04-27 12:21:52,"0",0.25,28,19328.0
2018-04-27 12:21:52,"0",0.45,139,19328.0
2018-04-27 12:21:52,"0",0.43,53,19328.0
2018-04-27 12:21:52,"0",0.31,34,19328.0
2018-04-27 12:21:52,"0",0.45,39,19328.0
2018-04-27 12:21:52,"0",0.46,40,19328.0
2018-04-27 12:21:52,"0",0.37,280,19328.0
2018-04-27 12:21:53,"0",0.49,344,19328.0
2018-04-27 12:21:53,"0",0.32,106,19168.0
2018-04-27 12:21:53,"0",0.32,49,19168.0
2018-04-27 12:21:53,"0",0.11,31,19136.0
2018-04-27 12:21:53,"0",0.23,45,19136.0
2018-04-27 12:21:53,"0",0.40,40,19136.0
2018-04-27 12:21:53,"0",0.38,42,19136.0
2018-04-27 12:21:53,"0",0.39,47,19136.0
2018-04-27 12:21:53,"0",0.39,42,18816.0
2018-04-27 12:21:53,"0",0.38,163,18816.0
2018-04-27 12:21:54,"0",0.36,128,18816.0
2018-04-27 12:21:54,"0",0.26,33,18816.0
2018-04-27 12:21:54,"0",0.09,51,18816.0
2018-04-27 12:21:54,"0",0.21,43,18816.0
2018-04-27 12:21:54,"0",0.36,43,18816.0
2018-04-27 12:21:54,"0",0.36,49,18816.0
2018-04-27 12:21:54,"0",0.36,54,18816.0
2018-04-27 12:21:54,"0",0.37,41,18816.0
2018-04-27 12:21:54,"0",0.37,46,18624.0
2018-04-27 12:21:54,"0",0.37,43,18624.0
