CPU NODE SOCKET CORE L1d:L1i:L2:L3 ONLINE MAXMHZ    MINMHZ
0   0    0      0    0:0:0:0       yes    3000.0000 1200.0000
1   1    1      1    1:1:1:1       yes    3000.0000 1200.0000
2   0    0      2    2:2:2:0       yes    3000.0000 1200.0000
3   1    1      3    3:3:3:1       yes    3000.0000 1200.0000
4   0    0      4    4:4:4:0       yes    3000.0000 1200.0000
5   1    1      5    5:5:5:1       yes    3000.0000 1200.0000
6   0    0      6    6:6:6:0       yes    3000.0000 1200.0000
7   1    1      7    7:7:7:1       yes    3000.0000 1200.0000
8   0    0      8    8:8:8:0       yes    3000.0000 1200.0000
9   1    1      9    9:9:9:1       yes    3000.0000 1200.0000
10  0    0      10   10:10:10:0    yes    3000.0000 1200.0000
11  1    1      11   11:11:11:1    yes    3000.0000 1200.0000
12  0    0      12   12:12:12:0    yes    3000.0000 1200.0000
13  1    1      13   13:13:13:1    yes    3000.0000 1200.0000
14  0    0      14   14:14:14:0    yes    3000.0000 1200.0000
15  1    1      15   15:15:15:1    yes    3000.0000 1200.0000
16  0    0      0    0:0:0:0       yes    3000.0000 1200.0000
17  1    1      1    1:1:1:1       yes    3000.0000 1200.0000
18  0    0      2    2:2:2:0       yes    3000.0000 1200.0000
19  1    1      3    3:3:3:1       yes    3000.0000 1200.0000
20  0    0      4    4:4:4:0       yes    3000.0000 1200.0000
21  1    1      5    5:5:5:1       yes    3000.0000 1200.0000
22  0    0      6    6:6:6:0       yes    3000.0000 1200.0000
23  1    1      7    7:7:7:1       yes    3000.0000 1200.0000
24  0    0      8    8:8:8:0       yes    3000.0000 1200.0000
25  1    1      9    9:9:9:1       yes    3000.0000 1200.0000
26  0    0      10   10:10:10:0    yes    3000.0000 1200.0000
27  1    1      11   11:11:11:1    yes    3000.0000 1200.0000
28  0    0      12   12:12:12:0    yes    3000.0000 1200.0000
29  1    1      13   13:13:13:1    yes    3000.0000 1200.0000
30  0    0      14   14:14:14:0    yes    3000.0000 1200.0000
31  1    1      15   15:15:15:1    yes    3000.0000 1200.0000
