Time,Core,IPC,LLC Misses,LLC[KB]
2018-05-03 16:25:01,"0",0.52,252,112.0
2018-05-03 16:25:01,"0",0.88,25373,6160.0
2018-05-03 16:25:01,"0",0.98,4530,9352.0
2018-05-03 16:25:01,"0",1.00,13626,24864.0
2018-05-03 16:25:01,"0",0.94,5623,25032.0
2018-05-03 16:25:01,"0",0.92,5618,25648.0
2018-05-03 16:25:01,"0",0.95,5210,26208.0
2018-05-03 16:25:01,"0",0.97,6943,26824.0
2018-05-03 16:25:01,"0",0.97,5856,26880.0
2018-05-03 16:25:01,"0",1.00,6640,27384.0
2018-05-03 16:25:02,"0",1.49,37858,28112.0
2018-05-03 16:25:02,"0",2.29,81323,28952.0
2018-05-03 16:25:02,"0",1.77,23165,29008.0
2018-05-03 16:25:02,"0",0.18,54,29008.0
2018-05-03 16:25:02,"0",0.06,237,29008.0
2018-05-03 16:25:02,"0",0.17,352,28896.0
2018-05-03 16:25:02,"0",0.13,339,28728.0
2018-05-03 16:25:02,"0",0.17,268,28728.0
2018-05-03 16:25:02,"0",0.30,530,28728.0
2018-05-03 16:25:02,"0",0.25,41,28728.0
2018-05-03 16:25:03,"0",0.44,178,28728.0
2018-05-03 16:25:03,"0",0.56,109,28728.0
2018-05-03 16:25:03,"0",0.26,228,28728.0
2018-05-03 16:25:03,"0",0.04,40,28728.0
2018-05-03 16:25:03,"0",0.41,206,28728.0
2018-05-03 16:25:03,"0",0.65,108,28728.0
2018-05-03 16:25:03,"0",0.39,177,28728.0
2018-05-03 16:25:03,"0",0.32,157,28616.0
2018-05-03 16:25:03,"0",0.13,893,28448.0
2018-05-03 16:25:03,"0",0.08,35,28392.0
2018-05-03 16:25:04,"0",0.25,158,28392.0
2018-05-03 16:25:04,"0",0.42,129,28392.0
2018-05-03 16:25:04,"0",0.20,103,28224.0
2018-05-03 16:25:04,"0",0.26,92,28224.0
2018-05-03 16:25:04,"0",0.49,179,28224.0
2018-05-03 16:25:04,"0",0.33,145,28224.0
2018-05-03 16:25:04,"0",0.56,207,28224.0
2018-05-03 16:25:04,"0",0.62,183,28224.0
2018-05-03 16:25:04,"0",0.06,41,28224.0
2018-05-03 16:25:04,"0",0.06,50,28224.0
2018-05-03 16:25:05,"0",0.54,455,28112.0
2018-05-03 16:25:05,"0",0.49,154,28112.0
2018-05-03 16:25:05,"0",0.39,45,28112.0
2018-05-03 16:25:05,"0",0.08,118,28056.0
2018-05-03 16:25:05,"0",0.20,87,28056.0
2018-05-03 16:25:05,"0",0.36,66,28056.0
2018-05-03 16:25:05,"0",0.38,133,28056.0
2018-05-03 16:25:05,"0",0.54,246,28056.0
2018-05-03 16:25:05,"0",0.46,123,28056.0
2018-05-03 16:25:05,"0",0.30,47,28056.0
2018-05-03 16:25:06,"0",0.20,377,28056.0
2018-05-03 16:25:06,"0",0.52,215,28000.0
2018-05-03 16:25:06,"0",0.57,436,28056.0
2018-05-03 16:25:06,"0",0.04,33,28056.0
2018-05-03 16:25:06,"0",0.28,319,28056.0
2018-05-03 16:25:06,"0",0.35,120,28056.0
2018-05-03 16:25:06,"0",0.47,184,28056.0
2018-05-03 16:25:06,"0",0.45,315,28000.0
2018-05-03 16:25:06,"0",0.41,43,28000.0
2018-05-03 16:25:06,"0",0.31,174,28000.0
