Time,Core,IPC,LLC Misses,LLC[KB]
2018-05-03 16:23:19,"0",0.58,295,56.0
2018-05-03 16:23:19,"0",0.88,21968,3920.0
2018-05-03 16:23:19,"0",0.97,5560,9800.0
2018-05-03 16:23:19,"0",0.98,11617,23352.0
2018-05-03 16:23:19,"0",0.95,6296,24920.0
2018-05-03 16:23:19,"0",0.98,4167,25816.0
2018-05-03 16:23:19,"0",0.98,4528,26432.0
2018-05-03 16:23:19,"0",1.02,4317,26936.0
2018-05-03 16:23:19,"0",0.97,6013,27216.0
2018-05-03 16:23:19,"0",1.01,4921,27552.0
2018-05-03 16:23:20,"0",1.41,25203,28336.0
2018-05-03 16:23:20,"0",2.29,78185,28728.0
2018-05-03 16:23:20,"0",1.92,24106,29344.0
2018-05-03 16:23:20,"0",0.45,251,29344.0
2018-05-03 16:23:20,"0",0.34,35,29344.0
2018-05-03 16:23:20,"0",0.13,248,29288.0
2018-05-03 16:23:20,"0",0.47,416,29288.0
2018-05-03 16:23:20,"0",0.35,324,28728.0
2018-05-03 16:23:20,"0",0.41,28,28728.0
2018-05-03 16:23:20,"0",0.04,41,28728.0
2018-05-03 16:23:21,"0",0.16,1463,28784.0
2018-05-03 16:23:21,"0",0.33,104,28728.0
2018-05-03 16:23:21,"0",0.03,33,28728.0
2018-05-03 16:23:21,"0",0.13,233,28728.0
2018-05-03 16:23:21,"0",0.31,33,28728.0
2018-05-03 16:23:21,"0",0.47,283,28728.0
2018-05-03 16:23:21,"0",0.22,56,28728.0
2018-05-03 16:23:21,"0",0.08,181,28672.0
2018-05-03 16:23:21,"0",0.62,196,28672.0
2018-05-03 16:23:21,"0",0.43,28,28672.0
2018-05-03 16:23:22,"0",0.04,28,28672.0
2018-05-03 16:23:22,"0",0.17,133,28616.0
2018-05-03 16:23:22,"0",0.20,32,28616.0
2018-05-03 16:23:22,"0",0.05,42,28616.0
2018-05-03 16:23:22,"0",0.26,39,28616.0
2018-05-03 16:23:22,"0",0.35,153,28448.0
2018-05-03 16:23:22,"0",0.21,34,28448.0
2018-05-03 16:23:22,"0",0.07,43,28448.0
2018-05-03 16:23:22,"0",0.20,40,28336.0
2018-05-03 16:23:22,"0",0.26,39,28336.0
2018-05-03 16:23:23,"0",0.38,632,28336.0
2018-05-03 16:23:23,"0",0.17,532,28168.0
2018-05-03 16:23:23,"0",0.41,186,28168.0
2018-05-03 16:23:23,"0",0.34,139,28168.0
2018-05-03 16:23:23,"0",0.24,35,28168.0
2018-05-03 16:23:23,"0",0.32,175,28112.0
2018-05-03 16:23:23,"0",0.33,37,28112.0
2018-05-03 16:23:23,"0",0.32,239,27720.0
2018-05-03 16:23:23,"0",0.27,32,27720.0
2018-05-03 16:23:23,"0",0.27,300,27720.0
2018-05-03 16:23:24,"0",0.44,28,27664.0
2018-05-03 16:23:24,"0",0.14,100,27664.0
2018-05-03 16:23:24,"0",0.42,34,27664.0
2018-05-03 16:23:24,"0",0.41,114,27664.0
2018-05-03 16:23:24,"0",0.35,48,27664.0
2018-05-03 16:23:24,"0",0.10,86,27608.0
2018-05-03 16:23:24,"0",0.39,211,27608.0
2018-05-03 16:23:24,"0",0.50,115,27608.0
2018-05-03 16:23:24,"0",0.60,374,27608.0
2018-05-03 16:23:24,"0",0.04,43,27608.0
