Time,Core,IPC,LLC Misses,LLC[KB]
2018-05-03 16:26:01,"0",0.46,449,56.0
2018-05-03 16:26:01,"0",0.89,28308,4704.0
2018-05-03 16:26:01,"0",0.99,4585,8792.0
2018-05-03 16:26:01,"0",1.01,11794,23800.0
2018-05-03 16:26:01,"0",0.97,6240,25088.0
2018-05-03 16:26:01,"0",0.99,4689,25928.0
2018-05-03 16:26:01,"0",1.01,4663,26432.0
2018-05-03 16:26:01,"0",1.00,5245,27328.0
2018-05-03 16:26:01,"0",1.05,5419,27664.0
2018-05-03 16:26:01,"0",1.00,5522,28224.0
2018-05-03 16:26:02,"0",1.42,26923,28952.0
2018-05-03 16:26:02,"0",2.28,75368,29344.0
2018-05-03 16:26:02,"0",1.98,26326,29792.0
2018-05-03 16:26:02,"0",0.15,41,29792.0
2018-05-03 16:26:02,"0",0.05,39,29792.0
2018-05-03 16:26:02,"0",0.18,831,29848.0
2018-05-03 16:26:02,"0",0.15,45,29848.0
2018-05-03 16:26:02,"0",0.03,44,29848.0
2018-05-03 16:26:02,"0",0.12,49,29848.0
2018-05-03 16:26:02,"0",0.33,34,29848.0
2018-05-03 16:26:03,"0",0.18,54,29680.0
2018-05-03 16:26:03,"0",0.20,463,29512.0
2018-05-03 16:26:03,"0",0.23,35,29512.0
2018-05-03 16:26:03,"0",0.22,237,29512.0
2018-05-03 16:26:03,"0",0.29,39,29512.0
2018-05-03 16:26:03,"0",0.27,114,29456.0
2018-05-03 16:26:03,"0",0.34,43,29456.0
2018-05-03 16:26:03,"0",0.21,220,29456.0
2018-05-03 16:26:03,"0",0.28,32,28896.0
2018-05-03 16:26:03,"0",0.33,51,28896.0
2018-05-03 16:26:04,"0",0.38,538,28728.0
2018-05-03 16:26:04,"0",0.43,341,28728.0
2018-05-03 16:26:04,"0",0.20,41,28728.0
2018-05-03 16:26:04,"0",0.20,188,28784.0
2018-05-03 16:26:04,"0",0.52,127,28784.0
2018-05-03 16:26:04,"0",0.56,132,28784.0
2018-05-03 16:26:04,"0",0.56,174,28784.0
2018-05-03 16:26:04,"0",0.33,124,28784.0
2018-05-03 16:26:04,"0",0.05,41,28784.0
2018-05-03 16:26:04,"0",0.14,37,28728.0
2018-05-03 16:26:05,"0",0.17,55,28728.0
2018-05-03 16:26:05,"0",0.26,134,28728.0
2018-05-03 16:26:05,"0",0.53,211,28728.0
2018-05-03 16:26:05,"0",0.49,164,28672.0
2018-05-03 16:26:05,"0",0.43,44,28672.0
2018-05-03 16:26:05,"0",0.07,98,28672.0
2018-05-03 16:26:05,"0",0.13,45,28672.0
2018-05-03 16:26:05,"0",0.24,163,28672.0
2018-05-03 16:26:05,"0",0.29,39,28616.0
2018-05-03 16:26:05,"0",0.49,181,28616.0
2018-05-03 16:26:06,"0",0.40,93,28616.0
2018-05-03 16:26:06,"0",0.40,95,28672.0
2018-05-03 16:26:06,"0",0.24,32,28672.0
2018-05-03 16:26:06,"0",0.23,110,28672.0
2018-05-03 16:26:06,"0",0.43,43,28672.0
2018-05-03 16:26:06,"0",0.10,141,28672.0
2018-05-03 16:26:06,"0",0.24,42,28672.0
2018-05-03 16:26:06,"0",0.06,196,28672.0
2018-05-03 16:26:06,"0",0.10,39,28672.0
2018-05-03 16:26:06,"0",0.31,36,28672.0
