Time,Core,IPC,LLC Misses,LLC[KB]
2018-05-03 16:23:31,"0",0.58,277,27328.0
2018-05-03 16:23:31,"0",0.89,17023,27832.0
2018-05-03 16:23:31,"0",1.00,4249,27832.0
2018-05-03 16:23:31,"0",1.02,10202,28784.0
2018-05-03 16:23:31,"0",0.98,4090,28784.0
2018-05-03 16:23:31,"0",0.99,4071,28784.0
2018-05-03 16:23:31,"0",1.01,4515,28616.0
2018-05-03 16:23:31,"0",1.01,4912,28784.0
2018-05-03 16:23:31,"0",1.04,4773,29008.0
2018-05-03 16:23:31,"0",1.00,5681,29120.0
2018-05-03 16:23:32,"0",1.54,34100,29456.0
2018-05-03 16:23:32,"0",2.29,67959,29792.0
2018-05-03 16:23:32,"0",1.57,22985,30128.0
2018-05-03 16:23:32,"0",0.44,261,30128.0
2018-05-03 16:23:32,"0",0.31,31,30128.0
2018-05-03 16:23:32,"0",0.06,242,30128.0
2018-05-03 16:23:32,"0",0.46,2406,30128.0
2018-05-03 16:23:32,"0",0.23,34,30128.0
2018-05-03 16:23:32,"0",0.03,38,30128.0
2018-05-03 16:23:32,"0",0.09,38,30128.0
2018-05-03 16:23:33,"0",0.33,166,30016.0
2018-05-03 16:23:33,"0",0.23,853,30016.0
2018-05-03 16:23:33,"0",0.41,64,30016.0
2018-05-03 16:23:33,"0",0.29,207,30016.0
2018-05-03 16:23:33,"0",0.03,35,30016.0
2018-05-03 16:23:33,"0",0.15,68,30016.0
2018-05-03 16:23:33,"0",0.36,38,30016.0
2018-05-03 16:23:33,"0",0.26,144,29400.0
2018-05-03 16:23:33,"0",0.48,212,29400.0
2018-05-03 16:23:33,"0",0.31,33,29400.0
2018-05-03 16:23:34,"0",0.04,31,29344.0
2018-05-03 16:23:34,"0",0.16,91,29344.0
2018-05-03 16:23:34,"0",0.19,33,29344.0
2018-05-03 16:23:34,"0",0.05,44,29344.0
2018-05-03 16:23:34,"0",0.19,38,29344.0
2018-05-03 16:23:34,"0",0.29,184,29232.0
2018-05-03 16:23:34,"0",0.33,74,29232.0
2018-05-03 16:23:34,"0",0.26,32,29232.0
2018-05-03 16:23:34,"0",0.04,34,29232.0
2018-05-03 16:23:34,"0",0.14,527,29176.0
2018-05-03 16:23:35,"0",0.38,91,29064.0
2018-05-03 16:23:35,"0",0.48,575,28896.0
2018-05-03 16:23:35,"0",0.18,36,28896.0
2018-05-03 16:23:35,"0",0.05,127,28896.0
2018-05-03 16:23:35,"0",0.11,34,28896.0
2018-05-03 16:23:35,"0",0.49,92,28840.0
2018-05-03 16:23:35,"0",0.24,49,28896.0
2018-05-03 16:23:35,"0",0.28,36,28896.0
2018-05-03 16:23:35,"0",0.04,41,28896.0
2018-05-03 16:23:35,"0",0.05,33,28896.0
2018-05-03 16:23:36,"0",0.17,41,28840.0
2018-05-03 16:23:36,"0",0.29,94,28840.0
2018-05-03 16:23:36,"0",0.19,33,28840.0
2018-05-03 16:23:36,"0",0.06,41,28840.0
2018-05-03 16:23:36,"0",0.19,36,28840.0
2018-05-03 16:23:36,"0",0.29,57,28840.0
2018-05-03 16:23:36,"0",0.26,126,28840.0
2018-05-03 16:23:36,"0",0.20,33,28840.0
2018-05-03 16:23:36,"0",0.03,35,28840.0
2018-05-03 16:23:36,"0",0.11,48,28840.0
