Parameter,Value
points,50
p1_cpu_mask,0x1
p2_cpu_mask,0x2
repeat,30
access_count,4
cmd,/home/ajanon/software/benchmarks/cblas_dgemm/cblas_dgemm
parasite,/home/ajanon/software/parasite/parasite
dcache_line_size,64
dgemm_size,1070
pqos_interval,1
,
point_count_cache,50
L2_size,262144
L3_size,36700160
pqos_time,5
