Type,Size(B),Time(ns),Misses(%)
0,2048,1987600132,0.782
0,2048,2002835768,0.780
0,2048,1985180293,0.789
0,2048,1985543477,0.784
0,2048,1986956921,0.786
0,2048,1985848702,0.788
0,2048,1981906765,0.782
0,2048,1985382848,0.782
0,2048,1984650846,0.784
0,2048,1985077600,0.784
0,2048,1985391598,0.778
0,2048,1985817769,0.792
0,2048,1984540817,0.785
0,2048,1984802361,0.784
0,2048,1984589210,0.785
0,2048,1984500374,0.787
0,2048,1983716071,0.776
0,2048,1984282736,0.784
0,2048,1985477359,0.794
0,2048,1984615736,0.788
0,2048,1983976973,0.774
0,2048,1985188684,0.783
0,2048,1985448925,0.776
0,2048,1986195644,0.785
0,2048,1983785419,0.789
0,2048,1986440050,0.785
0,2048,1984726877,0.788
0,2048,1986524223,0.788
0,2048,1983140082,0.785
0,2048,1985092493,0.791
1,32768,1984379143,0.820
1,32768,1982844508,0.812
1,32768,1984033934,0.833
1,32768,1981601047,0.799
1,32768,1983208783,0.805
1,32768,1984054368,0.823
1,32768,1983741243,0.817
1,32768,1986638696,0.800
1,32768,1983344634,0.808
1,32768,1984726017,0.822
1,32768,1982987915,0.826
1,32768,1981836563,0.822
1,32768,1983846037,0.841
1,32768,1985570825,0.811
1,32768,1984526474,0.808
1,32768,1982283506,0.819
1,32768,1985226134,0.821
1,32768,1983822595,0.805
1,32768,1983054990,0.815
1,32768,1984565188,0.835
1,32768,1981814117,0.809
1,32768,1983359805,0.816
1,32768,1983024220,0.802
1,32768,1983945028,0.803
1,32768,1982917826,0.808
1,32768,1982437646,0.832
1,32768,1985379161,0.830
1,32768,1982435744,0.809
1,32768,1985271913,0.812
1,32768,1983686898,0.806
1,658624,1987436500,1.106
1,658624,1987216803,1.117
1,658624,1988740335,1.116
1,658624,1986776501,1.110
1,658624,1988370029,1.111
1,658624,1986693939,1.117
1,658624,1987362835,1.121
1,658624,1989474008,1.112
1,658624,1988559408,1.116
1,658624,1989850687,1.112
1,658624,1989810132,1.103
1,658624,1986840383,1.112
1,658624,1987860746,1.115
1,658624,1985731077,1.116
1,658624,1989257116,1.119
1,658624,1988624344,1.118
1,658624,1988866106,1.097
1,658624,1988163416,1.104
1,658624,1988499659,1.119
1,658624,1987837015,1.108
1,658624,1988898491,1.105
1,658624,1988451533,1.100
1,658624,1989562923,1.098
1,658624,1989331807,1.097
1,658624,1988564370,1.119
1,658624,1988468849,1.106
1,658624,1989534978,1.119
1,658624,1986741878,1.094
1,658624,1987793709,1.110
1,658624,1988539734,1.118
1,1284480,1989896336,1.255
1,1284480,1989060226,1.269
1,1284480,1990063254,1.258
1,1284480,1989351137,1.264
1,1284480,1989316746,1.264
1,1284480,1988878406,1.261
1,1284480,1987967939,1.269
1,1284480,1989695438,1.255
1,1284480,1988714559,1.246
1,1284480,1990569997,1.261
1,1284480,1988439363,1.254
1,1284480,1990144911,1.260
1,1284480,1990287229,1.254
1,1284480,1991367094,1.256
1,1284480,1987706786,1.247
1,1284480,1991114100,1.260
1,1284480,1990485187,1.265
1,1284480,1987842714,1.266
1,1284480,1988633755,1.259
1,1284480,1989693583,1.265
1,1284480,1990003790,1.253
1,1284480,1988532871,1.248
1,1284480,1988634146,1.252
1,1284480,1993609157,1.262
1,1284480,1987463302,1.254
1,1284480,1988947918,1.272
1,1284480,1989935192,1.260
1,1284480,1987876031,1.255
1,1284480,1988886112,1.266
1,1284480,1987135680,1.241
1,1910336,1992060051,1.334
1,1910336,1992025706,1.309
1,1910336,1991237960,1.325
1,1910336,1995095586,1.313
1,1910336,1994537432,1.311
1,1910336,1992625720,1.329
1,1910336,1991076603,1.311
1,1910336,1993044696,1.326
1,1910336,1993710005,1.325
1,1910336,1991080429,1.318
1,1910336,1993061125,1.324
1,1910336,1990374198,1.322
1,1910336,1990918332,1.323
1,1910336,1994212448,1.334
1,1910336,1992036597,1.322
1,1910336,1992974358,1.320
1,1910336,1992128335,1.336
1,1910336,1991455847,1.330
1,1910336,1990562190,1.317
1,1910336,1990448206,1.325
1,1910336,1992231860,1.319
1,1910336,1992791123,1.317
1,1910336,1992859786,1.312
1,1910336,1991761122,1.313
1,1910336,1990741308,1.307
1,1910336,1991534340,1.324
1,1910336,1992974008,1.321
1,1910336,1988984970,1.323
1,1910336,1992213011,1.314
1,1910336,1991889637,1.320
1,2536192,1998453596,1.362
1,2536192,1995718184,1.357
1,2536192,1995598931,1.374
1,2536192,1997183667,1.374
1,2536192,1996022327,1.386
1,2536192,1997166123,1.368
1,2536192,1997850910,1.365
1,2536192,1995754525,1.365
1,2536192,1995899378,1.377
1,2536192,1996051058,1.372
1,2536192,1994256846,1.362
1,2536192,1993413300,1.365
1,2536192,1995700026,1.373
1,2536192,1997120419,1.373
1,2536192,1997539862,1.373
1,2536192,1993022420,1.371
1,2536192,1995285522,1.373
1,2536192,1997729619,1.367
1,2536192,1996972026,1.375
1,2536192,1995563291,1.367
1,2536192,1993556164,1.376
1,2536192,1997257993,1.368
1,2536192,1997530162,1.363
1,2536192,1996045143,1.371
1,2536192,1999286028,1.358
1,2536192,1999434834,1.366
1,2536192,1995041238,1.373
1,2536192,1996475910,1.363
1,2536192,1997363295,1.370
1,2536192,1996916784,1.361
1,3162048,2001892649,1.385
1,3162048,1998941145,1.381
1,3162048,2002104613,1.382
1,3162048,2000418450,1.386
1,3162048,2004902447,1.386
1,3162048,2001619109,1.375
1,3162048,2006915358,1.378
1,3162048,1998645074,1.393
1,3162048,2002354332,1.373
1,3162048,2001089099,1.371
1,3162048,2000999383,1.370
1,3162048,2001110885,1.341
1,3162048,2003312690,1.360
1,3162048,2001813474,1.379
1,3162048,2002332947,1.381
1,3162048,2002727780,1.377
1,3162048,2001019174,1.373
1,3162048,2001663879,1.368
1,3162048,2004525251,1.373
1,3162048,2003343892,1.372
1,3162048,2001964510,1.366
1,3162048,2002204133,1.375
1,3162048,2001710425,1.383
1,3162048,2003469449,1.381
1,3162048,2000116422,1.376
1,3162048,2002464993,1.384
1,3162048,2000789781,1.383
1,3162048,2003790261,1.383
1,3162048,2000283561,1.384
1,3162048,2006279467,1.370
1,3787904,2009473539,1.352
1,3787904,2009810509,1.349
1,3787904,2007385595,1.354
1,3787904,2008829251,1.355
1,3787904,2008178186,1.347
1,3787904,2009460844,1.336
1,3787904,2010564192,1.339
1,3787904,2007356551,1.335
1,3787904,2009110499,1.338
1,3787904,2006468637,1.341
1,3787904,2008668330,1.327
1,3787904,2009557640,1.351
1,3787904,2007982881,1.349
1,3787904,2009950077,1.348
1,3787904,2007309904,1.352
1,3787904,2006466236,1.349
1,3787904,2008054975,1.363
1,3787904,2010455645,1.363
1,3787904,2009263776,1.367
1,3787904,2006505527,1.366
1,3787904,2008060724,1.353
1,3787904,2007000227,1.366
1,3787904,2007895861,1.372
1,3787904,2006915885,1.355
1,3787904,2009725456,1.364
1,3787904,2009189281,1.357
1,3787904,2008071507,1.366
1,3787904,2006282115,1.363
1,3787904,2004658752,1.365
1,3787904,2006437080,1.380
1,4413760,2011269827,1.338
1,4413760,2012915319,1.331
1,4413760,2013743821,1.323
1,4413760,2014261901,1.324
1,4413760,2011585284,1.322
1,4413760,2011177285,1.325
1,4413760,2009893340,1.324
1,4413760,2013441687,1.322
1,4413760,2012290905,1.322
1,4413760,2013399786,1.324
1,4413760,2012002684,1.329
1,4413760,2012218769,1.317
1,4413760,2011384999,1.325
1,4413760,2010621744,1.326
1,4413760,2013539349,1.319
1,4413760,2014483602,1.322
1,4413760,2013547987,1.326
1,4413760,2010278986,1.321
1,4413760,2010855487,1.330
1,4413760,2013432197,1.325
1,4413760,2011322185,1.325
1,4413760,2012401124,1.336
1,4413760,2013269849,1.328
1,4413760,2009089288,1.320
1,4413760,2012406525,1.319
1,4413760,2010650069,1.322
1,4413760,2009391420,1.326
1,4413760,2009252678,1.320
1,4413760,2011783355,1.322
1,4413760,2012057474,1.320
1,5039616,2013255450,1.307
1,5039616,2013071261,1.302
1,5039616,2013025964,1.316
1,5039616,2013416739,1.303
1,5039616,2015012082,1.314
1,5039616,2013888147,1.311
1,5039616,2011516318,1.311
1,5039616,2013697013,1.309
1,5039616,2012172652,1.304
1,5039616,2016237973,1.319
1,5039616,2012694790,1.308
1,5039616,2016891110,1.311
1,5039616,2012719426,1.311
1,5039616,2012038656,1.309
1,5039616,2014909606,1.301
1,5039616,2014425301,1.300
1,5039616,2015991894,1.309
1,5039616,2015864528,1.306
1,5039616,2012609372,1.305
1,5039616,2013165124,1.300
1,5039616,2015802552,1.308
1,5039616,2013449303,1.308
1,5039616,2011272096,1.310
1,5039616,2014675483,1.318
1,5039616,2013183402,1.306
1,5039616,2012825124,1.313
1,5039616,2014689794,1.301
1,5039616,2013045522,1.311
1,5039616,2015638271,1.306
1,5039616,2015258628,1.310
1,5665472,2013095778,1.302
1,5665472,2013911346,1.307
1,5665472,2015930719,1.300
1,5665472,2018253369,1.313
1,5665472,2014951958,1.315
1,5665472,2016394287,1.298
1,5665472,2013193655,1.305
1,5665472,2014171893,1.295
1,5665472,2013989657,1.305
1,5665472,2016192169,1.298
1,5665472,2014896026,1.298
1,5665472,2014065523,1.299
1,5665472,2017602396,1.312
1,5665472,2015007821,1.297
1,5665472,2017934252,1.305
1,5665472,2018755101,1.298
1,5665472,2011639558,1.297
1,5665472,2018486140,1.310
1,5665472,2015321968,1.301
1,5665472,2013423421,1.313
1,5665472,2013319918,1.297
1,5665472,2017933849,1.313
1,5665472,2018557112,1.301
1,5665472,2015321852,1.304
1,5665472,2014011662,1.300
1,5665472,2013817171,1.304
1,5665472,2017161582,1.310
1,5665472,2018759023,1.307
1,5665472,2017046608,1.313
1,5665472,2013950196,1.304
1,6291328,2017103823,1.298
1,6291328,2020063521,1.305
1,6291328,2017889481,1.295
1,6291328,2017171547,1.302
1,6291328,2016675377,1.298
1,6291328,2015678731,1.293
1,6291328,2018278378,1.308
1,6291328,2016009178,1.310
1,6291328,2015655398,1.304
1,6291328,2016755317,1.300
1,6291328,2018872914,1.306
1,6291328,2015268836,1.302
1,6291328,2017337678,1.303
1,6291328,2018012228,1.294
1,6291328,2016136754,1.303
1,6291328,2016349513,1.298
1,6291328,2015375378,1.304
1,6291328,2018289027,1.294
1,6291328,2016290219,1.290
1,6291328,2019498065,1.308
1,6291328,2017365546,1.299
1,6291328,2018111301,1.305
1,6291328,2018014578,1.307
1,6291328,2016614327,1.305
1,6291328,2016127487,1.300
1,6291328,2012911192,1.296
1,6291328,2018686834,1.295
1,6291328,2015399030,1.300
1,6291328,2015704716,1.304
1,6291328,2017263682,1.303
