Time,Core,IPC,LLC Misses,LLC[KB]
2018-04-30 15:28:58,"0",0.39,249,0.0
2018-04-30 15:28:58,"0",0.89,23489,3248.0
2018-04-30 15:28:58,"0",0.99,5090,6440.0
2018-04-30 15:28:58,"0",1.01,13083,20664.0
2018-04-30 15:28:58,"0",0.96,5081,21280.0
2018-04-30 15:28:58,"0",0.98,5137,21616.0
2018-04-30 15:28:58,"0",0.98,3923,22064.0
2018-04-30 15:28:58,"0",0.99,4789,22792.0
2018-04-30 15:28:58,"0",1.00,5119,23240.0
2018-04-30 15:28:58,"0",1.02,5843,24136.0
2018-04-30 15:28:59,"0",1.48,21605,24696.0
2018-04-30 15:28:59,"0",1.91,57362,24752.0
2018-04-30 15:28:59,"0",1.09,17943,25144.0
2018-04-30 15:28:59,"0",0.26,41,25144.0
2018-04-30 15:28:59,"0",0.04,40,25144.0
2018-04-30 15:28:59,"0",0.15,676,25144.0
2018-04-30 15:28:59,"0",0.27,5066,25368.0
2018-04-30 15:28:59,"0",0.22,1222,25480.0
2018-04-30 15:28:59,"0",0.29,1486,25536.0
2018-04-30 15:28:59,"0",0.23,642,25536.0
2018-04-30 15:29:00,"0",0.30,1008,25592.0
2018-04-30 15:29:00,"0",0.23,287,25536.0
2018-04-30 15:29:00,"0",0.31,189,25424.0
2018-04-30 15:29:00,"0",0.27,38,25424.0
2018-04-30 15:29:00,"0",0.24,723,25424.0
2018-04-30 15:29:00,"0",0.17,127,25424.0
2018-04-30 15:29:00,"0",0.16,38,25424.0
2018-04-30 15:29:00,"0",0.28,48,25424.0
2018-04-30 15:29:00,"0",0.18,244,25368.0
2018-04-30 15:29:00,"0",0.30,67,25312.0
2018-04-30 15:29:01,"0",0.08,37,25312.0
2018-04-30 15:29:01,"0",0.34,46,25312.0
2018-04-30 15:29:01,"0",0.23,35,25312.0
2018-04-30 15:29:01,"0",0.05,40,25312.0
2018-04-30 15:29:01,"0",0.20,46,25312.0
2018-04-30 15:29:01,"0",0.28,115,25256.0
2018-04-30 15:29:01,"0",0.18,129,25256.0
2018-04-30 15:29:01,"0",0.29,36,25200.0
2018-04-30 15:29:01,"0",0.31,38,25200.0
2018-04-30 15:29:01,"0",0.28,87,25200.0
2018-04-30 15:29:02,"0",0.29,38,25200.0
2018-04-30 15:29:02,"0",0.38,228,25256.0
2018-04-30 15:29:02,"0",0.31,57,25256.0
2018-04-30 15:29:02,"0",0.23,39,25256.0
2018-04-30 15:29:02,"0",0.36,437,25256.0
2018-04-30 15:29:02,"0",0.22,109,25144.0
2018-04-30 15:29:02,"0",0.30,31,25144.0
2018-04-30 15:29:02,"0",0.16,32,25144.0
2018-04-30 15:29:02,"0",0.34,72,25144.0
2018-04-30 15:29:02,"0",0.36,81,25088.0
2018-04-30 15:29:03,"0",0.21,41,25088.0
2018-04-30 15:29:03,"0",0.21,41,25088.0
2018-04-30 15:29:03,"0",0.21,37,25088.0
2018-04-30 15:29:03,"0",0.16,194,25144.0
2018-04-30 15:29:03,"0",0.06,39,25144.0
2018-04-30 15:29:03,"0",0.24,167,25144.0
2018-04-30 15:29:03,"0",0.19,36,25144.0
2018-04-30 15:29:03,"0",0.11,57,25144.0
2018-04-30 15:29:03,"0",0.27,60,25144.0
2018-04-30 15:29:03,"0",0.18,187,25144.0
