Time,Core,IPC,LLC Misses,LLC[KB]
2018-04-30 15:29:04,"0",0.29,482,56.0
2018-04-30 15:29:04,"0",0.88,25838,4088.0
2018-04-30 15:29:04,"0",0.99,5844,9072.0
2018-04-30 15:29:04,"0",1.01,11523,21168.0
2018-04-30 15:29:04,"0",0.96,5925,22176.0
2018-04-30 15:29:04,"0",0.96,4942,22624.0
2018-04-30 15:29:04,"0",0.99,4412,23240.0
2018-04-30 15:29:04,"0",0.97,4443,23688.0
2018-04-30 15:29:04,"0",0.97,6003,23968.0
2018-04-30 15:29:05,"0",1.00,5455,24472.0
2018-04-30 15:29:05,"0",1.46,23737,24696.0
2018-04-30 15:29:05,"0",1.91,57079,25032.0
2018-04-30 15:29:05,"0",1.02,19816,25816.0
2018-04-30 15:29:05,"0",0.09,36,25816.0
2018-04-30 15:29:05,"0",0.29,34,25816.0
2018-04-30 15:29:05,"0",0.21,649,25816.0
2018-04-30 15:29:05,"0",0.18,46,25816.0
2018-04-30 15:29:05,"0",0.04,63,25816.0
2018-04-30 15:29:05,"0",0.20,109,25816.0
2018-04-30 15:29:06,"0",0.26,277,25816.0
2018-04-30 15:29:06,"0",0.16,37,25760.0
2018-04-30 15:29:06,"0",0.04,44,25760.0
2018-04-30 15:29:06,"0",0.14,171,25760.0
2018-04-30 15:29:06,"0",0.27,38,25760.0
2018-04-30 15:29:06,"0",0.23,688,25816.0
2018-04-30 15:29:06,"0",0.25,94,25760.0
2018-04-30 15:29:06,"0",0.44,37,25760.0
2018-04-30 15:29:06,"0",0.05,44,25760.0
2018-04-30 15:29:06,"0",0.17,486,25648.0
2018-04-30 15:29:07,"0",0.25,187,25648.0
2018-04-30 15:29:07,"0",0.22,40,25648.0
2018-04-30 15:29:07,"0",0.06,39,25592.0
2018-04-30 15:29:07,"0",0.25,36,25592.0
2018-04-30 15:29:07,"0",0.29,44,25592.0
2018-04-30 15:29:07,"0",0.28,38,25592.0
2018-04-30 15:29:07,"0",0.25,193,25592.0
2018-04-30 15:29:07,"0",0.21,48,25592.0
2018-04-30 15:29:07,"0",0.06,147,25592.0
2018-04-30 15:29:07,"0",0.22,99,25592.0
2018-04-30 15:29:08,"0",0.25,179,25536.0
2018-04-30 15:29:08,"0",0.40,33,25536.0
2018-04-30 15:29:08,"0",0.04,36,25536.0
2018-04-30 15:29:08,"0",0.13,63,25536.0
2018-04-30 15:29:08,"0",0.27,36,25536.0
2018-04-30 15:29:08,"0",0.37,558,25536.0
2018-04-30 15:29:08,"0",0.29,75,25480.0
2018-04-30 15:29:08,"0",0.44,40,25480.0
2018-04-30 15:29:08,"0",0.04,44,25480.0
2018-04-30 15:29:08,"0",0.23,116,25480.0
2018-04-30 15:29:09,"0",0.27,89,25480.0
2018-04-30 15:29:09,"0",0.05,41,25480.0
2018-04-30 15:29:09,"0",0.11,46,25480.0
2018-04-30 15:29:09,"0",0.32,36,25424.0
2018-04-30 15:29:09,"0",0.29,37,25424.0
2018-04-30 15:29:09,"0",0.28,41,25424.0
2018-04-30 15:29:09,"0",0.27,238,25424.0
2018-04-30 15:29:09,"0",0.18,41,25424.0
2018-04-30 15:29:09,"0",0.04,48,25424.0
2018-04-30 15:29:09,"0",0.23,69,25424.0
