Time,Core,IPC,LLC Misses,LLC[KB]
2018-04-30 15:30:58,"0",0.55,169,27272.0
2018-04-30 15:30:58,"0",0.86,13951,27832.0
2018-04-30 15:30:58,"0",0.98,2706,27832.0
2018-04-30 15:30:58,"0",0.98,9260,28280.0
2018-04-30 15:30:58,"0",0.98,3610,28392.0
2018-04-30 15:30:58,"0",0.99,4226,28504.0
2018-04-30 15:30:58,"0",1.01,3786,28504.0
2018-04-30 15:30:58,"0",1.04,3938,28504.0
2018-04-30 15:30:58,"0",1.03,4312,28448.0
2018-04-30 15:30:59,"0",1.01,5009,28504.0
2018-04-30 15:30:59,"0",1.47,20389,28560.0
2018-04-30 15:30:59,"0",1.90,51379,28896.0
2018-04-30 15:30:59,"0",1.32,15125,28952.0
2018-04-30 15:30:59,"0",0.25,780,28952.0
2018-04-30 15:30:59,"0",0.19,56,28784.0
2018-04-30 15:30:59,"0",0.15,562,28784.0
2018-04-30 15:30:59,"0",0.24,36,28784.0
2018-04-30 15:30:59,"0",0.06,139,28784.0
2018-04-30 15:30:59,"0",0.21,65,28784.0
2018-04-30 15:31:00,"0",0.32,42,28784.0
2018-04-30 15:31:00,"0",0.24,43,28784.0
2018-04-30 15:31:00,"0",0.32,36,28784.0
2018-04-30 15:31:00,"0",0.24,142,28784.0
2018-04-30 15:31:00,"0",0.33,32,28728.0
2018-04-30 15:31:00,"0",0.26,32,28728.0
2018-04-30 15:31:00,"0",0.30,90,28728.0
2018-04-30 15:31:00,"0",0.32,40,28728.0
2018-04-30 15:31:00,"0",0.31,37,28728.0
2018-04-30 15:31:00,"0",0.20,139,28728.0
2018-04-30 15:31:01,"0",0.27,40,28728.0
2018-04-30 15:31:01,"0",0.31,40,28728.0
2018-04-30 15:31:01,"0",0.30,40,28728.0
2018-04-30 15:31:01,"0",0.29,84,28728.0
2018-04-30 15:31:01,"0",0.43,450,28728.0
2018-04-30 15:31:01,"0",0.25,32,28728.0
2018-04-30 15:31:01,"0",0.32,166,28728.0
2018-04-30 15:31:01,"0",0.22,37,28728.0
2018-04-30 15:31:01,"0",0.03,41,28728.0
2018-04-30 15:31:01,"0",0.23,65,28616.0
2018-04-30 15:31:02,"0",0.20,202,28616.0
2018-04-30 15:31:02,"0",0.13,40,28616.0
2018-04-30 15:31:02,"0",0.28,44,28616.0
2018-04-30 15:31:02,"0",0.30,105,28616.0
2018-04-30 15:31:02,"0",0.17,37,28616.0
2018-04-30 15:31:02,"0",0.05,99,28616.0
2018-04-30 15:31:02,"0",0.15,91,28616.0
2018-04-30 15:31:02,"0",0.09,38,28616.0
2018-04-30 15:31:02,"0",0.26,54,28616.0
2018-04-30 15:31:02,"0",0.42,203,28616.0
2018-04-30 15:31:03,"0",0.24,137,28616.0
2018-04-30 15:31:03,"0",0.04,41,28616.0
2018-04-30 15:31:03,"0",0.09,56,28616.0
2018-04-30 15:31:03,"0",0.25,90,28616.0
2018-04-30 15:31:03,"0",0.37,123,28616.0
2018-04-30 15:31:03,"0",0.22,38,28616.0
2018-04-30 15:31:03,"0",0.14,157,28616.0
2018-04-30 15:31:03,"0",0.26,39,28616.0
2018-04-30 15:31:03,"0",0.06,50,28616.0
2018-04-30 15:31:03,"0",0.22,55,28616.0
